{
  "_class": "shapeGroup",
  "booleanOperation": 0,
  "clippingMaskMode": 0,
  "do_objectID": "02D1E9D1-BE19-41D0-8AEC-ED1CE1E3A20F",
  "exportOptions": {
    "_class": "exportOptions",
    "do_objectID": "5D6394E7-1EE5-45E8-9362-8D9EF0EF3AAD",
    "exportFormats": [
    ],
    "includedLayerIds": [
    ],
    "layerOptions": 0,
    "shouldTrim": false
  },
  "frame": {
    "_class": "rect",
    "constrainProportions": false,
    "do_objectID": "EA8809FB-ADE7-45AC-861B-4148B0B16303",
    "height": 20,
    "width": 20,
    "x": 2,
    "y": 2
  },
  "hasClickThrough": false,
  "hasClippingMask": false,
  "isFixedToViewport": false,
  "isFlippedHorizontal": false,
  "isFlippedVertical": false,
  "isLocked": false,
  "isVisible": true,
  "layerListExpandedType": 1,
  "layers": [
    {
      "class": "shapePath",
      "id": "6798560F-50BF-48F2-988E-14F68A6D92CB"
    },
    {
      "class": "shapePath",
      "id": "54A3316D-DBBB-4DC0-9504-81AAF67D3AC7"
    },
    {
      "class": "shapePath",
      "id": "FB29152B-E51F-4FD5-BFE3-076CDF1706CF"
    }
  ],
  "name": "Shape",
  "nameIsFixed": false,
  "resizingConstraint": 63,
  "resizingType": 0,
  "rotation": 0,
  "shouldBreakMaskChain": false,
  "style": {
    "_class": "style",
    "do_objectID": "B52ECAA9-9F1B-4348-B46B-59BF61DC9052",
    "endMarkerType": 0,
    "fills": [
      {
        "_class": "fill",
        "color": {
          "_class": "color",
          "alpha": 0.38,
          "blue": 0,
          "green": 0,
          "red": 0
        },
        "fillType": 0,
        "isEnabled": true,
        "noiseIndex": 0,
        "noiseIntensity": 0,
        "patternFillType": 1,
        "patternTileScale": 1
      }
    ],
    "miterLimit": 10,
    "startMarkerType": 0,
    "windingRule": 0
  },
  "windingRule": 0
}