{
  "_class": "shapePath",
  "booleanOperation": -1,
  "do_objectID": "005EA3AF-2C67-4D54-9A66-28199B870A5E",
  "edited": true,
  "exportOptions": {
    "_class": "exportOptions",
    "do_objectID": "1A2CC786-0657-4D87-AE9D-4011F902331B",
    "exportFormats": [
    ],
    "includedLayerIds": [
    ],
    "layerOptions": 0,
    "shouldTrim": false
  },
  "frame": {
    "_class": "rect",
    "constrainProportions": false,
    "do_objectID": "3B981CCB-BE21-4694-A96C-0176E831FB5D",
    "height": 3.99999976,
    "width": 4.705299087682037,
    "x": 6.70529992768198,
    "y": 6.999999580000001
  },
  "isClosed": true,
  "isFixedToViewport": false,
  "isFlippedHorizontal": false,
  "isFlippedVertical": false,
  "isLocked": false,
  "isVisible": true,
  "layerListExpandedType": 0,
  "name": "Path",
  "nameIsFixed": false,
  "pointRadiusBehaviour": 1,
  "points": [
    {
      "_class": "curvePoint",
      "cornerRadius": 0,
      "curveFrom": "{0.14989468565950148, 0}",
      "curveMode": 1,
      "curveTo": "{0.14989468565950148, 0}",
      "hasCurveFrom": false,
      "hasCurveTo": false,
      "point": "{0.14989468565950148, 0}"
    },
    {
      "_class": "curvePoint",
      "cornerRadius": 0,
      "curveFrom": "{1, 0}",
      "curveMode": 1,
      "curveTo": "{1, 0}",
      "hasCurveFrom": false,
      "hasCurveTo": false,
      "point": "{1, 0}"
    },
    {
      "_class": "curvePoint",
      "cornerRadius": 0,
      "curveFrom": "{0.85010530796470851, 1}",
      "curveMode": 1,
      "curveTo": "{0.85010530796470851, 1}",
      "hasCurveFrom": false,
      "hasCurveTo": false,
      "point": "{0.85010530796470851, 1}"
    },
    {
      "_class": "curvePoint",
      "cornerRadius": 0,
      "curveFrom": "{0, 1}",
      "curveMode": 1,
      "curveTo": "{0, 1}",
      "hasCurveFrom": false,
      "hasCurveTo": false,
      "point": "{0, 1}"
    }
  ],
  "resizingConstraint": 63,
  "resizingType": 0,
  "rotation": 0,
  "shouldBreakMaskChain": false
}