{
  "_class": "shapeGroup",
  "booleanOperation": 0,
  "clippingMaskMode": 0,
  "do_objectID": "195C42A8-7FA2-44D4-9FEE-01ADA3BF517F",
  "exportOptions": {
    "_class": "exportOptions",
    "do_objectID": "BE345FC3-FD3D-4B8C-971B-646B785801BC",
    "exportFormats": [
    ],
    "includedLayerIds": [
    ],
    "layerOptions": 0,
    "shouldTrim": false
  },
  "frame": {
    "_class": "rect",
    "constrainProportions": true,
    "do_objectID": "02FB8B5E-9570-4F9E-85C3-112CA5377668",
    "height": 24,
    "width": 24,
    "x": 0,
    "y": 0
  },
  "hasClickThrough": true,
  "hasClippingMask": false,
  "isFixedToViewport": false,
  "isFlippedHorizontal": false,
  "isFlippedVertical": false,
  "isLocked": false,
  "isVisible": true,
  "layerListExpandedType": 1,
  "layers": [
    {
      "class": "rectangle",
      "id": "B44A2F5D-1EC2-4BBA-B089-3B3F3E441E40"
    }
  ],
  "name": "Trim area",
  "nameIsFixed": true,
  "resizingConstraint": 45,
  "resizingType": 0,
  "rotation": 0,
  "shouldBreakMaskChain": false,
  "style": {
    "_class": "style",
    "do_objectID": "59B87FBC-9C06-45F1-8D3C-E2E5398A76EE",
    "endMarkerType": 0,
    "miterLimit": 10,
    "sharedObjectID": "47B8F8CE-DC0F-49E7-9424-8D54C646944A",
    "startMarkerType": 0,
    "windingRule": 1
  },
  "windingRule": 1
}