{
  "_class": "shapeGroup",
  "booleanOperation": 0,
  "clippingMaskMode": 0,
  "do_objectID": "A5A389DF-8BD0-4EAE-B59F-2594F040BA28",
  "exportOptions": {
    "_class": "exportOptions",
    "do_objectID": "A2CED4AD-3648-4D5C-B4B0-3008C534E33C",
    "exportFormats": [
    ],
    "includedLayerIds": [
    ],
    "layerOptions": 0,
    "shouldTrim": false
  },
  "frame": {
    "_class": "rect",
    "constrainProportions": false,
    "do_objectID": "57EFBB0E-9A4F-4E06-86EE-52E795AA4FCC",
    "height": 59,
    "width": 241,
    "x": 0,
    "y": 0
  },
  "hasClickThrough": false,
  "hasClippingMask": false,
  "isFixedToViewport": false,
  "isFlippedHorizontal": false,
  "isFlippedVertical": false,
  "isLocked": false,
  "isVisible": true,
  "layerListExpandedType": 0,
  "layers": [
    {
      "class": "rectangle",
      "id": "0D6D158E-E6A9-4F51-922C-8A3931A00C99"
    }
  ],
  "name": "Rectangle 2 Copy 6",
  "nameIsFixed": false,
  "resizingConstraint": 19,
  "resizingType": 0,
  "rotation": 0,
  "shouldBreakMaskChain": false,
  "style": {
    "_class": "style",
    "contextSettings": {
      "_class": "graphicsContextSettings",
      "blendMode": 0,
      "do_objectID": "D524E9D2-9847-4FE6-B344-D91C6030464C",
      "opacity": 0.08
    },
    "do_objectID": "FD6605E6-709D-4CE5-95D9-5C415C352942",
    "endMarkerType": 0,
    "fills": [
      {
        "_class": "fill",
        "color": {
          "_class": "color",
          "alpha": 1,
          "blue": 0,
          "green": 0,
          "red": 0
        },
        "fillType": 0,
        "isEnabled": true,
        "noiseIndex": 0,
        "noiseIntensity": 0,
        "patternFillType": 1,
        "patternTileScale": 1
      }
    ],
    "miterLimit": 10,
    "startMarkerType": 0,
    "windingRule": 1
  },
  "windingRule": 1
}