{
  "_class": "group",
  "booleanOperation": 0,
  "do_objectID": "1D0703C2-A377-40D3-905F-127B9F84EF04",
  "exportOptions": {
    "_class": "exportOptions",
    "do_objectID": "0AC37CBA-0380-422A-B2B5-0051D8BC96B8",
    "exportFormats": [
    ],
    "includedLayerIds": [
    ],
    "layerOptions": 0,
    "shouldTrim": false
  },
  "frame": {
    "_class": "rect",
    "constrainProportions": false,
    "do_objectID": "A2699661-F18E-4C7F-9794-83D9F0F8835E",
    "height": 240,
    "width": 1440,
    "x": 0,
    "y": 0
  },
  "hasClickThrough": true,
  "isFixedToViewport": false,
  "isFlippedHorizontal": false,
  "isFlippedVertical": false,
  "isLocked": false,
  "isVisible": true,
  "layerListExpandedType": 2,
  "layers": [
    {
      "class": "shapeGroup",
      "id": "534A53E1-1E6E-48E2-987C-282C07A29711"
    },
    {
      "class": "shapeGroup",
      "id": "0AD1103A-8C1C-4C73-A46C-2392C3268178"
    },
    {
      "class": "text",
      "id": "FBFD3E68-3A4A-4D2F-8B31-97F5C4F9C4ED"
    }
  ],
  "name": "Artboard Header",
  "nameIsFixed": true,
  "resizingConstraint": 63,
  "resizingType": 0,
  "rotation": 0,
  "shouldBreakMaskChain": false,
  "style": {
    "_class": "style",
    "do_objectID": "56F9AA32-7F46-4454-8069-340A79F7A7AC",
    "endMarkerType": 0,
    "miterLimit": 10,
    "startMarkerType": 0,
    "windingRule": 1
  }
}