{
  "_class": "shapeGroup",
  "booleanOperation": 0,
  "clippingMaskMode": 0,
  "do_objectID": "55C99319-A569-477E-B39E-FF6368403D5D",
  "exportOptions": {
    "_class": "exportOptions",
    "do_objectID": "90D8EA03-CD78-4C91-9E5D-123F49209EC6",
    "exportFormats": [
    ],
    "includedLayerIds": [
    ],
    "layerOptions": 0,
    "shouldTrim": false
  },
  "frame": {
    "_class": "rect",
    "constrainProportions": false,
    "do_objectID": "2D726661-D285-4312-A477-978FDC4257C3",
    "height": 13.04302199474914,
    "width": 10.09938987550856,
    "x": 33,
    "y": 19
  },
  "hasClickThrough": false,
  "hasClippingMask": false,
  "isFixedToViewport": false,
  "isFlippedHorizontal": false,
  "isFlippedVertical": false,
  "isLocked": false,
  "isVisible": true,
  "layerListExpandedType": 0,
  "layers": [
    {
      "class": "shapePath",
      "id": "3F05B621-F6F7-4162-AC9E-54C733881E41"
    }
  ],
  "name": "Path 3 Copy",
  "nameIsFixed": false,
  "originalObjectID": "E6EE8D0D-FAEA-4800-9ADD-F51D52478D43",
  "resizingConstraint": 63,
  "resizingType": 0,
  "rotation": 0,
  "shouldBreakMaskChain": false,
  "style": {
    "_class": "style",
    "do_objectID": "D8678902-82C5-4720-8F20-63138489D25F",
    "endMarkerType": 0,
    "fills": [
      {
        "_class": "fill",
        "color": {
          "_class": "color",
          "alpha": 1,
          "blue": 0.9098039215686274,
          "green": 0.9098039215686274,
          "red": 0.9058823529411765
        },
        "fillType": 1,
        "gradient": {
          "_class": "gradient",
          "elipseLength": 0,
          "from": "{0.38865382658984871, 0.18102426051248316}",
          "gradientType": 0,
          "stops": [
            {
              "_class": "gradientStop",
              "color": {
                "_class": "color",
                "alpha": 0.56,
                "blue": 0.2196078431372549,
                "green": 0.196078431372549,
                "red": 0.1490196078431373
              },
              "position": 0
            },
            {
              "_class": "gradientStop",
              "color": {
                "_class": "color",
                "alpha": 0,
                "blue": 0.2196078431372549,
                "green": 0.196078431372549,
                "red": 0.1490196078431373
              },
              "position": 1
            }
          ],
          "to": "{1, 0.68776422096072876}"
        },
        "isEnabled": true,
        "noiseIndex": 0,
        "noiseIntensity": 0,
        "patternFillType": 1,
        "patternTileScale": 1
      }
    ],
    "miterLimit": 10,
    "startMarkerType": 0,
    "windingRule": 1
  },
  "windingRule": 1
}