{
  "_class": "shapePath",
  "booleanOperation": -1,
  "do_objectID": "87438843-6317-498B-A759-8EF066C1019C",
  "edited": true,
  "exportOptions": {
    "_class": "exportOptions",
    "do_objectID": "62867040-FDC4-4C09-8B6B-2E144BBC8160",
    "exportFormats": [
    ],
    "includedLayerIds": [
    ],
    "layerOptions": 0,
    "shouldTrim": false
  },
  "frame": {
    "_class": "rect",
    "constrainProportions": false,
    "do_objectID": "272B9E97-8099-44A4-B410-5E033CCB9C9B",
    "height": 14,
    "width": 14,
    "x": 0,
    "y": 0
  },
  "isClosed": true,
  "isFixedToViewport": false,
  "isFlippedHorizontal": false,
  "isFlippedVertical": false,
  "isLocked": false,
  "isVisible": true,
  "layerListExpandedType": 0,
  "name": "Path",
  "nameIsFixed": false,
  "pointRadiusBehaviour": 0,
  "points": [
    {
      "_class": "curvePoint",
      "cornerRadius": 0,
      "curveFrom": "{1, 0.5714285714285714}",
      "curveMode": 1,
      "curveTo": "{1, 0.5714285714285714}",
      "hasCurveFrom": false,
      "hasCurveTo": false,
      "point": "{1, 0.5714285714285714}"
    },
    {
      "_class": "curvePoint",
      "cornerRadius": 0,
      "curveFrom": "{0.5714285714285714, 0.5714285714285714}",
      "curveMode": 1,
      "curveTo": "{0.5714285714285714, 0.5714285714285714}",
      "hasCurveFrom": false,
      "hasCurveTo": false,
      "point": "{0.5714285714285714, 0.5714285714285714}"
    },
    {
      "_class": "curvePoint",
      "cornerRadius": 0,
      "curveFrom": "{0.5714285714285714, 1}",
      "curveMode": 1,
      "curveTo": "{0.5714285714285714, 1}",
      "hasCurveFrom": false,
      "hasCurveTo": false,
      "point": "{0.5714285714285714, 1}"
    },
    {
      "_class": "curvePoint",
      "cornerRadius": 0,
      "curveFrom": "{0.42857142857142855, 1}",
      "curveMode": 1,
      "curveTo": "{0.42857142857142855, 1}",
      "hasCurveFrom": false,
      "hasCurveTo": false,
      "point": "{0.42857142857142855, 1}"
    },
    {
      "_class": "curvePoint",
      "cornerRadius": 0,
      "curveFrom": "{0.42857142857142855, 0.5714285714285714}",
      "curveMode": 1,
      "curveTo": "{0.42857142857142855, 0.5714285714285714}",
      "hasCurveFrom": false,
      "hasCurveTo": false,
      "point": "{0.42857142857142855, 0.5714285714285714}"
    },
    {
      "_class": "curvePoint",
      "cornerRadius": 0,
      "curveFrom": "{0, 0.5714285714285714}",
      "curveMode": 1,
      "curveTo": "{0, 0.5714285714285714}",
      "hasCurveFrom": false,
      "hasCurveTo": false,
      "point": "{0, 0.5714285714285714}"
    },
    {
      "_class": "curvePoint",
      "cornerRadius": 0,
      "curveFrom": "{0, 0.42857142857142855}",
      "curveMode": 1,
      "curveTo": "{0, 0.42857142857142855}",
      "hasCurveFrom": false,
      "hasCurveTo": false,
      "point": "{0, 0.42857142857142855}"
    },
    {
      "_class": "curvePoint",
      "cornerRadius": 0,
      "curveFrom": "{0.42857142857142855, 0.42857142857142855}",
      "curveMode": 1,
      "curveTo": "{0.42857142857142855, 0.42857142857142855}",
      "hasCurveFrom": false,
      "hasCurveTo": false,
      "point": "{0.42857142857142855, 0.42857142857142855}"
    },
    {
      "_class": "curvePoint",
      "cornerRadius": 0,
      "curveFrom": "{0.42857142857142855, 0}",
      "curveMode": 1,
      "curveTo": "{0.42857142857142855, 0}",
      "hasCurveFrom": false,
      "hasCurveTo": false,
      "point": "{0.42857142857142855, 0}"
    },
    {
      "_class": "curvePoint",
      "cornerRadius": 0,
      "curveFrom": "{0.5714285714285714, 0}",
      "curveMode": 1,
      "curveTo": "{0.5714285714285714, 0}",
      "hasCurveFrom": false,
      "hasCurveTo": false,
      "point": "{0.5714285714285714, 0}"
    },
    {
      "_class": "curvePoint",
      "cornerRadius": 0,
      "curveFrom": "{0.5714285714285714, 0.42857142857142855}",
      "curveMode": 1,
      "curveTo": "{0.5714285714285714, 0.42857142857142855}",
      "hasCurveFrom": false,
      "hasCurveTo": false,
      "point": "{0.5714285714285714, 0.42857142857142855}"
    },
    {
      "_class": "curvePoint",
      "cornerRadius": 0,
      "curveFrom": "{1, 0.42857142857142855}",
      "curveMode": 1,
      "curveTo": "{1, 0.42857142857142855}",
      "hasCurveFrom": false,
      "hasCurveTo": false,
      "point": "{1, 0.42857142857142855}"
    },
    {
      "_class": "curvePoint",
      "cornerRadius": 0,
      "curveFrom": "{1, 0.5714285714285714}",
      "curveMode": 1,
      "curveTo": "{1, 0.5714285714285714}",
      "hasCurveFrom": false,
      "hasCurveTo": false,
      "point": "{1, 0.5714285714285714}"
    }
  ],
  "resizingConstraint": 63,
  "resizingType": 0,
  "rotation": 0,
  "shouldBreakMaskChain": false
}