{
  "_class": "group",
  "booleanOperation": 0,
  "do_objectID": "7DF286BF-81FC-440A-A255-6FAFF5430091",
  "exportOptions": {
    "_class": "exportOptions",
    "exportFormats": [
    ],
    "includedLayerIds": [
    ],
    "layerOptions": 0,
    "shouldTrim": false
  },
  "frame": {
    "_class": "rect",
    "constrainProportions": false,
    "height": 24,
    "width": 31,
    "x": 15.89473684210679,
    "y": 6.315789473684163
  },
  "hasClickThrough": false,
  "isFixedToViewport": false,
  "isFlippedHorizontal": false,
  "isFlippedVertical": false,
  "isLocked": false,
  "isVisible": true,
  "layerListExpandedType": 0,
  "layers": [
    {
      "class": "shapeGroup",
      "id": "0809B1B8-9770-4E60-ABA2-60E022D7E034"
    },
    {
      "class": "shapeGroup",
      "id": "64732CB4-CCD1-4E8F-BB46-21F775E2F8A0"
    },
    {
      "class": "shapeGroup",
      "id": "64C8F17C-7CEA-4BC4-8D08-45B1F4C20181"
    },
    {
      "class": "shapeGroup",
      "id": "C5ED6A5C-13F9-40A5-B641-D1535DC2FE49"
    }
  ],
  "name": "text bubble",
  "nameIsFixed": true,
  "resizingConstraint": 63,
  "resizingType": 0,
  "rotation": 0,
  "shouldBreakMaskChain": false,
  "style": {
    "_class": "style",
    "endMarkerType": 0,
    "miterLimit": 10,
    "startMarkerType": 0,
    "windingRule": 1
  },
  "userInfo": {
    "com.animaapp.stc-sketch-plugin": {
      "kModelPropertiesKey": {
      }
    }
  }
}