{
  "_class": "shapePath",
  "booleanOperation": -1,
  "do_objectID": "183D9A3E-EE19-4E61-BDB5-02BFF2A44EE0",
  "edited": true,
  "exportOptions": {
    "_class": "exportOptions",
    "do_objectID": "F59CC1BC-102B-4D24-A25E-7ED829C9FC38",
    "exportFormats": [
    ],
    "includedLayerIds": [
    ],
    "layerOptions": 0,
    "shouldTrim": false
  },
  "frame": {
    "_class": "rect",
    "constrainProportions": false,
    "do_objectID": "0B658020-20CA-4BD9-90C8-4AA223129C6C",
    "height": 7.999999519999999,
    "width": 7.999999520000003,
    "x": 9.9999994,
    "y": 0
  },
  "isClosed": true,
  "isFixedToViewport": false,
  "isFlippedHorizontal": false,
  "isFlippedVertical": false,
  "isLocked": false,
  "isVisible": true,
  "layerListExpandedType": 0,
  "name": "Path",
  "nameIsFixed": false,
  "pointRadiusBehaviour": 0,
  "points": [
    {
      "_class": "curvePoint",
      "cornerRadius": 0,
      "curveFrom": "{0.77624987499999987, 1}",
      "curveMode": 2,
      "curveTo": "{0.2237499874999998, 1}",
      "hasCurveFrom": true,
      "hasCurveTo": true,
      "point": "{0.49999999999999978, 1}"
    },
    {
      "_class": "curvePoint",
      "cornerRadius": 0,
      "curveFrom": "{1, 0.22374999499999987}",
      "curveMode": 2,
      "curveTo": "{1, 0.77625000000000011}",
      "hasCurveFrom": true,
      "hasCurveTo": true,
      "point": "{1, 0.49999999999999978}"
    },
    {
      "_class": "curvePoint",
      "cornerRadius": 0,
      "curveFrom": "{0.2237501125000001, 0}",
      "curveMode": 2,
      "curveTo": "{0.77624987499999987, 0}",
      "hasCurveFrom": true,
      "hasCurveTo": true,
      "point": "{0.49999999999999978, 0}"
    },
    {
      "_class": "curvePoint",
      "cornerRadius": 0,
      "curveFrom": "{0, 0.77625000000000011}",
      "curveMode": 2,
      "curveTo": "{0, 0.22374999499999987}",
      "hasCurveFrom": true,
      "hasCurveTo": true,
      "point": "{0, 0.49999999999999978}"
    }
  ],
  "resizingConstraint": 63,
  "resizingType": 0,
  "rotation": 0,
  "shouldBreakMaskChain": false
}