{
  "_class": "shapePath",
  "booleanOperation": -1,
  "do_objectID": "82F979E8-20E5-4DF4-84EA-046AE23AE05B",
  "edited": true,
  "exportOptions": {
    "_class": "exportOptions",
    "do_objectID": "DE68C91E-ABE3-44B9-B469-D8DBA4FDB1A6",
    "exportFormats": [
    ],
    "includedLayerIds": [
    ],
    "layerOptions": 0,
    "shouldTrim": false
  },
  "frame": {
    "_class": "rect",
    "constrainProportions": false,
    "do_objectID": "01278C0E-0566-44C3-84A9-CAFE4FE93C57",
    "height": 5.99999964,
    "width": 15.99999904,
    "x": 5.99999964,
    "y": 9.999999399999998
  },
  "isClosed": true,
  "isFixedToViewport": false,
  "isFlippedHorizontal": false,
  "isFlippedVertical": false,
  "isLocked": false,
  "isVisible": true,
  "layerListExpandedType": 0,
  "name": "Path",
  "nameIsFixed": false,
  "pointRadiusBehaviour": 0,
  "points": [
    {
      "_class": "curvePoint",
      "cornerRadius": 0,
      "curveFrom": "{0.33312499375000004, 0}",
      "curveMode": 2,
      "curveTo": "{0.66687500000000022, 0}",
      "hasCurveFrom": true,
      "hasCurveTo": true,
      "point": "{0.49999999999999994, 0}"
    },
    {
      "_class": "curvePoint",
      "cornerRadius": 0,
      "curveFrom": "{0, 0.66666666666666652}",
      "curveMode": 4,
      "curveTo": "{0, 0.22333335000000004}",
      "hasCurveFrom": false,
      "hasCurveTo": true,
      "point": "{0, 0.66666666666666652}"
    },
    {
      "_class": "curvePoint",
      "cornerRadius": 0,
      "curveFrom": "{0, 1}",
      "curveMode": 1,
      "curveTo": "{0, 1}",
      "hasCurveFrom": false,
      "hasCurveTo": false,
      "point": "{0, 1}"
    },
    {
      "_class": "curvePoint",
      "cornerRadius": 0,
      "curveFrom": "{1, 1}",
      "curveMode": 1,
      "curveTo": "{1, 1}",
      "hasCurveFrom": false,
      "hasCurveTo": false,
      "point": "{1, 1}"
    },
    {
      "_class": "curvePoint",
      "cornerRadius": 0,
      "curveFrom": "{1, 0.22333335000000004}",
      "curveMode": 4,
      "curveTo": "{1, 0.66666666666666652}",
      "hasCurveFrom": true,
      "hasCurveTo": false,
      "point": "{1, 0.66666666666666652}"
    }
  ],
  "resizingConstraint": 63,
  "resizingType": 0,
  "rotation": 0,
  "shouldBreakMaskChain": false
}