{
  "_class": "symbolInstance",
  "booleanOperation": 0,
  "do_objectID": "F90E849C-7C8E-40AB-9E5F-8CACAF9BFCFA",
  "exportOptions": {
    "_class": "exportOptions",
    "do_objectID": "C8FC120E-3C1F-478B-92C3-F217183EF05B",
    "exportFormats": [
    ],
    "includedLayerIds": [
    ],
    "layerOptions": 0,
    "shouldTrim": false
  },
  "frame": {
    "_class": "rect",
    "constrainProportions": false,
    "do_objectID": "FDEF09AF-7C55-4DAA-9563-55B966E3AAA9",
    "height": 56,
    "width": 256,
    "x": 0,
    "y": 387
  },
  "horizontalSpacing": 0,
  "isFixedToViewport": false,
  "isFlippedHorizontal": false,
  "isFlippedVertical": false,
  "isLocked": false,
  "isVisible": true,
  "layerListExpandedType": 0,
  "name": "mat-menu-item",
  "nameIsFixed": false,
  "overrideValues": [
    {
      "_class": "overrideValue",
      "do_objectID": "BBDD056C-7BAE-4E72-B717-1BA7439D1907",
      "overrideName": "11639098-7EF1-4758-A235-79D0FFFD6629_stringValue",
      "value": "Мої чати"
    },
    {
      "_class": "overrideValue",
      "do_objectID": "43892194-91A7-466D-8EA6-85FA6A0D32A5",
      "overrideName": "2F183D0E-4B07-4902-A645-5E2F57906634/B5BFD23B-A013-4C42-A197-E68C16A5F795_stringValue",
      "value": "Мої чати"
    },
    {
      "_class": "overrideValue",
      "do_objectID": "05AC38DE-40E3-4E34-A963-4B0FABA4C82B",
      "overrideName": "4D99EEBB-89B5-4FB6-B8A3-0A2D73228B78_stringValue",
      "value": "Мої чати"
    }
  ],
  "resizingConstraint": 63,
  "resizingType": 0,
  "rotation": 0,
  "scale": 1,
  "shouldBreakMaskChain": false,
  "style": {
    "_class": "style",
    "do_objectID": "79AA7ED5-40E4-49CD-A1BE-C351862709B0",
    "endMarkerType": 0,
    "miterLimit": 10,
    "startMarkerType": 0,
    "windingRule": 1
  },
  "symbolID": "BDF7D13A-9C68-4E5E-9CB6-DA88F80D895C",
  "verticalSpacing": 0
}