{
  "_class": "shapePath",
  "booleanOperation": -1,
  "do_objectID": "2E93C59D-7502-438F-BCBC-233004EA0ECE",
  "edited": true,
  "exportOptions": {
    "_class": "exportOptions",
    "do_objectID": "1BF56FD5-B23B-4FF5-BF7C-C7EF839912C0",
    "exportFormats": [
    ],
    "includedLayerIds": [
    ],
    "layerOptions": 0,
    "shouldTrim": false
  },
  "frame": {
    "_class": "rect",
    "constrainProportions": false,
    "do_objectID": "CBB97B1D-9DC2-459C-839B-8FA8FC3D5612",
    "height": 13.04302199474914,
    "width": 10.09938987550856,
    "x": 0,
    "y": 2.839999999999999e-14
  },
  "isClosed": true,
  "isFixedToViewport": false,
  "isFlippedHorizontal": false,
  "isFlippedVertical": false,
  "isLocked": false,
  "isVisible": true,
  "layerListExpandedType": 0,
  "name": "Path",
  "nameIsFixed": false,
  "pointRadiusBehaviour": 0,
  "points": [
    {
      "_class": "curvePoint",
      "cornerRadius": 0,
      "curveFrom": "{0.10104330929985209, 0.11999702527467981}",
      "curveMode": 1,
      "curveTo": "{-0.101043309299852, 0.38481261548009249}",
      "hasCurveFrom": false,
      "hasCurveTo": false,
      "point": "{0, 0.25240482037738615}"
    },
    {
      "_class": "curvePoint",
      "cornerRadius": 0,
      "curveFrom": "{0.50867258509405178, -0.078348897672232617}",
      "curveMode": 2,
      "curveTo": "{0.092166257722449005, 0.11313272047276843}",
      "hasCurveFrom": true,
      "hasCurveTo": true,
      "point": "{0.30041942140825106, 0.017391911400267936}"
    },
    {
      "_class": "curvePoint",
      "cornerRadius": 0,
      "curveFrom": "{0.83253803777711799, 0.25240482037738493}",
      "curveMode": 1,
      "curveTo": "{0.83253803777711799, 0.25240482037738493}",
      "hasCurveFrom": false,
      "hasCurveTo": false,
      "point": "{0.83253803777711799, 0.25240482037738493}"
    },
    {
      "_class": "curvePoint",
      "cornerRadius": 0,
      "curveFrom": "{1, 0.3355960200532741}",
      "curveMode": 1,
      "curveTo": "{1, 0.3355960200532741}",
      "hasCurveFrom": false,
      "hasCurveTo": false,
      "point": "{1, 0.3355960200532741}"
    },
    {
      "_class": "curvePoint",
      "cornerRadius": 0,
      "curveFrom": "{0.999999999999999, 1}",
      "curveMode": 1,
      "curveTo": "{0.999999999999999, 1}",
      "hasCurveFrom": false,
      "hasCurveTo": false,
      "point": "{0.999999999999999, 1}"
    }
  ],
  "resizingConstraint": 63,
  "resizingType": 0,
  "rotation": 0,
  "shouldBreakMaskChain": false
}