{
  "_class": "symbolMaster",
  "backgroundColor": {
    "_class": "color",
    "alpha": 1,
    "blue": 1,
    "do_objectID": "04DD7263-41BE-46AF-ADD5-089DBE9F4375",
    "green": 1,
    "red": 1
  },
  "booleanOperation": 0,
  "changeIdentifier": 797,
  "do_objectID": "7BB99B07-A686-45C4-9642-62357214A1B5",
  "exportOptions": {
    "_class": "exportOptions",
    "do_objectID": "A4708940-8FAE-471E-9636-77D8EF82F05A",
    "exportFormats": [
      {
        "_class": "exportFormat",
        "absoluteSize": 0,
        "fileFormat": "svg",
        "name": "",
        "namingScheme": 0,
        "scale": 1,
        "visibleScaleType": 0
      }
    ],
    "includedLayerIds": [
    ],
    "layerOptions": 0,
    "shouldTrim": false
  },
  "frame": {
    "_class": "rect",
    "constrainProportions": false,
    "do_objectID": "985695A7-5145-4F4A-904A-B4D90FB4A23B",
    "height": 40,
    "width": 40,
    "x": 1120,
    "y": 75
  },
  "hasBackgroundColor": false,
  "hasClickThrough": true,
  "horizontalRulerData": {
    "_class": "rulerData",
    "base": 0,
    "do_objectID": "F00D3B90-DE35-40D8-8033-AFA3B850CD5D",
    "guides": [
    ]
  },
  "includeBackgroundColorInExport": true,
  "includeBackgroundColorInInstance": true,
  "includeInCloudUpload": true,
  "isFixedToViewport": false,
  "isFlippedHorizontal": false,
  "isFlippedVertical": false,
  "isFlowHome": false,
  "isLocked": false,
  "isVisible": true,
  "layerListExpandedType": 2,
  "layers": [
    {
      "class": "shapeGroup",
      "id": "2A1D7D70-D10C-4DAC-9E18-CA74A4A6DE76"
    }
  ],
  "name": "25h8/chat/mat-icon-button/reduction/reduction-hover",
  "nameIsFixed": true,
  "originalObjectID": "8F5BA3F3-1427-4967-A430-A8A0EBFDDFB4",
  "resizesContent": false,
  "resizingConstraint": 63,
  "resizingType": 0,
  "rotation": 0,
  "shouldBreakMaskChain": true,
  "style": {
    "_class": "style",
    "do_objectID": "E0A229EB-4606-451A-ACDF-B07D3267C57A",
    "endMarkerType": 0,
    "miterLimit": 10,
    "startMarkerType": 0,
    "windingRule": 1
  },
  "symbolID": "56828671-4A45-4684-9751-FBAA5EFF2FCF",
  "verticalRulerData": {
    "_class": "rulerData",
    "base": 0,
    "do_objectID": "23483768-7E24-457E-BC21-B6CBB8633D5B",
    "guides": [
    ]
  }
}