{
  "_class": "symbolInstance",
  "booleanOperation": 0,
  "do_objectID": "4E3C1777-8CF7-4DF8-88C4-721D9AD7BE25",
  "exportOptions": {
    "_class": "exportOptions",
    "do_objectID": "6858B855-2AC8-4749-9F36-40484B7E8AA1",
    "exportFormats": [
    ],
    "includedLayerIds": [
    ],
    "layerOptions": 0,
    "shouldTrim": false
  },
  "frame": {
    "_class": "rect",
    "constrainProportions": false,
    "do_objectID": "ACD588DB-8E0B-42E1-BFF6-B2ACC62A5BFF",
    "height": 64,
    "width": 320,
    "x": 0,
    "y": 0
  },
  "horizontalSpacing": 0,
  "isFixedToViewport": false,
  "isFlippedHorizontal": false,
  "isFlippedVertical": false,
  "isLocked": false,
  "isVisible": true,
  "layerListExpandedType": 0,
  "name": "25h8/chat/mat-toolbar/mat-toolbar-default-320",
  "nameIsFixed": false,
  "overrideValues": [
  ],
  "resizingConstraint": 63,
  "resizingType": 0,
  "rotation": 0,
  "scale": 1,
  "shouldBreakMaskChain": false,
  "style": {
    "_class": "style",
    "do_objectID": "EA065705-31EA-4059-8497-769B26042779",
    "endMarkerType": 0,
    "miterLimit": 10,
    "startMarkerType": 0,
    "windingRule": 1
  },
  "symbolID": "2FCD5106-3214-4634-A6EB-2287387B062F",
  "verticalSpacing": 0
}