{
  "_class": "symbolInstance",
  "booleanOperation": 0,
  "do_objectID": "2E9D8FED-E6BB-4B80-99A4-2F3432506485",
  "exportOptions": {
    "_class": "exportOptions",
    "do_objectID": "2360E539-F823-4F27-917F-071462C6EB5E",
    "exportFormats": [
    ],
    "includedLayerIds": [
    ],
    "layerOptions": 0,
    "shouldTrim": false
  },
  "frame": {
    "_class": "rect",
    "constrainProportions": true,
    "do_objectID": "B9F14425-7BD3-4558-AF1A-BA41779F3796",
    "height": 12,
    "width": 12,
    "x": 288,
    "y": 4
  },
  "horizontalSpacing": 0,
  "isFixedToViewport": false,
  "isFlippedHorizontal": false,
  "isFlippedVertical": false,
  "isLocked": false,
  "isVisible": true,
  "layerListExpandedType": 0,
  "name": "Black/icon-inactive",
  "nameIsFixed": false,
  "overrideValues": [
  ],
  "resizingConstraint": 12,
  "resizingType": 0,
  "rotation": 0,
  "scale": 1,
  "shouldBreakMaskChain": false,
  "style": {
    "_class": "style",
    "do_objectID": "E1E8280F-F008-495D-A95C-2F0914AF5DA9",
    "endMarkerType": 0,
    "miterLimit": 10,
    "startMarkerType": 0,
    "windingRule": 1
  },
  "symbolID": "23518F14-394B-4E06-85C6-4DA360118D62",
  "verticalSpacing": 0
}