{
  "_class": "shapeGroup",
  "booleanOperation": 0,
  "clippingMaskMode": 0,
  "do_objectID": "C6D7DA8F-95EC-496C-962B-8291C5D360AB",
  "exportOptions": {
    "_class": "exportOptions",
    "do_objectID": "6520E8B7-A07C-46F3-B476-A703D98AA57E",
    "exportFormats": [
    ],
    "includedLayerIds": [
    ],
    "layerOptions": 0,
    "shouldTrim": false
  },
  "frame": {
    "_class": "rect",
    "constrainProportions": false,
    "do_objectID": "F5D3DD6E-45F0-4190-877B-F3CD2E04589C",
    "height": 248,
    "width": 248,
    "x": 447,
    "y": 2958
  },
  "hasClickThrough": false,
  "hasClippingMask": false,
  "isFixedToViewport": false,
  "isFlippedHorizontal": false,
  "isFlippedVertical": false,
  "isLocked": false,
  "isVisible": true,
  "layerListExpandedType": 0,
  "layers": [
    {
      "class": "rectangle",
      "id": "9A5AE8C3-22E5-4BA7-A803-FE18B35691EB"
    }
  ],
  "name": "bg 8dp",
  "nameIsFixed": true,
  "resizingConstraint": 63,
  "resizingType": 0,
  "rotation": 0,
  "shouldBreakMaskChain": false,
  "style": {
    "_class": "style",
    "do_objectID": "D844275C-E73A-4936-9287-2D216C95940B",
    "endMarkerType": 0,
    "fills": [
      {
        "_class": "fill",
        "color": {
          "_class": "color",
          "alpha": 0.32,
          "blue": 0,
          "green": 0,
          "red": 0
        },
        "fillType": 0,
        "isEnabled": true,
        "noiseIndex": 0,
        "noiseIntensity": 0,
        "patternFillType": 1,
        "patternTileScale": 1
      }
    ],
    "miterLimit": 10,
    "sharedObjectID": "45C93D91-0788-40A2-ACD2-37637A664AE3",
    "startMarkerType": 0,
    "windingRule": 0
  },
  "windingRule": 0
}