{
  "_class": "shapePath",
  "booleanOperation": -1,
  "do_objectID": "05EEEB57-147F-4D1E-A8D8-49A92EE77A3E",
  "edited": true,
  "exportOptions": {
    "_class": "exportOptions",
    "do_objectID": "63E6D6DA-4FC6-475E-A508-8D66A7AF750E",
    "exportFormats": [
    ],
    "includedLayerIds": [
    ],
    "layerOptions": 0,
    "shouldTrim": false
  },
  "frame": {
    "_class": "rect",
    "constrainProportions": false,
    "do_objectID": "8D8FD040-4E69-42F7-8A58-E3FC1422406E",
    "height": 9,
    "width": 9,
    "x": 2,
    "y": 2
  },
  "isClosed": true,
  "isFixedToViewport": false,
  "isFlippedHorizontal": false,
  "isFlippedVertical": false,
  "isLocked": false,
  "isVisible": true,
  "layerListExpandedType": 0,
  "name": "Path",
  "nameIsFixed": false,
  "pointRadiusBehaviour": 0,
  "points": [
    {
      "_class": "curvePoint",
      "cornerRadius": 0,
      "curveFrom": "{0.22222222222222221, 1}",
      "curveMode": 4,
      "curveTo": "{0.5, 1}",
      "hasCurveFrom": true,
      "hasCurveTo": false,
      "point": "{0.5, 1}"
    },
    {
      "_class": "curvePoint",
      "cornerRadius": 0,
      "curveFrom": "{0, 0.22222222222222221}",
      "curveMode": 2,
      "curveTo": "{0, 0.77777777777777779}",
      "hasCurveFrom": true,
      "hasCurveTo": true,
      "point": "{0, 0.5}"
    },
    {
      "_class": "curvePoint",
      "cornerRadius": 0,
      "curveFrom": "{0.77777777777777779, 0}",
      "curveMode": 2,
      "curveTo": "{0.22222222222222221, 0}",
      "hasCurveFrom": true,
      "hasCurveTo": true,
      "point": "{0.5, 0}"
    },
    {
      "_class": "curvePoint",
      "cornerRadius": 0,
      "curveFrom": "{1, 0.77777777777777779}",
      "curveMode": 2,
      "curveTo": "{1, 0.22222222222222221}",
      "hasCurveFrom": true,
      "hasCurveTo": true,
      "point": "{1, 0.5}"
    },
    {
      "_class": "curvePoint",
      "cornerRadius": 0,
      "curveFrom": "{0.5, 1}",
      "curveMode": 4,
      "curveTo": "{0.77777777777777779, 1}",
      "hasCurveFrom": false,
      "hasCurveTo": true,
      "point": "{0.5, 1}"
    }
  ],
  "resizingConstraint": 63,
  "resizingType": 0,
  "rotation": 0,
  "shouldBreakMaskChain": false
}