{
  "_class": "symbolInstance",
  "booleanOperation": 0,
  "do_objectID": "565FAC43-C363-4E8F-A2FD-20BAA258BD0F",
  "exportOptions": {
    "_class": "exportOptions",
    "do_objectID": "3981B3F6-2F28-4069-8E2D-334DED917471",
    "exportFormats": [
    ],
    "includedLayerIds": [
    ],
    "layerOptions": 0,
    "shouldTrim": false
  },
  "frame": {
    "_class": "rect",
    "constrainProportions": true,
    "do_objectID": "F796DBF8-D44E-4DE2-B730-41F6ED139C56",
    "height": 16,
    "width": 16,
    "x": 300,
    "y": 19
  },
  "horizontalSpacing": 0,
  "isFixedToViewport": false,
  "isFlippedHorizontal": false,
  "isFlippedVertical": false,
  "isLocked": false,
  "isVisible": true,
  "layerListExpandedType": 0,
  "name": "Black/icon-inactive",
  "nameIsFixed": false,
  "overrideValues": [
  ],
  "resizingConstraint": 12,
  "resizingType": 0,
  "rotation": 0,
  "scale": 1,
  "shouldBreakMaskChain": false,
  "style": {
    "_class": "style",
    "do_objectID": "1718F580-9776-49F2-8256-D8AD00968242",
    "endMarkerType": 0,
    "miterLimit": 10,
    "startMarkerType": 0,
    "windingRule": 1
  },
  "symbolID": "23518F14-394B-4E06-85C6-4DA360118D62",
  "verticalSpacing": 0
}