{
  "_class": "symbolInstance",
  "booleanOperation": -1,
  "do_objectID": "2282CCA4-2271-4820-84CC-00C154A4603F",
  "exportOptions": {
    "_class": "exportOptions",
    "do_objectID": "817EED03-49D2-413E-AB36-87F95AC8C4B4",
    "exportFormats": [
    ],
    "includedLayerIds": [
    ],
    "layerOptions": 0,
    "shouldTrim": false
  },
  "frame": {
    "_class": "rect",
    "constrainProportions": false,
    "do_objectID": "BB07076C-C7A3-47F9-861E-533A987F2C0A",
    "height": 48,
    "width": 48,
    "x": 4,
    "y": 16
  },
  "horizontalSpacing": 0,
  "isFixedToViewport": false,
  "isFlippedHorizontal": false,
  "isFlippedVertical": false,
  "isLocked": false,
  "isVisible": true,
  "layerListExpandedType": 0,
  "name": "Supporting visual/Avatar",
  "nameIsFixed": false,
  "overrideValues": [
  ],
  "resizingConstraint": 9,
  "resizingType": 0,
  "rotation": 0,
  "scale": 1,
  "shouldBreakMaskChain": false,
  "style": {
    "_class": "style",
    "do_objectID": "E9A4C3D0-946E-402B-A662-44B933D45691",
    "endMarkerType": 0,
    "miterLimit": 10,
    "startMarkerType": 0,
    "windingRule": 1
  },
  "symbolID": "AC8333FE-D665-4417-84B6-711CE9B12AC9",
  "verticalSpacing": 0
}