{
  "_class": "symbolMaster",
  "backgroundColor": {
    "_class": "color",
    "alpha": 1,
    "blue": 1,
    "do_objectID": "24672244-2140-47CD-BAE7-8B9978C24410",
    "green": 1,
    "red": 1
  },
  "booleanOperation": 0,
  "changeIdentifier": 3117,
  "do_objectID": "2C905E47-9E1E-493B-AE3E-AD81C0FA65D0",
  "exportOptions": {
    "_class": "exportOptions",
    "do_objectID": "567DC819-A50B-4CC8-BB58-5C0F7C3F4180",
    "exportFormats": [
    ],
    "includedLayerIds": [
    ],
    "layerOptions": 0,
    "shouldTrim": false
  },
  "frame": {
    "_class": "rect",
    "constrainProportions": false,
    "do_objectID": "EFB7C6ED-C9A7-4B7F-BBE4-9847A81A98E2",
    "height": 80,
    "width": 320,
    "x": -258,
    "y": 722
  },
  "hasBackgroundColor": false,
  "hasClickThrough": true,
  "horizontalRulerData": {
    "_class": "rulerData",
    "base": 0,
    "do_objectID": "5748DB5D-9170-4FDA-8538-814FF772753E",
    "guides": [
    ]
  },
  "includeBackgroundColorInExport": true,
  "includeBackgroundColorInInstance": false,
  "includeInCloudUpload": true,
  "isFixedToViewport": false,
  "isFlippedHorizontal": false,
  "isFlippedVertical": false,
  "isFlowHome": false,
  "isLocked": false,
  "isVisible": true,
  "layerListExpandedType": 2,
  "layers": [
    {
      "class": "shapeGroup",
      "id": "35155235-0CAB-4646-BD83-51FF73F1B358"
    },
    {
      "class": "text",
      "id": "A9A942F1-4C67-4BFB-80B6-B1480EE42D0E"
    },
    {
      "class": "text",
      "id": "0CB3D6FE-5F09-4F53-8621-ECDD053CC446"
    },
    {
      "class": "shapeGroup",
      "id": "2AC68297-DB02-4120-9EE4-0AEF6AF516D8"
    },
    {
      "class": "symbolInstance",
      "id": "C2D1E871-9FBA-4399-BB1A-73213214BD6B"
    },
    {
      "class": "text",
      "id": "AB7981E0-89C6-49A6-A007-696BCB6B7C89"
    },
    {
      "class": "text",
      "id": "20BF19EA-6710-4A9F-B1E6-52DF96E40579"
    },
    {
      "class": "symbolInstance",
      "id": "55364444-9CD3-45BE-B59B-2A67F584B634"
    },
    {
      "class": "symbolInstance",
      "id": "8E097627-CA85-4E70-BC7A-C2D8F75F8EDB"
    },
    {
      "class": "symbolInstance",
      "id": "8EAF1590-1CE8-4DBF-81D8-70301CA31604"
    }
  ],
  "name": "25h8/chat/mat-sidenav-content/mat-sidenav-component/chat-list-item-v1",
  "nameIsFixed": true,
  "resizesContent": true,
  "resizingConstraint": 63,
  "resizingType": 0,
  "rotation": 0,
  "shouldBreakMaskChain": true,
  "style": {
    "_class": "style",
    "do_objectID": "AC6EBB96-775A-4093-88FB-9A9263E08564",
    "endMarkerType": 0,
    "miterLimit": 10,
    "startMarkerType": 0,
    "windingRule": 1
  },
  "symbolID": "359A9BD0-A10E-45CA-B6B3-22CDD16204F7",
  "verticalRulerData": {
    "_class": "rulerData",
    "base": 0,
    "do_objectID": "D347EFC2-4BCC-46CC-8295-B481B60486BD",
    "guides": [
    ]
  }
}