{
  "_class": "symbolMaster",
  "backgroundColor": {
    "_class": "color",
    "alpha": 1,
    "blue": 1,
    "do_objectID": "43E12DC7-F281-401F-9DC0-2F9203903E33",
    "green": 1,
    "red": 1
  },
  "booleanOperation": 0,
  "changeIdentifier": 3956,
  "do_objectID": "668DB15C-6F9D-4EA8-B7FE-21D7205CCDE3",
  "exportOptions": {
    "_class": "exportOptions",
    "do_objectID": "595D755F-5143-4754-94EF-582897E36277",
    "exportFormats": [
    ],
    "includedLayerIds": [
    ],
    "layerOptions": 0,
    "shouldTrim": false
  },
  "frame": {
    "_class": "rect",
    "constrainProportions": false,
    "do_objectID": "5034CF64-8CA3-4149-B506-AA0033F4876E",
    "height": 787,
    "width": 72,
    "x": -2857,
    "y": 944
  },
  "hasBackgroundColor": false,
  "hasClickThrough": true,
  "horizontalRulerData": {
    "_class": "rulerData",
    "base": 0,
    "do_objectID": "E951B156-B2FC-48DF-93BA-7FD5E2642C4F",
    "guides": [
    ]
  },
  "includeBackgroundColorInExport": true,
  "includeBackgroundColorInInstance": false,
  "includeInCloudUpload": true,
  "isFixedToViewport": false,
  "isFlippedHorizontal": false,
  "isFlippedVertical": false,
  "isFlowHome": false,
  "isLocked": false,
  "isVisible": true,
  "layerListExpandedType": 0,
  "layers": [
    {
      "class": "group",
      "id": "3A0EEAAA-7557-424A-A358-CD4A736E0F10"
    }
  ],
  "name": "25h8/chat/app-bar/app-bar-doc-selected",
  "nameIsFixed": true,
  "resizesContent": false,
  "resizingConstraint": 63,
  "resizingType": 0,
  "rotation": 0,
  "shouldBreakMaskChain": true,
  "style": {
    "_class": "style",
    "do_objectID": "6BB341FF-5498-4283-975C-016E04C66E90",
    "endMarkerType": 0,
    "miterLimit": 10,
    "startMarkerType": 0,
    "windingRule": 1
  },
  "symbolID": "C2B8A510-413E-4EA5-82A2-7C1108E7AA5D",
  "verticalRulerData": {
    "_class": "rulerData",
    "base": 0,
    "do_objectID": "62096205-275A-4834-ABDC-93FF381DCFF8",
    "guides": [
    ]
  }
}