{
  "_class": "shapeGroup",
  "booleanOperation": 0,
  "clippingMaskMode": 0,
  "do_objectID": "9A55449F-A657-45AF-A973-47A5EE69D0A9",
  "exportOptions": {
    "_class": "exportOptions",
    "do_objectID": "412EC8A0-6B0C-4F1F-8281-E868FAEDC6B6",
    "exportFormats": [
    ],
    "includedLayerIds": [
    ],
    "layerOptions": 0,
    "shouldTrim": false
  },
  "frame": {
    "_class": "rect",
    "constrainProportions": true,
    "do_objectID": "50E5DB55-4191-4519-93B5-D40CC23A9491",
    "height": 40,
    "width": 40,
    "x": 4,
    "y": 4
  },
  "hasClickThrough": true,
  "hasClippingMask": false,
  "isFixedToViewport": false,
  "isFlippedHorizontal": false,
  "isFlippedVertical": false,
  "isLocked": false,
  "isVisible": true,
  "layerListExpandedType": 1,
  "layers": [
    {
      "class": "rectangle",
      "id": "6D638695-420D-4931-89B7-47D476028098"
    }
  ],
  "name": "avatar bg",
  "nameIsFixed": true,
  "resizingConstraint": 63,
  "resizingType": 0,
  "rotation": 0,
  "shouldBreakMaskChain": false,
  "style": {
    "_class": "style",
    "do_objectID": "3E16F145-6CF7-46B4-9FC1-E3838D00241E",
    "endMarkerType": 0,
    "miterLimit": 10,
    "sharedObjectID": "47B8F8CE-DC0F-49E7-9424-8D54C646944A",
    "startMarkerType": 0,
    "windingRule": 0
  },
  "windingRule": 0
}