{
  "_class": "symbolInstance",
  "booleanOperation": 0,
  "do_objectID": "107F4694-6224-4A7A-A4A2-AAABC433999D",
  "exportOptions": {
    "_class": "exportOptions",
    "do_objectID": "FDA9DC89-F909-4C74-870F-EC5E4185C6AB",
    "exportFormats": [
    ],
    "includedLayerIds": [
    ],
    "layerOptions": 0,
    "shouldTrim": false
  },
  "frame": {
    "_class": "rect",
    "constrainProportions": false,
    "do_objectID": "86F77F45-61F2-4850-9995-3596EA123485",
    "height": 56,
    "width": 320,
    "x": 0,
    "y": 80
  },
  "horizontalSpacing": 0,
  "isFixedToViewport": false,
  "isFlippedHorizontal": false,
  "isFlippedVertical": false,
  "isLocked": false,
  "isVisible": true,
  "layerListExpandedType": 0,
  "name": "mat-menu-item",
  "nameIsFixed": true,
  "overrideValues": [
    {
      "_class": "overrideValue",
      "do_objectID": "B27CFEE0-3AA6-4E47-BC64-2821A422AC31",
      "overrideName": "11639098-7EF1-4758-A235-79D0FFFD6629_stringValue",
      "value": "Знайти публічні чати"
    },
    {
      "_class": "overrideValue",
      "do_objectID": "FFA5B3F6-A110-40DB-9BF0-7ABEA1777236",
      "overrideName": "2F183D0E-4B07-4902-A645-5E2F57906634/B5BFD23B-A013-4C42-A197-E68C16A5F795_stringValue",
      "value": "Знайти публічкні чати"
    },
    {
      "_class": "overrideValue",
      "do_objectID": "D2759571-5BDA-4825-B81E-19F6B0D0A17E",
      "overrideName": "7F432631-35BE-417F-AEE6-396EF7CD2682_symbolID",
      "value": "0DEDA2A2-C44B-477E-9196-E52FF8628D2A"
    },
    {
      "_class": "overrideValue",
      "do_objectID": "D7BCCC70-876E-4B7B-B04A-EEE1E6FE33B8",
      "overrideName": "4D99EEBB-89B5-4FB6-B8A3-0A2D73228B78_stringValue",
      "value": "Знайти публічні чати"
    }
  ],
  "resizingConstraint": 63,
  "resizingType": 0,
  "rotation": 0,
  "scale": 1,
  "shouldBreakMaskChain": false,
  "style": {
    "_class": "style",
    "do_objectID": "AF5B69F1-8A44-48A5-8E82-DE2916CB997A",
    "endMarkerType": 0,
    "miterLimit": 10,
    "startMarkerType": 0,
    "windingRule": 1
  },
  "symbolID": "BDF7D13A-9C68-4E5E-9CB6-DA88F80D895C",
  "verticalSpacing": 0
}