{
  "_class": "symbolInstance",
  "booleanOperation": 0,
  "do_objectID": "161BC2EB-B477-4CCD-9EA6-B021A2437305",
  "exportOptions": {
    "_class": "exportOptions",
    "do_objectID": "58DB133C-C89C-434C-B28B-0461219F7AD5",
    "exportFormats": [
    ],
    "includedLayerIds": [
    ],
    "layerOptions": 0,
    "shouldTrim": false
  },
  "frame": {
    "_class": "rect",
    "constrainProportions": false,
    "do_objectID": "3D23FDCA-2A3E-452C-BE38-570477602D7A",
    "height": 40,
    "width": 40,
    "x": 4,
    "y": 8
  },
  "horizontalSpacing": 0,
  "isFixedToViewport": false,
  "isFlippedHorizontal": false,
  "isFlippedVertical": false,
  "isLocked": false,
  "isVisible": true,
  "layerListExpandedType": 0,
  "name": "25h8/chat/mat-icon-button/arrow/arrow-down-defaul-white copy",
  "nameIsFixed": false,
  "overrideValues": [
  ],
  "resizingConstraint": 63,
  "resizingType": 0,
  "rotation": 0,
  "scale": 1,
  "shouldBreakMaskChain": false,
  "style": {
    "_class": "style",
    "do_objectID": "B19E913F-92C3-48AA-AB3C-D7945B762AD5",
    "endMarkerType": 0,
    "miterLimit": 10,
    "startMarkerType": 0,
    "windingRule": 1
  },
  "symbolID": "C80409A1-8421-46F7-ACFA-2585674622E9",
  "verticalSpacing": 0
}