{
  "_class": "shapePath",
  "booleanOperation": -1,
  "do_objectID": "1C38919E-94EB-456F-BF1C-BE6BD68A6096",
  "edited": true,
  "exportOptions": {
    "_class": "exportOptions",
    "do_objectID": "A2E5D9BB-61EC-48C3-B26C-5B9B07496D60",
    "exportFormats": [
    ],
    "includedLayerIds": [
    ],
    "layerOptions": 0,
    "shouldTrim": false
  },
  "frame": {
    "_class": "rect",
    "constrainProportions": false,
    "do_objectID": "167DE6F3-5405-46F4-B8E6-5751E3F7A306",
    "height": 10.582,
    "width": 11.81119999999999,
    "x": 0,
    "y": 0
  },
  "isClosed": true,
  "isFixedToViewport": false,
  "isFlippedHorizontal": false,
  "isFlippedVertical": false,
  "isLocked": false,
  "isVisible": true,
  "layerListExpandedType": 0,
  "name": "Path",
  "nameIsFixed": false,
  "pointRadiusBehaviour": 1,
  "points": [
    {
      "_class": "curvePoint",
      "cornerRadius": 0,
      "curveFrom": "{0.099972907071254391, 0}",
      "curveMode": 1,
      "curveTo": "{0.099972907071254391, 0}",
      "hasCurveFrom": false,
      "hasCurveTo": false,
      "point": "{0.099972907071254391, 0}"
    },
    {
      "_class": "curvePoint",
      "cornerRadius": 0,
      "curveFrom": "{0, 0.11107811107811111}",
      "curveMode": 1,
      "curveTo": "{0, 0.11107811107811111}",
      "hasCurveFrom": false,
      "hasCurveTo": false,
      "point": "{0, 0.11107811107811111}"
    },
    {
      "_class": "curvePoint",
      "cornerRadius": 0,
      "curveFrom": "{0.80005418585749144, 1}",
      "curveMode": 1,
      "curveTo": "{0.80005418585749144, 1}",
      "hasCurveFrom": false,
      "hasCurveTo": false,
      "point": "{0.80005418585749144, 1}"
    },
    {
      "_class": "curvePoint",
      "cornerRadius": 0,
      "curveFrom": "{1, 1}",
      "curveMode": 1,
      "curveTo": "{1, 1}",
      "hasCurveFrom": false,
      "hasCurveTo": false,
      "point": "{1, 1}"
    }
  ],
  "resizingConstraint": 63,
  "resizingType": 0,
  "rotation": 0,
  "shouldBreakMaskChain": false
}