{
  "_class": "shapePath",
  "booleanOperation": -1,
  "do_objectID": "C6A72296-BB84-4EEA-851F-F63778074070",
  "edited": true,
  "exportOptions": {
    "_class": "exportOptions",
    "do_objectID": "112634D5-FCDF-430E-A932-9A6D23240DEA",
    "exportFormats": [
    ],
    "includedLayerIds": [
    ],
    "layerOptions": 0,
    "shouldTrim": false
  },
  "frame": {
    "_class": "rect",
    "constrainProportions": false,
    "do_objectID": "95916D94-47E6-4AD5-A8B0-1A1DC3C47790",
    "height": 20,
    "width": 20,
    "x": 0,
    "y": 0
  },
  "isClosed": true,
  "isFixedToViewport": false,
  "isFlippedHorizontal": false,
  "isFlippedVertical": false,
  "isLocked": false,
  "isVisible": true,
  "layerListExpandedType": 0,
  "name": "Path",
  "nameIsFixed": false,
  "pointRadiusBehaviour": 0,
  "points": [
    {
      "_class": "curvePoint",
      "cornerRadius": 0,
      "curveFrom": "{0.90000000000000002, 0}",
      "curveMode": 1,
      "curveTo": "{0.90000000000000002, 0}",
      "hasCurveFrom": false,
      "hasCurveTo": false,
      "point": "{0.90000000000000002, 0}"
    },
    {
      "_class": "curvePoint",
      "cornerRadius": 0,
      "curveFrom": "{0.044999999999999998, 0}",
      "curveMode": 4,
      "curveTo": "{0.10000000000000001, 0}",
      "hasCurveFrom": true,
      "hasCurveTo": false,
      "point": "{0.10000000000000001, 0}"
    },
    {
      "_class": "curvePoint",
      "cornerRadius": 0,
      "curveFrom": "{0, 0.10000000000000001}",
      "curveMode": 4,
      "curveTo": "{0, 0.044999999999999998}",
      "hasCurveFrom": false,
      "hasCurveTo": true,
      "point": "{0, 0.10000000000000001}"
    },
    {
      "_class": "curvePoint",
      "cornerRadius": 0,
      "curveFrom": "{0, 1}",
      "curveMode": 1,
      "curveTo": "{0, 1}",
      "hasCurveFrom": false,
      "hasCurveTo": false,
      "point": "{0, 1}"
    },
    {
      "_class": "curvePoint",
      "cornerRadius": 0,
      "curveFrom": "{0.20000000000000001, 0.80000000000000004}",
      "curveMode": 1,
      "curveTo": "{0.20000000000000001, 0.80000000000000004}",
      "hasCurveFrom": false,
      "hasCurveTo": false,
      "point": "{0.20000000000000001, 0.80000000000000004}"
    },
    {
      "_class": "curvePoint",
      "cornerRadius": 0,
      "curveFrom": "{0.95500000000000007, 0.80000000000000004}",
      "curveMode": 4,
      "curveTo": "{0.90000000000000002, 0.80000000000000004}",
      "hasCurveFrom": true,
      "hasCurveTo": false,
      "point": "{0.90000000000000002, 0.80000000000000004}"
    },
    {
      "_class": "curvePoint",
      "cornerRadius": 0,
      "curveFrom": "{1, 0.69999999999999996}",
      "curveMode": 4,
      "curveTo": "{1, 0.75500000000000012}",
      "hasCurveFrom": false,
      "hasCurveTo": true,
      "point": "{1, 0.69999999999999996}"
    },
    {
      "_class": "curvePoint",
      "cornerRadius": 0,
      "curveFrom": "{1, 0.044999999999999998}",
      "curveMode": 4,
      "curveTo": "{1, 0.10000000000000001}",
      "hasCurveFrom": true,
      "hasCurveTo": false,
      "point": "{1, 0.10000000000000001}"
    },
    {
      "_class": "curvePoint",
      "cornerRadius": 0,
      "curveFrom": "{0.90000000000000002, 0}",
      "curveMode": 4,
      "curveTo": "{0.95500000000000007, 0}",
      "hasCurveFrom": false,
      "hasCurveTo": true,
      "point": "{0.90000000000000002, 0}"
    }
  ],
  "resizingConstraint": 63,
  "resizingType": 0,
  "rotation": 0,
  "shouldBreakMaskChain": false
}