{
  "_class": "shapePath",
  "booleanOperation": -1,
  "do_objectID": "E1377998-30AF-4729-A74D-B5487A479531",
  "edited": true,
  "exportOptions": {
    "_class": "exportOptions",
    "do_objectID": "EA38ED84-744F-471E-A9AE-9CE94FBDD323",
    "exportFormats": [
    ],
    "includedLayerIds": [
    ],
    "layerOptions": 0,
    "shouldTrim": false
  },
  "frame": {
    "_class": "rect",
    "constrainProportions": false,
    "do_objectID": "FA1940E1-5C88-4182-BEF0-CD1CFE8D4D36",
    "height": 15,
    "width": 15,
    "x": 0,
    "y": 0
  },
  "isClosed": true,
  "isFixedToViewport": false,
  "isFlippedHorizontal": false,
  "isFlippedVertical": false,
  "isLocked": false,
  "isVisible": true,
  "layerListExpandedType": 0,
  "name": "Path",
  "nameIsFixed": false,
  "pointRadiusBehaviour": 0,
  "points": [
    {
      "_class": "curvePoint",
      "cornerRadius": 0,
      "curveFrom": "{1, 0.66666666666666663}",
      "curveMode": 1,
      "curveTo": "{1, 0.66666666666666663}",
      "hasCurveFrom": false,
      "hasCurveTo": false,
      "point": "{1, 0.66666666666666663}"
    },
    {
      "_class": "curvePoint",
      "cornerRadius": 0,
      "curveFrom": "{1, 0.026666666666666661}",
      "curveMode": 4,
      "curveTo": "{1, 0.066666666666666666}",
      "hasCurveFrom": true,
      "hasCurveTo": false,
      "point": "{1, 0.066666666666666666}"
    },
    {
      "_class": "curvePoint",
      "cornerRadius": 0,
      "curveFrom": "{0.93333333333333335, 0}",
      "curveMode": 4,
      "curveTo": "{0.97333333333333338, 0}",
      "hasCurveFrom": false,
      "hasCurveTo": true,
      "point": "{0.93333333333333335, 0}"
    },
    {
      "_class": "curvePoint",
      "cornerRadius": 0,
      "curveFrom": "{0.026666666666666661, 0}",
      "curveMode": 4,
      "curveTo": "{0.066666666666666666, 0}",
      "hasCurveFrom": true,
      "hasCurveTo": false,
      "point": "{0.066666666666666666, 0}"
    },
    {
      "_class": "curvePoint",
      "cornerRadius": 0,
      "curveFrom": "{0, 0.066666666666666666}",
      "curveMode": 4,
      "curveTo": "{0, 0.026666666666666661}",
      "hasCurveFrom": false,
      "hasCurveTo": true,
      "point": "{0, 0.066666666666666666}"
    },
    {
      "_class": "curvePoint",
      "cornerRadius": 0,
      "curveFrom": "{0, 1}",
      "curveMode": 1,
      "curveTo": "{0, 1}",
      "hasCurveFrom": false,
      "hasCurveTo": false,
      "point": "{0, 1}"
    },
    {
      "_class": "curvePoint",
      "cornerRadius": 0,
      "curveFrom": "{0.26666666666666666, 0.73333333333333328}",
      "curveMode": 1,
      "curveTo": "{0.26666666666666666, 0.73333333333333328}",
      "hasCurveFrom": false,
      "hasCurveTo": false,
      "point": "{0.26666666666666666, 0.73333333333333328}"
    },
    {
      "_class": "curvePoint",
      "cornerRadius": 0,
      "curveFrom": "{0.97333333333333338, 0.73333333333333328}",
      "curveMode": 4,
      "curveTo": "{0.93333333333333335, 0.73333333333333328}",
      "hasCurveFrom": true,
      "hasCurveTo": false,
      "point": "{0.93333333333333335, 0.73333333333333328}"
    },
    {
      "_class": "curvePoint",
      "cornerRadius": 0,
      "curveFrom": "{1, 0.66666666666666663}",
      "curveMode": 4,
      "curveTo": "{1, 0.70666666666666667}",
      "hasCurveFrom": false,
      "hasCurveTo": true,
      "point": "{1, 0.66666666666666663}"
    }
  ],
  "resizingConstraint": 63,
  "resizingType": 0,
  "rotation": 0,
  "shouldBreakMaskChain": false
}