{
  "_class": "shapePath",
  "booleanOperation": 0,
  "do_objectID": "ACF41548-0FCD-4E5A-82F3-738A574A456B",
  "edited": true,
  "exportOptions": {
    "_class": "exportOptions",
    "exportFormats": [
    ],
    "includedLayerIds": [
    ],
    "layerOptions": 0,
    "shouldTrim": false
  },
  "frame": {
    "_class": "rect",
    "constrainProportions": false,
    "height": 1.206081081081081,
    "width": 2.814191199324325,
    "x": 2.613175675676757,
    "y": 5.025343868243226
  },
  "isClosed": true,
  "isFixedToViewport": false,
  "isFlippedHorizontal": false,
  "isFlippedVertical": false,
  "isLocked": false,
  "isVisible": true,
  "layerListExpandedType": 0,
  "name": "Path",
  "nameIsFixed": false,
  "pointRadiusBehaviour": 0,
  "points": [
    {
      "_class": "curvePoint",
      "cornerRadius": 0,
      "curveFrom": "{0.33328404765425168, 0}",
      "curveMode": 4,
      "curveTo": "{0.49999964285739795, 0}",
      "hasCurveFrom": true,
      "hasCurveTo": false,
      "point": "{0.49999964285739795, 0}"
    },
    {
      "_class": "curvePoint",
      "cornerRadius": 0,
      "curveFrom": "{0, 0.58333333333333337}",
      "curveMode": 4,
      "curveTo": "{0, 0.19466666666666654}",
      "hasCurveFrom": false,
      "hasCurveTo": true,
      "point": "{0, 0.58333333333333337}"
    },
    {
      "_class": "curvePoint",
      "cornerRadius": 0,
      "curveFrom": "{0, 1}",
      "curveMode": 1,
      "curveTo": "{0, 1}",
      "hasCurveFrom": false,
      "hasCurveTo": false,
      "point": "{0, 1}"
    },
    {
      "_class": "curvePoint",
      "cornerRadius": 0,
      "curveFrom": "{1, 1}",
      "curveMode": 1,
      "curveTo": "{1, 1}",
      "hasCurveFrom": false,
      "hasCurveTo": false,
      "point": "{1, 1}"
    },
    {
      "_class": "curvePoint",
      "cornerRadius": 0,
      "curveFrom": "{1, 0.19466666666666654}",
      "curveMode": 4,
      "curveTo": "{1, 0.58333333333333337}",
      "hasCurveFrom": true,
      "hasCurveTo": false,
      "point": "{1, 0.58333333333333337}"
    },
    {
      "_class": "curvePoint",
      "cornerRadius": 0,
      "curveFrom": "{0.49999964285739795, 0}",
      "curveMode": 4,
      "curveTo": "{0.66664309525493193, 0}",
      "hasCurveFrom": false,
      "hasCurveTo": true,
      "point": "{0.49999964285739795, 0}"
    }
  ],
  "resizingConstraint": 63,
  "resizingType": 0,
  "rotation": 0,
  "shouldBreakMaskChain": false
}