{
  "_class": "group",
  "booleanOperation": 0,
  "do_objectID": "A51B65DC-89B5-4722-A1FC-24BE27A8DE8E",
  "exportOptions": {
    "_class": "exportOptions",
    "do_objectID": "4B7B21A4-3BF0-440C-BDEB-8C9C1D3CC0C1",
    "exportFormats": [
    ],
    "includedLayerIds": [
    ],
    "layerOptions": 0,
    "shouldTrim": false
  },
  "frame": {
    "_class": "rect",
    "constrainProportions": false,
    "do_objectID": "1FABB395-C974-4EAB-AB33-1B45B73A07F6",
    "height": 247,
    "width": 1209,
    "x": 0,
    "y": 0
  },
  "hasClickThrough": false,
  "isFixedToViewport": false,
  "isFlippedHorizontal": false,
  "isFlippedVertical": false,
  "isLocked": false,
  "isVisible": true,
  "layerListExpandedType": 2,
  "layers": [
    {
      "class": "shapeGroup",
      "id": "7554960D-2899-44FC-B9B6-EEC2C3797E22"
    },
    {
      "class": "symbolInstance",
      "id": "7E65D29E-7381-4EB3-B788-17A52F047760"
    },
    {
      "class": "symbolInstance",
      "id": "D209C74D-519F-48F2-80A4-86CB5452E1E3"
    },
    {
      "class": "symbolInstance",
      "id": "3C2D06F7-8378-4197-8BCB-07BE46C936D6"
    },
    {
      "class": "symbolInstance",
      "id": "CF35ED1C-790A-4965-9B19-E47F2FA1A3BC"
    },
    {
      "class": "symbolInstance",
      "id": "39CCEBE9-135A-4CA7-9C52-9E85816AA310"
    },
    {
      "class": "symbolInstance",
      "id": "B3ABFD04-E7E4-4FFA-8D36-51907DD39054"
    },
    {
      "class": "group",
      "id": "5EC7C9AF-D07D-483D-A1A5-059974ABE42A"
    },
    {
      "class": "symbolInstance",
      "id": "4C2E6962-6AF7-4615-BC9E-3D63B8FC8FA2"
    },
    {
      "class": "symbolInstance",
      "id": "52C109DC-E5B5-445D-8C43-FB34824E8755"
    },
    {
      "class": "symbolInstance",
      "id": "E0858B3F-7DD0-444F-A79B-92AC3BB060E2"
    }
  ],
  "name": "app-toolbar",
  "nameIsFixed": true,
  "resizingConstraint": 63,
  "resizingType": 0,
  "rotation": 0,
  "shouldBreakMaskChain": false,
  "style": {
    "_class": "style",
    "do_objectID": "DAC82836-77A4-40BA-A147-FD1D8063B2BF",
    "endMarkerType": 0,
    "miterLimit": 10,
    "startMarkerType": 0,
    "windingRule": 1
  },
  "userInfo": {
    "com.animaapp.stc-sketch-plugin": {
      "kModelPropertiesKey": {
      }
    }
  }
}