{
  "_class": "symbolInstance",
  "booleanOperation": 0,
  "do_objectID": "B572A412-9D6D-4045-B385-6364E7D8A810",
  "exportOptions": {
    "_class": "exportOptions",
    "do_objectID": "D15D9BEE-B112-4375-BCF8-92B39CC66B4F",
    "exportFormats": [
    ],
    "includedLayerIds": [
    ],
    "layerOptions": 0,
    "shouldTrim": false
  },
  "frame": {
    "_class": "rect",
    "constrainProportions": true,
    "do_objectID": "B48B725B-7576-4427-99B4-0D862B781DF4",
    "height": 16,
    "width": 16,
    "x": 117,
    "y": 19
  },
  "horizontalSpacing": 0,
  "isFixedToViewport": false,
  "isFlippedHorizontal": false,
  "isFlippedVertical": false,
  "isLocked": false,
  "isVisible": true,
  "layerListExpandedType": 0,
  "name": "Black/icon-inactive",
  "nameIsFixed": false,
  "overrideValues": [
  ],
  "resizingConstraint": 12,
  "resizingType": 0,
  "rotation": 0,
  "scale": 1,
  "shouldBreakMaskChain": false,
  "style": {
    "_class": "style",
    "do_objectID": "2D1ADBEB-1C4B-4E14-9D14-A765DCB043FA",
    "endMarkerType": 0,
    "miterLimit": 10,
    "startMarkerType": 0,
    "windingRule": 1
  },
  "symbolID": "23518F14-394B-4E06-85C6-4DA360118D62",
  "verticalSpacing": 0
}