{
  "_class": "symbolInstance",
  "booleanOperation": -1,
  "do_objectID": "BCA706A5-A25A-4E82-BCB6-DC2302B7A051",
  "exportOptions": {
    "_class": "exportOptions",
    "do_objectID": "CBD96986-965D-43A7-96D3-284E964AB7E9",
    "exportFormats": [
    ],
    "includedLayerIds": [
    ],
    "layerOptions": 0,
    "shouldTrim": false
  },
  "frame": {
    "_class": "rect",
    "constrainProportions": false,
    "do_objectID": "D1D25073-FFFD-47D5-A236-C38779C9AA2D",
    "height": 14,
    "width": 22,
    "x": 294,
    "y": 39
  },
  "horizontalSpacing": 0,
  "isFixedToViewport": false,
  "isFlippedHorizontal": false,
  "isFlippedVertical": false,
  "isLocked": false,
  "isVisible": true,
  "layerListExpandedType": 0,
  "name": "25h8/chat/notification-bubble-3-digit-normal",
  "nameIsFixed": false,
  "overrideValues": [
  ],
  "resizingConstraint": 12,
  "resizingType": 0,
  "rotation": 0,
  "scale": 1,
  "shouldBreakMaskChain": false,
  "style": {
    "_class": "style",
    "do_objectID": "5F9BC4CB-852C-4AB7-9DE2-A4BDACB38175",
    "endMarkerType": 0,
    "miterLimit": 10,
    "startMarkerType": 0,
    "windingRule": 1
  },
  "symbolID": "3F668D78-AD18-407A-A5B8-94E350E6E6D3",
  "verticalSpacing": 0
}