{
  "_class": "symbolMaster",
  "backgroundColor": {
    "_class": "color",
    "alpha": 1,
    "blue": 1,
    "do_objectID": "4D720DC0-582D-4718-807F-594C50642A2D",
    "green": 1,
    "red": 1
  },
  "booleanOperation": 0,
  "changeIdentifier": 750,
  "do_objectID": "F8BFE62A-EAFC-4B1E-B1A0-4769E9E95C2D",
  "exportOptions": {
    "_class": "exportOptions",
    "do_objectID": "C36803DE-B348-4A58-A6F7-4CD5AD217B92",
    "exportFormats": [
      {
        "_class": "exportFormat",
        "absoluteSize": 0,
        "fileFormat": "svg",
        "name": "",
        "namingScheme": 0,
        "scale": 1,
        "visibleScaleType": 0
      }
    ],
    "includedLayerIds": [
    ],
    "layerOptions": 0,
    "shouldTrim": false
  },
  "frame": {
    "_class": "rect",
    "constrainProportions": false,
    "do_objectID": "0A98ADAD-DECB-4F7B-90BA-099EA6DD17F1",
    "height": 40,
    "width": 40,
    "x": 616,
    "y": 203
  },
  "hasBackgroundColor": false,
  "hasClickThrough": true,
  "horizontalRulerData": {
    "_class": "rulerData",
    "base": 0,
    "do_objectID": "F3A09BF1-6FBF-4ED5-B95F-31E84E07609F",
    "guides": [
    ]
  },
  "includeBackgroundColorInExport": true,
  "includeBackgroundColorInInstance": true,
  "includeInCloudUpload": true,
  "isFixedToViewport": false,
  "isFlippedHorizontal": false,
  "isFlippedVertical": false,
  "isFlowHome": false,
  "isLocked": false,
  "isVisible": true,
  "layerListExpandedType": 2,
  "layers": [
    {
      "class": "shapeGroup",
      "id": "BBBFDD9E-138F-41EE-BF73-062011751F14"
    }
  ],
  "name": "25h8/chat/mat-icon-button/search/search-press",
  "nameIsFixed": true,
  "originalObjectID": "27408BBF-09BB-4D42-90EE-E09CC48AC951",
  "resizesContent": false,
  "resizingConstraint": 63,
  "resizingType": 0,
  "rotation": 0,
  "shouldBreakMaskChain": true,
  "style": {
    "_class": "style",
    "do_objectID": "E2DDC003-6CE5-4479-B587-70AB852CF724",
    "endMarkerType": 0,
    "miterLimit": 10,
    "startMarkerType": 0,
    "windingRule": 1
  },
  "symbolID": "D3463938-55EB-43F1-975C-DB733F9A39F3",
  "userInfo": {
    "com.animaapp.stc-sketch-plugin": {
      "kModelPropertiesKey": {
      }
    }
  },
  "verticalRulerData": {
    "_class": "rulerData",
    "base": 0,
    "do_objectID": "E418BEDC-0E49-4742-8F62-5FAB2741700E",
    "guides": [
    ]
  }
}