{
  "_class": "shapeGroup",
  "booleanOperation": 0,
  "clippingMaskMode": 0,
  "do_objectID": "25A27190-3F36-415F-8DD6-38638A2C3E3D",
  "exportOptions": {
    "_class": "exportOptions",
    "do_objectID": "4C382FA4-90B1-4061-9845-B9A14ACC049F",
    "exportFormats": [
    ],
    "includedLayerIds": [
    ],
    "layerOptions": 0,
    "shouldTrim": false
  },
  "frame": {
    "_class": "rect",
    "constrainProportions": false,
    "do_objectID": "B3918287-28B1-4FF6-BA0F-FD519C0D3583",
    "height": 10.582,
    "width": 11.8112,
    "x": 27.13919999999998,
    "y": 16.35542857142842
  },
  "hasClickThrough": false,
  "hasClippingMask": false,
  "isFixedToViewport": false,
  "isFlippedHorizontal": false,
  "isFlippedVertical": false,
  "isLocked": false,
  "isVisible": true,
  "layerListExpandedType": 1,
  "layers": [
    {
      "class": "shapePath",
      "id": "8AFF388C-877B-46DC-9533-42528A9D7969"
    }
  ],
  "name": "Path",
  "nameIsFixed": false,
  "resizingConstraint": 63,
  "resizingType": 0,
  "rotation": 0,
  "shouldBreakMaskChain": false,
  "style": {
    "_class": "style",
    "blur": {
      "_class": "blur",
      "center": "{0.5, 0.5}",
      "do_objectID": "71BFDCEE-612F-4FD0-A2E0-44267FA12A6F",
      "isEnabled": false,
      "motionAngle": 0,
      "radius": 16,
      "type": 0
    },
    "do_objectID": "A4C1EE9E-E04B-4A9D-AEE4-17B0003A704F",
    "endMarkerType": 0,
    "fills": [
      {
        "_class": "fill",
        "color": {
          "_class": "color",
          "alpha": 1,
          "blue": 0.9294117647058824,
          "green": 0.8274509803921568,
          "red": 0.5568627450980392
        },
        "fillType": 1,
        "gradient": {
          "_class": "gradient",
          "elipseLength": 0,
          "from": "{0.5, 0}",
          "gradientType": 0,
          "stops": [
            {
              "_class": "gradientStop",
              "color": {
                "_class": "color",
                "alpha": 1,
                "blue": 1,
                "green": 1,
                "red": 1
              },
              "position": 0
            },
            {
              "_class": "gradientStop",
              "color": {
                "_class": "color",
                "alpha": 1,
                "blue": 0.6823529411764706,
                "green": 0.5764705882352941,
                "red": 0.2156862745098039
              },
              "position": 1
            }
          ],
          "to": "{-0.12416823385931432, 1}"
        },
        "isEnabled": true,
        "noiseIndex": 0,
        "noiseIntensity": 0,
        "patternFillType": 1,
        "patternTileScale": 1
      }
    ],
    "miterLimit": 10,
    "startMarkerType": 0,
    "windingRule": 1
  },
  "windingRule": 1
}