{
  "_class": "group",
  "booleanOperation": 0,
  "do_objectID": "D34C503B-043A-400F-B4B3-8666B8E00983",
  "exportOptions": {
    "_class": "exportOptions",
    "do_objectID": "9B80319F-F445-4EBE-BFEF-D5D36BE8054F",
    "exportFormats": [
      {
        "_class": "exportFormat",
        "absoluteSize": 0,
        "fileFormat": "png",
        "name": "",
        "namingScheme": 0,
        "scale": 1,
        "visibleScaleType": 0
      }
    ],
    "includedLayerIds": [
    ],
    "layerOptions": 0,
    "shouldTrim": false
  },
  "frame": {
    "_class": "rect",
    "constrainProportions": false,
    "do_objectID": "56E0492B-ED00-4C56-9410-AE1A5FD89DF4",
    "height": 48,
    "width": 48,
    "x": 12,
    "y": 0
  },
  "hasClickThrough": false,
  "isFixedToViewport": false,
  "isFlippedHorizontal": false,
  "isFlippedVertical": false,
  "isLocked": false,
  "isVisible": true,
  "layerListExpandedType": 0,
  "layers": [
    {
      "class": "group",
      "id": "AAAEA39A-69DC-4AF2-8405-BCA21B86377B"
    }
  ],
  "name": "Material/Icons/Product/Active/Global Search 48px",
  "nameIsFixed": false,
  "resizingConstraint": 63,
  "resizingType": 0,
  "rotation": 0,
  "shouldBreakMaskChain": false,
  "style": {
    "_class": "style",
    "do_objectID": "6F28BD09-9DB4-41C8-8315-A80DAF934FB1",
    "endMarkerType": 0,
    "miterLimit": 10,
    "startMarkerType": 0,
    "windingRule": 1
  }
}