{
  "_class": "symbolInstance",
  "booleanOperation": 0,
  "do_objectID": "89795035-F3C1-4EFD-ADDB-A5C8388B2200",
  "exportOptions": {
    "_class": "exportOptions",
    "do_objectID": "0F4876E5-BD47-4D6E-8870-C2ABB72EA971",
    "exportFormats": [
    ],
    "includedLayerIds": [
    ],
    "layerOptions": 0,
    "shouldTrim": false
  },
  "frame": {
    "_class": "rect",
    "constrainProportions": false,
    "do_objectID": "AAB67D41-4F52-491C-88CA-066E203066E0",
    "height": 52,
    "width": 481,
    "x": 408,
    "y": 310
  },
  "horizontalSpacing": 0,
  "isFixedToViewport": false,
  "isFlippedHorizontal": false,
  "isFlippedVertical": false,
  "isLocked": false,
  "isVisible": true,
  "layerListExpandedType": 0,
  "name": "25h8/chat/chat-area/chat-message-area/chat-message-file",
  "nameIsFixed": false,
  "overrideValues": [
  ],
  "resizingConstraint": 63,
  "resizingType": 0,
  "rotation": 0,
  "scale": 1,
  "shouldBreakMaskChain": false,
  "style": {
    "_class": "style",
    "do_objectID": "56B44765-9C4E-4388-B4CA-9852A988036A",
    "endMarkerType": 0,
    "miterLimit": 10,
    "startMarkerType": 0,
    "windingRule": 1
  },
  "symbolID": "186DCE72-FDBE-4614-AE1C-32615D1C16D0",
  "verticalSpacing": 0
}