{
  "_class": "shapeGroup",
  "booleanOperation": 0,
  "clippingMaskMode": 0,
  "do_objectID": "BBD3EBA2-BF8C-4770-B7E4-6B4E29170379",
  "exportOptions": {
    "_class": "exportOptions",
    "do_objectID": "ABE45ADF-F246-4BBB-88F6-8ED6C112CF71",
    "exportFormats": [
    ],
    "includedLayerIds": [
    ],
    "layerOptions": 0,
    "shouldTrim": false
  },
  "frame": {
    "_class": "rect",
    "constrainProportions": true,
    "do_objectID": "5CFB184B-DDC0-48F9-AF11-210EF51A6E87",
    "height": 9.648648648648637,
    "width": 9.648648648648646,
    "x": 15.5,
    "y": 22.33719433719438
  },
  "hasClickThrough": false,
  "hasClippingMask": false,
  "isFixedToViewport": false,
  "isFlippedHorizontal": false,
  "isFlippedVertical": false,
  "isLocked": false,
  "isVisible": true,
  "layerListExpandedType": 0,
  "layers": [
    {
      "class": "oval",
      "id": "F769810A-8AAF-47D0-A3D0-DFC6EEFECA99"
    },
    {
      "class": "oval",
      "id": "AC568CA0-B0E8-4828-9D6C-8B831B57E165"
    },
    {
      "class": "shapePath",
      "id": "19A3724A-AC6A-4B9E-AAD7-35F553709ED4"
    },
    {
      "class": "shapePath",
      "id": "CCDFC99D-0471-4D4B-8541-68D3E5C11CAE"
    },
    {
      "class": "shapePath",
      "id": "2F1AB795-1464-48BB-A36B-DAD3E2AD4139"
    },
    {
      "class": "shapePath",
      "id": "A22EB3EE-C598-4B4A-A74B-6648D47B8AFD"
    }
  ],
  "name": "Combined Shape",
  "nameIsFixed": false,
  "resizingConstraint": 63,
  "resizingType": 0,
  "rotation": 0,
  "shouldBreakMaskChain": false,
  "style": {
    "_class": "style",
    "do_objectID": "BB80D79B-B42A-470A-8D64-01B751876CB9",
    "endMarkerType": 0,
    "fills": [
      {
        "_class": "fill",
        "color": {
          "_class": "color",
          "alpha": 1,
          "blue": 0.9529411764705882,
          "green": 0.5882352941176472,
          "red": 0.1294117647058823
        },
        "fillType": 0,
        "isEnabled": true,
        "noiseIndex": 0,
        "noiseIntensity": 0,
        "patternFillType": 0,
        "patternTileScale": 1
      }
    ],
    "miterLimit": 10,
    "shadows": [
      {
        "_class": "shadow",
        "blurRadius": 4,
        "color": {
          "_class": "color",
          "alpha": 0.1,
          "blue": 0.1294117647058823,
          "green": 0.1294117647058823,
          "red": 0.1294117647058823
        },
        "contextSettings": {
          "_class": "graphicsContextSettings",
          "blendMode": 0,
          "opacity": 1
        },
        "isEnabled": true,
        "offsetX": 0,
        "offsetY": 4,
        "spread": 0
      }
    ],
    "startMarkerType": 0,
    "windingRule": 1
  },
  "windingRule": 1
}