{
  "_class": "symbolInstance",
  "booleanOperation": 0,
  "do_objectID": "CAC5CD1C-7517-4244-853B-99D634B0396F",
  "exportOptions": {
    "_class": "exportOptions",
    "do_objectID": "13577BA0-9635-4296-8053-796F0C646211",
    "exportFormats": [
    ],
    "includedLayerIds": [
    ],
    "layerOptions": 0,
    "shouldTrim": false
  },
  "frame": {
    "_class": "rect",
    "constrainProportions": false,
    "do_objectID": "32D81D13-1E86-458A-A09C-02ADD1370CF2",
    "height": 24,
    "width": 24,
    "x": 280,
    "y": 18
  },
  "horizontalSpacing": 0,
  "isFixedToViewport": false,
  "isFlippedHorizontal": false,
  "isFlippedVertical": false,
  "isLocked": false,
  "isVisible": true,
  "layerListExpandedType": 0,
  "name": "Material/Icons/Black/Active/expand more",
  "nameIsFixed": false,
  "overrideValues": [
  ],
  "resizingConstraint": 63,
  "resizingType": 0,
  "rotation": 0,
  "scale": 1,
  "shouldBreakMaskChain": false,
  "style": {
    "_class": "style",
    "do_objectID": "87C424D0-398A-446A-A838-33F1EFF29174",
    "endMarkerType": 0,
    "miterLimit": 10,
    "startMarkerType": 0,
    "windingRule": 1
  },
  "symbolID": "2F44E5BA-9CAB-41FA-AF71-76668ADCCBF9",
  "userInfo": {
    "com.animaapp.stc-sketch-plugin": {
      "kModelPropertiesKey": {
      }
    }
  },
  "verticalSpacing": 0
}