{
  "_class": "group",
  "booleanOperation": 0,
  "do_objectID": "7AF31431-803E-4262-967F-831B986810CE",
  "exportOptions": {
    "_class": "exportOptions",
    "do_objectID": "7BC17525-1EF0-4559-8321-AB712E347385",
    "exportFormats": [
    ],
    "includedLayerIds": [
    ],
    "layerOptions": 0,
    "shouldTrim": false
  },
  "frame": {
    "_class": "rect",
    "constrainProportions": false,
    "do_objectID": "1C147B0C-0114-48AB-8DE6-E03BFF1DD0B0",
    "height": 240,
    "width": 1440,
    "x": 0,
    "y": 0
  },
  "hasClickThrough": true,
  "isFixedToViewport": false,
  "isFlippedHorizontal": false,
  "isFlippedVertical": false,
  "isLocked": false,
  "isVisible": true,
  "layerListExpandedType": 2,
  "layers": [
    {
      "class": "shapeGroup",
      "id": "E9A9BBA5-8E2C-40B3-9BDA-2D9CD2CF0693"
    },
    {
      "class": "shapeGroup",
      "id": "F48AB4F5-4482-4ED8-ABEA-098781814080"
    },
    {
      "class": "text",
      "id": "1A1CF21D-2EB6-4111-954F-E82F21FEDC2B"
    }
  ],
  "name": "Artboard Header",
  "nameIsFixed": true,
  "resizingConstraint": 63,
  "resizingType": 0,
  "rotation": 0,
  "shouldBreakMaskChain": false,
  "style": {
    "_class": "style",
    "do_objectID": "812C5199-DF58-41B8-8CF9-AC580046428E",
    "endMarkerType": 0,
    "miterLimit": 10,
    "startMarkerType": 0,
    "windingRule": 1
  }
}