{
  "_class": "rectangle",
  "booleanOperation": -1,
  "do_objectID": "B05401B4-1B07-499D-B967-F3481D7C795E",
  "edited": true,
  "exportOptions": {
    "_class": "exportOptions",
    "exportFormats": [
    ],
    "includedLayerIds": [
    ],
    "layerOptions": 0,
    "shouldTrim": false
  },
  "fixedRadius": 3,
  "frame": {
    "_class": "rect",
    "constrainProportions": false,
    "height": 32,
    "width": 38.03038449186135,
    "x": 0,
    "y": 0
  },
  "hasConvertedToNewRoundCorners": true,
  "isClosed": true,
  "isFixedToViewport": false,
  "isFlippedHorizontal": false,
  "isFlippedVertical": false,
  "isLocked": false,
  "isVisible": true,
  "layerListExpandedType": 0,
  "name": "Path",
  "nameIsFixed": false,
  "pointRadiusBehaviour": 0,
  "points": [
    {
      "_class": "curvePoint",
      "cornerRadius": 3,
      "curveFrom": "{0.29008856677405559, 0}",
      "curveMode": 1,
      "curveTo": "{0, 0}",
      "hasCurveFrom": false,
      "hasCurveTo": false,
      "point": "{0, 0}"
    },
    {
      "_class": "curvePoint",
      "cornerRadius": 0,
      "curveFrom": "{0.7796908950411634, 0}",
      "curveMode": 1,
      "curveTo": "{0.49917238603459979, 0}",
      "hasCurveFrom": false,
      "hasCurveTo": false,
      "point": "{0.71043819284585308, 0}"
    },
    {
      "_class": "curvePoint",
      "cornerRadius": 0,
      "curveFrom": "{1, 0.59205019553557769}",
      "curveMode": 1,
      "curveTo": "{1, 0.28995041619517797}",
      "hasCurveFrom": false,
      "hasCurveTo": false,
      "point": "{1, 0.37468897474020224}"
    },
    {
      "_class": "curvePoint",
      "cornerRadius": 3,
      "curveFrom": "{0.99920104694529543, 1}",
      "curveMode": 1,
      "curveTo": "{0.99920104694529543, 0.68891344821522416}",
      "hasCurveFrom": false,
      "hasCurveTo": false,
      "point": "{0.99920104694529543, 1}"
    },
    {
      "_class": "curvePoint",
      "cornerRadius": 3,
      "curveFrom": "{0, 1}",
      "curveMode": 1,
      "curveTo": "{0, 1}",
      "hasCurveFrom": false,
      "hasCurveTo": false,
      "point": "{0, 1}"
    }
  ],
  "resizingConstraint": 63,
  "resizingType": 0,
  "rotation": 0,
  "shouldBreakMaskChain": false,
  "userInfo": {
    "com.animaapp.stc-sketch-plugin": {
      "kModelPropertiesKey": {
      }
    }
  }
}