{
  "_class": "symbolInstance",
  "booleanOperation": 0,
  "do_objectID": "77908A86-CFA0-4178-80C2-4298C0DE6DFD",
  "exportOptions": {
    "_class": "exportOptions",
    "exportFormats": [
    ],
    "includedLayerIds": [
    ],
    "layerOptions": 0,
    "shouldTrim": false
  },
  "frame": {
    "_class": "rect",
    "constrainProportions": false,
    "height": 48,
    "width": 320,
    "x": 0,
    "y": 49
  },
  "horizontalSpacing": 0,
  "isFixedToViewport": false,
  "isFlippedHorizontal": false,
  "isFlippedVertical": false,
  "isLocked": false,
  "isVisible": true,
  "layerListExpandedType": 0,
  "name": "25h8/chat/chat-detail-container/chat-header-default",
  "nameIsFixed": false,
  "overrideValues": [
    {
      "_class": "overrideValue",
      "do_objectID": "E36D6724-7F0B-42C1-933C-75BD2C2AEE63",
      "overrideName": "81D4569C-D7DD-44C3-A1EC-9DF4EFDE55F8/8265B4FF-0E43-4217-923F-8DBE90080B56_stringValue",
      "value": "Пошук"
    }
  ],
  "resizingConstraint": 63,
  "resizingType": 0,
  "rotation": 0,
  "scale": 1,
  "shouldBreakMaskChain": false,
  "style": {
    "_class": "style",
    "endMarkerType": 0,
    "miterLimit": 10,
    "startMarkerType": 0,
    "windingRule": 1
  },
  "symbolID": "1289FC6B-F811-487D-895D-05A2AF32DDC9",
  "verticalSpacing": 0
}