{
  "_class": "symbolInstance",
  "booleanOperation": 0,
  "do_objectID": "91CC1CDE-3460-4AA8-9E05-27074E893CC5",
  "exportOptions": {
    "_class": "exportOptions",
    "do_objectID": "9DB67A0B-2873-4460-A3C3-5A30D3404F9C",
    "exportFormats": [
    ],
    "includedLayerIds": [
    ],
    "layerOptions": 0,
    "shouldTrim": false
  },
  "frame": {
    "_class": "rect",
    "constrainProportions": false,
    "do_objectID": "942FA0DE-7695-4BF8-93F7-B65C9E708699",
    "height": 64,
    "width": 72,
    "x": 0,
    "y": -1
  },
  "horizontalSpacing": 0,
  "isFixedToViewport": false,
  "isFlippedHorizontal": false,
  "isFlippedVertical": false,
  "isLocked": false,
  "isVisible": true,
  "layerListExpandedType": 0,
  "name": "25h8/chat/buttons/launchpad-button",
  "nameIsFixed": false,
  "overrideValues": [
  ],
  "resizingConstraint": 63,
  "resizingType": 0,
  "rotation": 0,
  "scale": 1,
  "shouldBreakMaskChain": false,
  "style": {
    "_class": "style",
    "do_objectID": "FAC99A18-2527-482C-82D4-627B2E5DEDE0",
    "endMarkerType": 0,
    "miterLimit": 10,
    "startMarkerType": 0,
    "windingRule": 1
  },
  "symbolID": "BFD688D4-581C-4195-BC5C-3DF9C150A693",
  "verticalSpacing": 0
}