{
  "_class": "symbolInstance",
  "booleanOperation": 0,
  "do_objectID": "D9A1DF6B-3968-48AD-BDA8-D8116C243FAE",
  "exportOptions": {
    "_class": "exportOptions",
    "do_objectID": "2487BECF-1C24-4161-ADA6-3684DA7EC521",
    "exportFormats": [
    ],
    "includedLayerIds": [
    ],
    "layerOptions": 0,
    "shouldTrim": false
  },
  "frame": {
    "_class": "rect",
    "constrainProportions": false,
    "do_objectID": "6E6D5691-D96A-4B8E-B359-9D59BE1981AD",
    "height": 80,
    "width": 423,
    "x": 521,
    "y": 668
  },
  "horizontalSpacing": 0,
  "isFixedToViewport": false,
  "isFlippedHorizontal": false,
  "isFlippedVertical": false,
  "isLocked": false,
  "isVisible": true,
  "layerListExpandedType": 0,
  "name": "25h8/chat/chat-area/chat-message-area/chat-message-own",
  "nameIsFixed": false,
  "overrideValues": [
  ],
  "resizingConstraint": 63,
  "resizingType": 0,
  "rotation": 0,
  "scale": 1,
  "shouldBreakMaskChain": false,
  "style": {
    "_class": "style",
    "do_objectID": "E1E325D2-988F-40D0-B837-935175744424",
    "endMarkerType": 0,
    "miterLimit": 10,
    "startMarkerType": 0,
    "windingRule": 1
  },
  "symbolID": "5437EC01-9610-4D86-99EB-0CCAD477B3B4",
  "verticalSpacing": 0
}