{
  "_class": "symbolInstance",
  "booleanOperation": 0,
  "do_objectID": "F940244F-72B7-42D6-A5AB-BA0B487A17FF",
  "exportOptions": {
    "_class": "exportOptions",
    "do_objectID": "48DF4FF5-3DE3-4593-B786-45D186ADEA49",
    "exportFormats": [
    ],
    "includedLayerIds": [
    ],
    "layerOptions": 0,
    "shouldTrim": false
  },
  "frame": {
    "_class": "rect",
    "constrainProportions": false,
    "do_objectID": "908D49DF-0C4D-443E-85DB-8CAC414F1E55",
    "height": 60,
    "width": 888,
    "x": 392,
    "y": 63
  },
  "horizontalSpacing": 0,
  "isFixedToViewport": false,
  "isFlippedHorizontal": false,
  "isFlippedVertical": false,
  "isLocked": false,
  "isVisible": true,
  "layerListExpandedType": 0,
  "name": "25h8/chat/chat-layout/chat-layout-header/chat-layout-header",
  "nameIsFixed": false,
  "overrideValues": [
    {
      "_class": "overrideValue",
      "do_objectID": "339BEB22-CF3D-4C4F-A8A6-A4C913535865",
      "overrideName": "58DF2774-F015-4276-8C50-B87E8FEF19CE_stringValue",
      "value": "Игорь Александрович"
    },
    {
      "_class": "overrideValue",
      "do_objectID": "6503BCDA-3AFC-4534-AE3D-73486D1A2213",
      "overrideName": "404EE40F-4946-4577-8545-F93560869EF2_stringValue",
      "value": "Був онлайн 12 хв. тому"
    },
    {
      "_class": "overrideValue",
      "do_objectID": "6FA39B99-A82F-4E12-9CFF-445BAEB5197B",
      "overrideName": "05045CB2-3EB2-4802-815A-8A917A36135B_symbolID",
      "value": "018365E2-1669-4054-9711-A17EA5356EF5"
    }
  ],
  "resizingConstraint": 63,
  "resizingType": 0,
  "rotation": 0,
  "scale": 1,
  "shouldBreakMaskChain": false,
  "style": {
    "_class": "style",
    "do_objectID": "09C44DFE-02FF-40B9-A37F-46D000F6A11E",
    "endMarkerType": 0,
    "miterLimit": 10,
    "startMarkerType": 0,
    "windingRule": 1
  },
  "symbolID": "0F46561D-44FD-4117-957F-B338664F8956",
  "verticalSpacing": 0
}