{
  "_class": "symbolInstance",
  "booleanOperation": 0,
  "do_objectID": "D170DCD3-C7C6-45FE-A0C3-3F0F88863136",
  "exportOptions": {
    "_class": "exportOptions",
    "do_objectID": "E279C0D1-D953-49E9-9F57-A04392571B4B",
    "exportFormats": [
    ],
    "includedLayerIds": [
    ],
    "layerOptions": 0,
    "shouldTrim": false
  },
  "frame": {
    "_class": "rect",
    "constrainProportions": false,
    "do_objectID": "EBFD7469-BF4A-43C5-B282-DD9F55672DE3",
    "height": 36,
    "width": 56,
    "x": 1129,
    "y": 14
  },
  "horizontalSpacing": 0,
  "isFixedToViewport": false,
  "isFlippedHorizontal": false,
  "isFlippedVertical": false,
  "isLocked": false,
  "isVisible": true,
  "layerListExpandedType": 0,
  "name": "mat-basic-button",
  "nameIsFixed": false,
  "overrideValues": [
  ],
  "resizingConstraint": 63,
  "resizingType": 0,
  "rotation": 0,
  "scale": 1,
  "shouldBreakMaskChain": false,
  "style": {
    "_class": "style",
    "do_objectID": "A4205B9C-D0DD-43EA-8FA8-6725817BA549",
    "endMarkerType": 0,
    "miterLimit": 10,
    "startMarkerType": 0,
    "windingRule": 1
  },
  "symbolID": "206373D6-BBFA-490B-BA84-27C558D3A0F1",
  "verticalSpacing": 0
}