{
  "_class": "shapeGroup",
  "booleanOperation": 0,
  "clippingMaskMode": 0,
  "do_objectID": "C0C696E2-B173-4408-AEF2-1B2617F6F3AD",
  "exportOptions": {
    "_class": "exportOptions",
    "do_objectID": "F6BDA04B-73E1-4451-A315-49DB6D5069E5",
    "exportFormats": [
    ],
    "includedLayerIds": [
    ],
    "layerOptions": 0,
    "shouldTrim": false
  },
  "frame": {
    "_class": "rect",
    "constrainProportions": true,
    "do_objectID": "43E03EDA-AE29-44E2-B0F4-242FE4641CF5",
    "height": 18,
    "width": 18,
    "x": 0,
    "y": 3
  },
  "hasClickThrough": false,
  "hasClippingMask": false,
  "isFixedToViewport": false,
  "isFlippedHorizontal": false,
  "isFlippedVertical": false,
  "isLocked": false,
  "isVisible": true,
  "layerListExpandedType": 0,
  "layers": [
    {
      "class": "rectangle",
      "id": "E5DDC0D3-7F4D-408D-A141-E9266A562F44"
    }
  ],
  "name": "24x24",
  "nameIsFixed": true,
  "originalObjectID": "B8F12C39-72E3-49B8-8608-3A06E22A4EDE",
  "resizingConstraint": 63,
  "resizingType": 0,
  "rotation": 0,
  "shouldBreakMaskChain": false,
  "style": {
    "_class": "style",
    "do_objectID": "7B2EE7D1-942D-4CD5-8036-DC4C123D57A9",
    "endMarkerType": 0,
    "miterLimit": 10,
    "startMarkerType": 0,
    "windingRule": 1
  },
  "userInfo": {
    "com.animaapp.stc-sketch-plugin": {
      "kModelPropertiesKey": {
      }
    }
  },
  "windingRule": 1
}