{
  "_class": "shapeGroup",
  "booleanOperation": 0,
  "clippingMaskMode": 0,
  "do_objectID": "AED3C6A1-8F81-45A6-8FDA-5A8F1411606E",
  "exportOptions": {
    "_class": "exportOptions",
    "exportFormats": [
    ],
    "includedLayerIds": [
    ],
    "layerOptions": 0,
    "shouldTrim": false
  },
  "frame": {
    "_class": "rect",
    "constrainProportions": false,
    "height": 44,
    "width": 44,
    "x": 2,
    "y": 2
  },
  "hasClickThrough": false,
  "hasClippingMask": false,
  "isFixedToViewport": false,
  "isFlippedHorizontal": false,
  "isFlippedVertical": false,
  "isLocked": false,
  "isVisible": true,
  "layerListExpandedType": 1,
  "layers": [
    {
      "class": "shapePath",
      "id": "967DC436-6C7F-4665-9005-85BDCCD6DDD3"
    },
    {
      "class": "shapePath",
      "id": "6C91DC44-6B90-436C-9B1D-66977BA07ADE"
    },
    {
      "class": "shapePath",
      "id": "0E8FCE20-D5B8-4101-BE69-56E461805492"
    },
    {
      "class": "shapePath",
      "id": "F8ABA0B7-1D5D-45DE-9CAF-93A3C9978063"
    },
    {
      "class": "shapePath",
      "id": "3D7A2CBB-F693-4CEC-890A-52140EB0E636"
    },
    {
      "class": "shapePath",
      "id": "F192252B-B955-4AC7-B0AD-E7163345189B"
    }
  ],
  "name": "Combined Shape",
  "nameIsFixed": false,
  "resizingConstraint": 63,
  "resizingType": 0,
  "rotation": 0,
  "shouldBreakMaskChain": false,
  "style": {
    "_class": "style",
    "endMarkerType": 0,
    "fills": [
      {
        "_class": "fill",
        "color": {
          "_class": "color",
          "alpha": 1,
          "blue": 0.4823529411764705,
          "green": 0.5372549019607843,
          "red": 0
        },
        "fillType": 0,
        "isEnabled": true,
        "noiseIndex": 0,
        "noiseIntensity": 0,
        "patternFillType": 1,
        "patternTileScale": 1
      }
    ],
    "miterLimit": 10,
    "startMarkerType": 0,
    "windingRule": 1
  },
  "windingRule": 1
}