{
  "_class": "group",
  "booleanOperation": 0,
  "do_objectID": "EFDEA870-6ED3-4E37-B935-D30C9A438FA8",
  "exportOptions": {
    "_class": "exportOptions",
    "do_objectID": "32CD87F2-9200-4BDF-A79F-4207DF9A7987",
    "exportFormats": [
    ],
    "includedLayerIds": [
    ],
    "layerOptions": 0,
    "shouldTrim": false
  },
  "frame": {
    "_class": "rect",
    "constrainProportions": false,
    "do_objectID": "BE47D981-2138-4BCD-867C-59D33EB98BC5",
    "height": 445,
    "width": 560,
    "x": 696,
    "y": 13106
  },
  "hasClickThrough": false,
  "isFixedToViewport": false,
  "isFlippedHorizontal": false,
  "isFlippedVertical": false,
  "isLocked": false,
  "isVisible": true,
  "layerListExpandedType": 2,
  "layers": [
    {
      "class": "text",
      "id": "0883006D-E889-4DCC-87BF-F1B2E5DFCE03"
    },
    {
      "class": "text",
      "id": "D49A918B-36C0-4BF6-A560-9869099B1AF1"
    },
    {
      "class": "text",
      "id": "05CB6121-92BE-4BC0-9603-8AEE9A1BC594"
    },
    {
      "class": "text",
      "id": "6104F832-CFDD-4AD7-BFB3-384FBA397DDA"
    },
    {
      "class": "text",
      "id": "CBC45DD2-60C2-4CE4-81FE-9308805FA3DB"
    },
    {
      "class": "text",
      "id": "6D7D6C6C-D6B4-4802-A9C2-A33BECD25201"
    }
  ],
  "name": "Secondary color Light background Left aligment ",
  "nameIsFixed": true,
  "resizingConstraint": 63,
  "resizingType": 0,
  "rotation": 0,
  "shouldBreakMaskChain": false,
  "style": {
    "_class": "style",
    "do_objectID": "A91D8C95-EF40-4153-8E6B-A343CE61B4A5",
    "endMarkerType": 0,
    "miterLimit": 10,
    "startMarkerType": 0,
    "windingRule": 1
  }
}