{
  "_class": "symbolInstance",
  "booleanOperation": 0,
  "do_objectID": "D81580EE-5771-449A-9DC0-739F83F3E9F1",
  "exportOptions": {
    "_class": "exportOptions",
    "do_objectID": "1EF49FE9-59A4-4C17-B05B-F06F9D5D1CFA",
    "exportFormats": [
    ],
    "includedLayerIds": [
    ],
    "layerOptions": 0,
    "shouldTrim": false
  },
  "frame": {
    "_class": "rect",
    "constrainProportions": false,
    "do_objectID": "45058289-B8BB-4871-976C-FCC679FD6856",
    "height": 40,
    "width": 40,
    "x": 840,
    "y": 10
  },
  "horizontalSpacing": 0,
  "isFixedToViewport": false,
  "isFlippedHorizontal": false,
  "isFlippedVertical": false,
  "isLocked": false,
  "isVisible": true,
  "layerListExpandedType": 0,
  "name": "Material/Icons/Black/Active/settings",
  "nameIsFixed": false,
  "overrideValues": [
  ],
  "resizingConstraint": 60,
  "resizingType": 0,
  "rotation": 0,
  "scale": 1,
  "shouldBreakMaskChain": false,
  "style": {
    "_class": "style",
    "do_objectID": "E93B8FA7-E495-4818-A19F-C88E5DEEE5F2",
    "endMarkerType": 0,
    "miterLimit": 10,
    "startMarkerType": 0,
    "windingRule": 1
  },
  "symbolID": "0839DCFD-3D47-47D5-BA29-9A0D7434CF31",
  "userInfo": {
    "com.animaapp.stc-sketch-plugin": {
      "kModelPropertiesKey": {
      }
    }
  },
  "verticalSpacing": 0
}