{
  "_class": "rectangle",
  "booleanOperation": 2,
  "do_objectID": "A9CF1396-9E76-47D9-A0B0-1862C5172DBC",
  "edited": true,
  "exportOptions": {
    "_class": "exportOptions",
    "do_objectID": "8AD67B45-79F0-41E8-A91C-A7CB230D91B7",
    "exportFormats": [
    ],
    "includedLayerIds": [
    ],
    "layerOptions": 0,
    "shouldTrim": false
  },
  "fixedRadius": 3,
  "frame": {
    "_class": "rect",
    "constrainProportions": false,
    "do_objectID": "047905EB-6B0E-4A0B-95B7-E828FD137F76",
    "height": 38.09782078445822,
    "width": 23.44700197415401,
    "x": -13,
    "y": -27.99876862547121
  },
  "hasConvertedToNewRoundCorners": true,
  "isClosed": true,
  "isFixedToViewport": false,
  "isFlippedHorizontal": false,
  "isFlippedVertical": false,
  "isLocked": false,
  "isVisible": true,
  "layerListExpandedType": 0,
  "name": "Rectangle 29",
  "nameIsFixed": false,
  "pointRadiusBehaviour": 0,
  "points": [
    {
      "_class": "curvePoint",
      "cornerRadius": 3,
      "curveFrom": "{0, -3.2321390132525994e-05}",
      "curveMode": 1,
      "curveTo": "{0, -3.2321390132525994e-05}",
      "hasCurveFrom": false,
      "hasCurveTo": false,
      "point": "{0, -3.2321390132525994e-05}"
    },
    {
      "_class": "curvePoint",
      "cornerRadius": 0,
      "curveFrom": "{1, 0.24613898658520234}",
      "curveMode": 1,
      "curveTo": "{1, 0.00022090211892406825}",
      "hasCurveFrom": false,
      "hasCurveTo": false,
      "point": "{1, 0.00022090211892406825}"
    },
    {
      "_class": "curvePoint",
      "cornerRadius": 0,
      "curveFrom": "{1, 0.8260033546327451}",
      "curveMode": 1,
      "curveTo": "{1, 0.49205707105148067}",
      "hasCurveFrom": false,
      "hasCurveTo": false,
      "point": "{1, 0.73797515551775883}"
    },
    {
      "_class": "curvePoint",
      "cornerRadius": 0,
      "curveFrom": "{0.4145315328296062, 0.99933164792192153}",
      "curveMode": 1,
      "curveTo": "{0.7053093930389519, 1.0006865842875725}",
      "hasCurveFrom": false,
      "hasCurveTo": false,
      "point": "{0.55796408955842791, 1}"
    },
    {
      "_class": "curvePoint",
      "cornerRadius": 3,
      "curveFrom": "{0, 0.99740005709125934}",
      "curveMode": 1,
      "curveTo": "{0.27109897610078432, 0.99866329584384284}",
      "hasCurveFrom": false,
      "hasCurveTo": false,
      "point": "{0, 0.99740005709125934}"
    }
  ],
  "resizingConstraint": 63,
  "resizingType": 0,
  "rotation": 0,
  "shouldBreakMaskChain": false
}