{
  "_class": "symbolInstance",
  "booleanOperation": 0,
  "do_objectID": "0AC9C2C4-C681-400D-A073-4CA8389FA26E",
  "exportOptions": {
    "_class": "exportOptions",
    "do_objectID": "5CAB05E4-E8FC-4D2B-9071-A1B6988FC668",
    "exportFormats": [
    ],
    "includedLayerIds": [
    ],
    "layerOptions": 0,
    "shouldTrim": false
  },
  "frame": {
    "_class": "rect",
    "constrainProportions": false,
    "do_objectID": "E8AA60A3-0745-4139-BFE4-F744006F7C32",
    "height": 80,
    "width": 320,
    "x": 0,
    "y": 240
  },
  "horizontalSpacing": 0,
  "isFixedToViewport": false,
  "isFlippedHorizontal": false,
  "isFlippedVertical": false,
  "isLocked": false,
  "isVisible": true,
  "layerListExpandedType": 0,
  "name": "chat",
  "nameIsFixed": false,
  "overrideValues": [
  ],
  "resizingConstraint": 63,
  "resizingType": 0,
  "rotation": 0,
  "scale": 1,
  "shouldBreakMaskChain": false,
  "style": {
    "_class": "style",
    "do_objectID": "D45EE76F-1189-4B86-88EF-5025D132C8DB",
    "endMarkerType": 0,
    "miterLimit": 10,
    "startMarkerType": 0,
    "windingRule": 1
  },
  "symbolID": "3C5A1D0D-4593-49D3-BED5-2DBE2A6566B0",
  "verticalSpacing": 0
}