{
  "_class": "group",
  "booleanOperation": 0,
  "do_objectID": "68CBDBED-0BDD-47CC-9FE1-029B99CCF053",
  "exportOptions": {
    "_class": "exportOptions",
    "do_objectID": "329920C4-2A75-43EE-9FBD-87AC537EF51E",
    "exportFormats": [
    ],
    "includedLayerIds": [
    ],
    "layerOptions": 0,
    "shouldTrim": false
  },
  "frame": {
    "_class": "rect",
    "constrainProportions": false,
    "do_objectID": "03486F20-37E7-40E4-A064-4601D6B5E4B9",
    "height": 504,
    "width": 320,
    "x": 0,
    "y": 96
  },
  "hasClickThrough": false,
  "isFixedToViewport": false,
  "isFlippedHorizontal": false,
  "isFlippedVertical": false,
  "isLocked": false,
  "isVisible": true,
  "layerListExpandedType": 2,
  "layers": [
    {
      "class": "group",
      "id": "C5DF832D-0B14-4576-BEDF-8CE4E5DEC411"
    },
    {
      "class": "group",
      "id": "2ADC49B9-235E-4E4C-902A-5CC80175A286"
    },
    {
      "class": "group",
      "id": "FED6D5D3-F776-4C20-8815-8B218D5381E6"
    }
  ],
  "name": "members",
  "nameIsFixed": true,
  "resizingConstraint": 63,
  "resizingType": 0,
  "rotation": 0,
  "shouldBreakMaskChain": false,
  "style": {
    "_class": "style",
    "do_objectID": "C963FFE4-2EF8-4691-8491-F8E358CA0079",
    "endMarkerType": 0,
    "miterLimit": 10,
    "startMarkerType": 0,
    "windingRule": 1
  },
  "userInfo": {
    "com.animaapp.stc-sketch-plugin": {
      "kModelPropertiesKey": {
      }
    }
  }
}