{
  "_class": "rectangle",
  "booleanOperation": -1,
  "do_objectID": "CF89D56B-1C1A-4431-966C-E79786FF2384",
  "edited": true,
  "exportOptions": {
    "_class": "exportOptions",
    "exportFormats": [
    ],
    "includedLayerIds": [
    ],
    "layerOptions": 0,
    "shouldTrim": false
  },
  "fixedRadius": 2,
  "frame": {
    "_class": "rect",
    "constrainProportions": false,
    "height": 23.58208699717283,
    "width": 30.10526315789474,
    "x": 0,
    "y": 0
  },
  "hasConvertedToNewRoundCorners": true,
  "isClosed": true,
  "isFixedToViewport": false,
  "isFlippedHorizontal": false,
  "isFlippedVertical": false,
  "isLocked": false,
  "isVisible": true,
  "layerListExpandedType": 0,
  "name": "Path",
  "nameIsFixed": false,
  "pointRadiusBehaviour": 0,
  "points": [
    {
      "_class": "curvePoint",
      "cornerRadius": 2,
      "curveFrom": "{-2.3421894922479795e-17, 0}",
      "curveMode": 1,
      "curveTo": "{-2.3421894922479795e-17, 0}",
      "hasCurveFrom": false,
      "hasCurveTo": false,
      "point": "{-2.3421894922479795e-17, 0}"
    },
    {
      "_class": "curvePoint",
      "cornerRadius": 2,
      "curveFrom": "{1, 0}",
      "curveMode": 1,
      "curveTo": "{1, 0}",
      "hasCurveFrom": false,
      "hasCurveTo": false,
      "point": "{1, 0}"
    },
    {
      "_class": "curvePoint",
      "cornerRadius": 2,
      "curveFrom": "{0.68955369028776603, 0.88926651133261525}",
      "curveMode": 1,
      "curveTo": "{1, 0.88926651133261525}",
      "hasCurveFrom": false,
      "hasCurveTo": false,
      "point": "{1, 0.88926651133261525}"
    },
    {
      "_class": "curvePoint",
      "cornerRadius": 0,
      "curveFrom": "{0.36277337730617143, 0.88926651133261658}",
      "curveMode": 1,
      "curveTo": "{0.61821401654266983, 0.88926651133261658}",
      "hasCurveFrom": false,
      "hasCurveTo": false,
      "point": "{0.37606837606837623, 0.88926651133261658}"
    },
    {
      "_class": "curvePoint",
      "cornerRadius": 1,
      "curveFrom": "{0.25920577598609834, 1.0202014577864986}",
      "curveMode": 1,
      "curveTo": "{0.28679927226647872, 1.0202014577864986}",
      "hasCurveFrom": false,
      "hasCurveTo": false,
      "point": "{0.2735042735042737, 1.0202014577864986}"
    },
    {
      "_class": "curvePoint",
      "cornerRadius": 0,
      "curveFrom": "{0.14426234590430279, 0.88926651133261658}",
      "curveMode": 1,
      "curveTo": "{0.18523866845834655, 0.88926651133261658}",
      "hasCurveFrom": false,
      "hasCurveTo": false,
      "point": "{0.17094017094017111, 0.88926651133261658}"
    },
    {
      "_class": "curvePoint",
      "cornerRadius": 2,
      "curveFrom": "{1.8789401468816252e-16, 0.88926651133261614}",
      "curveMode": 1,
      "curveTo": "{0.094767296067326451, 0.88926651133261614}",
      "hasCurveFrom": false,
      "hasCurveTo": false,
      "point": "{1.8789401468816252e-16, 0.88926651133261614}"
    }
  ],
  "resizingConstraint": 63,
  "resizingType": 0,
  "rotation": 0,
  "shouldBreakMaskChain": false,
  "userInfo": {
    "com.animaapp.stc-sketch-plugin": {
      "kModelPropertiesKey": {
      }
    }
  }
}