{
  "_class": "text",
  "attributedString": {
    "_class": "attributedString",
    "attributes": [
      {
        "_class": "stringAttribute",
        "attributes": {
          "MSAttributedStringColorAttribute": {
            "_class": "color",
            "alpha": 1,
            "blue": 0.211764705882353,
            "green": 0.2627450980392158,
            "red": 0.9568627450980393
          },
          "MSAttributedStringFontAttribute": {
            "_class": "fontDescriptor",
            "attributes": {
              "name": "Roboto-Medium",
              "size": 12
            }
          },
          "kerning": 0.2,
          "paragraphStyle": {
            "_class": "paragraphStyle",
            "alignment": 2,
            "allowsDefaultTighteningForTruncation": 0,
            "maximumLineHeight": 14,
            "minimumLineHeight": 14
          }
        },
        "length": 8,
        "location": 0
      }
    ],
    "string": "app.name"
  },
  "automaticallyDrawOnUnderlyingPath": false,
  "booleanOperation": 0,
  "do_objectID": "FF0C815E-A037-4249-BA3C-2C99A2ABC01E",
  "dontSynchroniseWithSymbol": false,
  "exportOptions": {
    "_class": "exportOptions",
    "do_objectID": "552C127E-1E5A-42C1-BC5C-56D56AD32420",
    "exportFormats": [
    ],
    "includedLayerIds": [
    ],
    "layerOptions": 0,
    "shouldTrim": false
  },
  "frame": {
    "_class": "rect",
    "constrainProportions": false,
    "do_objectID": "00B6A746-2090-4299-BC4E-F0D74AAA9F9D",
    "height": 14,
    "width": 64,
    "x": 4,
    "y": 58
  },
  "glyphBounds": "{{5, 4}, {54, 10}}",
  "isFixedToViewport": false,
  "isFlippedHorizontal": false,
  "isFlippedVertical": false,
  "isLocked": false,
  "isVisible": true,
  "layerListExpandedType": 0,
  "lineSpacingBehaviour": 1,
  "name": "App name",
  "nameIsFixed": true,
  "originalObjectID": "35369623-8ADF-414D-B422-73C033289C95",
  "resizingConstraint": 63,
  "resizingType": 0,
  "rotation": 0,
  "shouldBreakMaskChain": false,
  "style": {
    "_class": "style",
    "do_objectID": "59CC3C53-A445-4345-8130-3F630BEA8AEF",
    "endMarkerType": 0,
    "miterLimit": 10,
    "sharedObjectID": "C82913A0-07A5-4A8E-BF73-90B941B0F47E",
    "startMarkerType": 0,
    "textStyle": {
      "_class": "textStyle",
      "do_objectID": "777B3192-456B-48BA-A7DF-2F6189F49EF0",
      "encodedAttributes": {
        "MSAttributedStringColorAttribute": {
          "_class": "color",
          "alpha": 1,
          "blue": 0.211764705882353,
          "green": 0.2627450980392158,
          "red": 0.9568627450980393
        },
        "MSAttributedStringFontAttribute": {
          "_class": "fontDescriptor",
          "attributes": {
            "name": "Roboto-Medium",
            "size": 12
          }
        },
        "kerning": 0.2,
        "paragraphStyle": {
          "_class": "paragraphStyle",
          "alignment": 2,
          "allowsDefaultTighteningForTruncation": 0,
          "maximumLineHeight": 14,
          "minimumLineHeight": 14
        }
      },
      "verticalAlignment": 0
    },
    "windingRule": 1
  },
  "textBehaviour": 1
}