{
  "_class": "symbolInstance",
  "booleanOperation": 0,
  "do_objectID": "D498B77A-AA7E-4273-B857-2F6E49E09F75",
  "exportOptions": {
    "_class": "exportOptions",
    "do_objectID": "4F71EF24-2AB3-485B-B56D-01A94381292B",
    "exportFormats": [
    ],
    "includedLayerIds": [
    ],
    "layerOptions": 0,
    "shouldTrim": false
  },
  "frame": {
    "_class": "rect",
    "constrainProportions": false,
    "do_objectID": "99C4D791-5329-46A6-A1F5-354C5353ED76",
    "height": 72,
    "width": 72,
    "x": 0,
    "y": 416
  },
  "horizontalSpacing": 0,
  "isFixedToViewport": false,
  "isFlippedHorizontal": false,
  "isFlippedVertical": false,
  "isLocked": false,
  "isVisible": true,
  "layerListExpandedType": 0,
  "name": "product-logo-button",
  "nameIsFixed": true,
  "originalObjectID": "4DA53197-7BA7-435C-8748-21FB1B337C7E",
  "overrideValues": [
    {
      "_class": "overrideValue",
      "do_objectID": "CA7138A1-6EAC-4BE4-836E-40E4ADC00AB3",
      "overrideName": "99C6F20F-6FD0-4B29-A680-02BF53BBCE4A_symbolID",
      "value": "1D29468E-9DF8-4AAA-A0A6-6B19861A88DB"
    },
    {
      "_class": "overrideValue",
      "do_objectID": "7FD25B00-CF73-4B76-8349-546848025C3A",
      "overrideName": "0EF1446D-9B73-46DE-8244-04FE9B72C822_stringValue",
      "value": "Документи"
    }
  ],
  "resizingConstraint": 63,
  "resizingType": 0,
  "rotation": 0,
  "scale": 1,
  "shouldBreakMaskChain": false,
  "style": {
    "_class": "style",
    "do_objectID": "E05ED334-8D20-4D29-8C11-4451A7FE664C",
    "endMarkerType": 0,
    "miterLimit": 10,
    "startMarkerType": 0,
    "windingRule": 1
  },
  "symbolID": "37967A6F-1DCA-4985-92F6-832A5B99E9F1",
  "verticalSpacing": 0
}