{
  "_class": "symbolInstance",
  "booleanOperation": 0,
  "do_objectID": "52F1A75B-DADC-4A35-BD0B-83BC26D57141",
  "exportOptions": {
    "_class": "exportOptions",
    "do_objectID": "0CA29686-B20A-404E-B11D-9EFAE97877BD",
    "exportFormats": [
    ],
    "includedLayerIds": [
    ],
    "layerOptions": 0,
    "shouldTrim": false
  },
  "frame": {
    "_class": "rect",
    "constrainProportions": true,
    "do_objectID": "62211AFF-77CC-42B1-8637-E5BF3C7CA6D2",
    "height": 16,
    "width": 16,
    "x": 117,
    "y": 19
  },
  "horizontalSpacing": 0,
  "isFixedToViewport": false,
  "isFlippedHorizontal": false,
  "isFlippedVertical": false,
  "isLocked": false,
  "isVisible": true,
  "layerListExpandedType": 0,
  "name": "Black/icon-inactive",
  "nameIsFixed": false,
  "overrideValues": [
  ],
  "resizingConstraint": 12,
  "resizingType": 0,
  "rotation": 0,
  "scale": 1,
  "shouldBreakMaskChain": false,
  "style": {
    "_class": "style",
    "do_objectID": "97EFB3A9-91C8-43D2-961A-C4AAFC9D07FF",
    "endMarkerType": 0,
    "miterLimit": 10,
    "startMarkerType": 0,
    "windingRule": 1
  },
  "symbolID": "23518F14-394B-4E06-85C6-4DA360118D62",
  "verticalSpacing": 0
}