{
  "_class": "shapePath",
  "booleanOperation": -1,
  "do_objectID": "EAB18991-8AB1-462F-8954-0C7D9049E4E0",
  "edited": true,
  "exportOptions": {
    "_class": "exportOptions",
    "do_objectID": "299B7948-0E38-4345-AC51-672556BE9C73",
    "exportFormats": [
    ],
    "includedLayerIds": [
    ],
    "layerOptions": 0,
    "shouldTrim": false
  },
  "frame": {
    "_class": "rect",
    "constrainProportions": false,
    "do_objectID": "18E4F2F3-10AB-463C-8040-D5E489449506",
    "height": 18,
    "width": 21,
    "x": 0,
    "y": 0
  },
  "isClosed": true,
  "isFixedToViewport": false,
  "isFlippedHorizontal": false,
  "isFlippedVertical": false,
  "isLocked": false,
  "isVisible": true,
  "layerListExpandedType": 0,
  "name": "Path",
  "nameIsFixed": false,
  "pointRadiusBehaviour": 0,
  "points": [
    {
      "_class": "curvePoint",
      "cornerRadius": 0,
      "curveFrom": "{0, 1}",
      "curveMode": 1,
      "curveTo": "{0, 1}",
      "hasCurveFrom": false,
      "hasCurveTo": false,
      "point": "{0, 1}"
    },
    {
      "_class": "curvePoint",
      "cornerRadius": 0,
      "curveFrom": "{1, 0.5}",
      "curveMode": 1,
      "curveTo": "{1, 0.5}",
      "hasCurveFrom": false,
      "hasCurveTo": false,
      "point": "{1, 0.5}"
    },
    {
      "_class": "curvePoint",
      "cornerRadius": 0,
      "curveFrom": "{0, 0}",
      "curveMode": 1,
      "curveTo": "{0, 0}",
      "hasCurveFrom": false,
      "hasCurveTo": false,
      "point": "{0, 0}"
    },
    {
      "_class": "curvePoint",
      "cornerRadius": 0,
      "curveFrom": "{0, 0.3888888888888889}",
      "curveMode": 1,
      "curveTo": "{0, 0.3888888888888889}",
      "hasCurveFrom": false,
      "hasCurveTo": false,
      "point": "{0, 0.3888888888888889}"
    },
    {
      "_class": "curvePoint",
      "cornerRadius": 0,
      "curveFrom": "{0.7142857142857143, 0.5}",
      "curveMode": 1,
      "curveTo": "{0.7142857142857143, 0.5}",
      "hasCurveFrom": false,
      "hasCurveTo": false,
      "point": "{0.7142857142857143, 0.5}"
    },
    {
      "_class": "curvePoint",
      "cornerRadius": 0,
      "curveFrom": "{0, 0.61111111111111116}",
      "curveMode": 1,
      "curveTo": "{0, 0.61111111111111116}",
      "hasCurveFrom": false,
      "hasCurveTo": false,
      "point": "{0, 0.61111111111111116}"
    }
  ],
  "resizingConstraint": 63,
  "resizingType": 0,
  "rotation": 0,
  "shouldBreakMaskChain": false
}