{
  "_class": "shapeGroup",
  "booleanOperation": 0,
  "clippingMaskMode": 0,
  "do_objectID": "404CCE26-C6AD-47ED-AC23-2912D62416E8",
  "exportOptions": {
    "_class": "exportOptions",
    "do_objectID": "828597CB-AF7D-4B9F-9285-7AA5B688B643",
    "exportFormats": [
    ],
    "includedLayerIds": [
    ],
    "layerOptions": 0,
    "shouldTrim": false
  },
  "frame": {
    "_class": "rect",
    "constrainProportions": false,
    "do_objectID": "21CC58B0-8E24-4DB9-B62F-DD86D2EC3699",
    "height": 48,
    "width": 48,
    "x": 0,
    "y": 0
  },
  "hasClickThrough": false,
  "hasClippingMask": false,
  "isFixedToViewport": false,
  "isFlippedHorizontal": false,
  "isFlippedVertical": false,
  "isLocked": false,
  "isVisible": true,
  "layerListExpandedType": 0,
  "layers": [
    {
      "class": "rectangle",
      "id": "CBC00031-519C-47FC-844E-D2341A19D8F3"
    }
  ],
  "name": "BG",
  "nameIsFixed": true,
  "originalObjectID": "F4ADA8F2-DEBC-4741-8A2D-7068D9307B0C",
  "resizingConstraint": 63,
  "resizingType": 0,
  "rotation": 0,
  "shouldBreakMaskChain": false,
  "style": {
    "_class": "style",
    "do_objectID": "15CAE158-0138-4265-A517-C9E3B0620246",
    "endMarkerType": 0,
    "fills": [
      {
        "_class": "fill",
        "color": {
          "_class": "color",
          "alpha": 1,
          "blue": 0.9568627450980391,
          "green": 0.6627450980392159,
          "red": 0.0117647058823529
        },
        "fillType": 0,
        "isEnabled": false,
        "noiseIndex": 0,
        "noiseIntensity": 0,
        "patternFillType": 1,
        "patternTileScale": 1
      }
    ],
    "miterLimit": 10,
    "startMarkerType": 0,
    "windingRule": 1
  },
  "windingRule": 1
}