{
  "_class": "group",
  "booleanOperation": 0,
  "do_objectID": "5A13D756-EE55-4291-861B-C107AE981F50",
  "exportOptions": {
    "_class": "exportOptions",
    "exportFormats": [
      {
        "_class": "exportFormat",
        "absoluteSize": 0,
        "fileFormat": "png",
        "name": "",
        "namingScheme": 0,
        "scale": 1,
        "visibleScaleType": 0
      }
    ],
    "includedLayerIds": [
    ],
    "layerOptions": 0,
    "shouldTrim": false
  },
  "frame": {
    "_class": "rect",
    "constrainProportions": false,
    "height": 48,
    "width": 48,
    "x": 0,
    "y": 0
  },
  "hasClickThrough": false,
  "isFixedToViewport": false,
  "isFlippedHorizontal": false,
  "isFlippedVertical": false,
  "isLocked": false,
  "isVisible": true,
  "layerListExpandedType": 1,
  "layers": [
    {
      "class": "shapeGroup",
      "id": "AA874E0C-5077-417E-8B6E-DE01047E2BC1"
    },
    {
      "class": "shapeGroup",
      "id": "E0911A3E-7D6C-4D77-9EB3-9E4C4C7D86AE"
    },
    {
      "class": "shapeGroup",
      "id": "82093AFC-8960-4B5B-93A3-A74B2DDDDA5D"
    },
    {
      "class": "shapeGroup",
      "id": "9D465437-A492-49D2-AAD7-4C929E820E79"
    },
    {
      "class": "shapeGroup",
      "id": "0066D8BD-E96F-4B2A-9EFA-36C2C659FF8D"
    },
    {
      "class": "shapeGroup",
      "id": "1CEFE9ED-8B86-4881-A5E8-1268C9F14100"
    }
  ],
  "name": "25h8/chat/product-icon/social/social-default",
  "nameIsFixed": true,
  "resizingConstraint": 63,
  "resizingType": 0,
  "rotation": 0,
  "shouldBreakMaskChain": false,
  "style": {
    "_class": "style",
    "endMarkerType": 0,
    "miterLimit": 10,
    "shadows": [
      {
        "_class": "shadow",
        "blurRadius": 4,
        "color": {
          "_class": "color",
          "alpha": 0.24,
          "blue": 0,
          "green": 0,
          "red": 0
        },
        "contextSettings": {
          "_class": "graphicsContextSettings",
          "blendMode": 0,
          "opacity": 1
        },
        "isEnabled": true,
        "offsetX": 0,
        "offsetY": 2,
        "spread": 0
      }
    ],
    "startMarkerType": 0,
    "windingRule": 1
  },
  "userInfo": {
    "com.animaapp.stc-sketch-plugin": {
      "kModelPropertiesKey": {
      }
    }
  }
}