{
  "_class": "shapePath",
  "booleanOperation": 0,
  "do_objectID": "0039E236-47E3-4948-824A-8908FF241483",
  "edited": true,
  "exportOptions": {
    "_class": "exportOptions",
    "exportFormats": [
    ],
    "includedLayerIds": [
    ],
    "layerOptions": 0,
    "shouldTrim": false
  },
  "frame": {
    "_class": "rect",
    "constrainProportions": false,
    "height": 1.206087111486482,
    "width": 1.204070945945947,
    "x": 5.025339847972646,
    "y": 3.41722972972974
  },
  "isClosed": true,
  "isFixedToViewport": false,
  "isFlippedHorizontal": false,
  "isFlippedVertical": false,
  "isLocked": false,
  "isVisible": true,
  "layerListExpandedType": 0,
  "name": "Path",
  "nameIsFixed": false,
  "pointRadiusBehaviour": 0,
  "points": [
    {
      "_class": "curvePoint",
      "cornerRadius": 0,
      "curveFrom": "{0.77746243739565968, 1}",
      "curveMode": 4,
      "curveTo": "{0.50083472454090161, 1}",
      "hasCurveFrom": true,
      "hasCurveTo": false,
      "point": "{0.50083472454090161, 1}"
    },
    {
      "_class": "curvePoint",
      "cornerRadius": 0,
      "curveFrom": "{1, 0.22399888000559984}",
      "curveMode": 2,
      "curveTo": "{1, 0.77599612001939988}",
      "hasCurveFrom": true,
      "hasCurveTo": true,
      "point": "{1, 0.49999750001249987}"
    },
    {
      "_class": "curvePoint",
      "cornerRadius": 0,
      "curveFrom": "{0.22420701168614363, 0}",
      "curveMode": 2,
      "curveTo": "{0.77746243739565968, 0}",
      "hasCurveFrom": true,
      "hasCurveTo": true,
      "point": "{0.50083472454090161, 0}"
    },
    {
      "_class": "curvePoint",
      "cornerRadius": 0,
      "curveFrom": "{0, 0.77599612001939988}",
      "curveMode": 2,
      "curveTo": "{0, 0.22399888000559984}",
      "hasCurveFrom": true,
      "hasCurveTo": true,
      "point": "{0, 0.49999750001249987}"
    },
    {
      "_class": "curvePoint",
      "cornerRadius": 0,
      "curveFrom": "{0.50083472454090161, 1}",
      "curveMode": 4,
      "curveTo": "{0.22420701168614363, 1}",
      "hasCurveFrom": false,
      "hasCurveTo": true,
      "point": "{0.50083472454090161, 1}"
    }
  ],
  "resizingConstraint": 63,
  "resizingType": 0,
  "rotation": 0,
  "shouldBreakMaskChain": false
}