{
  "_class": "symbolInstance",
  "booleanOperation": 0,
  "do_objectID": "43ADDD31-C35F-43FB-BAF7-B445C6DAE7E6",
  "exportOptions": {
    "_class": "exportOptions",
    "exportFormats": [
    ],
    "includedLayerIds": [
    ],
    "layerOptions": 0,
    "shouldTrim": false
  },
  "frame": {
    "_class": "rect",
    "constrainProportions": false,
    "height": 48,
    "width": 304,
    "x": 0,
    "y": 160
  },
  "horizontalSpacing": 0,
  "isFixedToViewport": false,
  "isFlippedHorizontal": false,
  "isFlippedVertical": false,
  "isLocked": false,
  "isVisible": true,
  "layerListExpandedType": 0,
  "name": "25h8/chat/speed-dial/speed-dial-menu-item-inactive",
  "nameIsFixed": false,
  "overrideValues": [
    {
      "_class": "overrideValue",
      "do_objectID": "E55A12BD-62C6-4089-A560-3BE9B32569CA",
      "overrideName": "667554BA-0B22-4EE3-83F5-BDC7C3BD8C94_symbolID",
      "value": "32204123-10F9-4DF8-8C24-C15D8492FFD3"
    }
  ],
  "resizingConstraint": 63,
  "resizingType": 0,
  "rotation": 0,
  "scale": 1,
  "shouldBreakMaskChain": false,
  "style": {
    "_class": "style",
    "endMarkerType": 0,
    "miterLimit": 10,
    "startMarkerType": 0,
    "windingRule": 1
  },
  "symbolID": "0EE4DE14-7E59-426C-8396-695A5FB8CCB0",
  "verticalSpacing": 0
}