{
  "_class": "group",
  "booleanOperation": 0,
  "do_objectID": "BEDC26D0-B542-4CEC-879C-85988549BEE1",
  "exportOptions": {
    "_class": "exportOptions",
    "exportFormats": [
    ],
    "includedLayerIds": [
    ],
    "layerOptions": 0,
    "shouldTrim": false
  },
  "frame": {
    "_class": "rect",
    "constrainProportions": false,
    "height": 48,
    "width": 320,
    "x": 0,
    "y": 649
  },
  "hasClickThrough": false,
  "isFixedToViewport": false,
  "isFlippedHorizontal": false,
  "isFlippedVertical": false,
  "isLocked": false,
  "isVisible": true,
  "layerListExpandedType": 0,
  "layers": [
    {
      "class": "shapeGroup",
      "id": "C0098898-5322-44A7-BA27-524A4769F162"
    },
    {
      "class": "text",
      "id": "E7C520EB-F9CD-4147-A55B-32FBEF56AC95"
    },
    {
      "class": "symbolInstance",
      "id": "5AFDC679-F256-4E61-9CD8-0783FF787044"
    }
  ],
  "name": "Material/Desktop/Light them Cyan 500/ Buttom button/normal",
  "nameIsFixed": true,
  "resizingConstraint": 63,
  "resizingType": 0,
  "rotation": 0,
  "shouldBreakMaskChain": false,
  "style": {
    "_class": "style",
    "endMarkerType": 0,
    "miterLimit": 10,
    "startMarkerType": 0,
    "windingRule": 1
  }
}