{
  "_class": "group",
  "booleanOperation": 0,
  "do_objectID": "7F175DF8-10A3-472A-8620-1306E5455C60",
  "exportOptions": {
    "_class": "exportOptions",
    "exportFormats": [
    ],
    "includedLayerIds": [
    ],
    "layerOptions": 0,
    "shouldTrim": false
  },
  "frame": {
    "_class": "rect",
    "constrainProportions": false,
    "height": 48,
    "width": 48,
    "x": 0,
    "y": 0
  },
  "hasClickThrough": false,
  "isFixedToViewport": false,
  "isFlippedHorizontal": false,
  "isFlippedVertical": false,
  "isLocked": false,
  "isVisible": true,
  "layerListExpandedType": 0,
  "layers": [
    {
      "class": "shapeGroup",
      "id": "A133C7FF-D8C8-4710-9BEB-3A16210A2FF0"
    },
    {
      "class": "shapeGroup",
      "id": "34DFCB6A-ECED-4599-A06F-504A82C79F09"
    },
    {
      "class": "shapeGroup",
      "id": "5671758B-A0E8-4CA3-8483-0F7B57689D84"
    },
    {
      "class": "shapeGroup",
      "id": "ABC31E17-3967-46E8-8162-F0D13F4DF2FF"
    },
    {
      "class": "shapeGroup",
      "id": "D9B07892-4757-4979-8759-9B59D78CFFAB"
    },
    {
      "class": "shapeGroup",
      "id": "CAD9AE2E-775B-488D-9905-EA037D996986"
    },
    {
      "class": "shapeGroup",
      "id": "C3873699-F1CD-4E21-9186-D9885EE94D09"
    }
  ],
  "name": "25h8/chat/product-icon/profile/profile-default",
  "nameIsFixed": true,
  "resizingConstraint": 63,
  "resizingType": 0,
  "rotation": 0,
  "shouldBreakMaskChain": false,
  "style": {
    "_class": "style",
    "endMarkerType": 0,
    "miterLimit": 10,
    "shadows": [
      {
        "_class": "shadow",
        "blurRadius": 4,
        "color": {
          "_class": "color",
          "alpha": 0.24,
          "blue": 0,
          "green": 0,
          "red": 0
        },
        "contextSettings": {
          "_class": "graphicsContextSettings",
          "blendMode": 0,
          "opacity": 1
        },
        "isEnabled": true,
        "offsetX": 0,
        "offsetY": 2,
        "spread": 0
      }
    ],
    "startMarkerType": 0,
    "windingRule": 1
  }
}