{
  "_class": "symbolInstance",
  "booleanOperation": 0,
  "do_objectID": "A02764FF-AD63-4993-8286-F11D3934857E",
  "exportOptions": {
    "_class": "exportOptions",
    "do_objectID": "F7790493-3DD4-4840-902B-62BDD646B9CE",
    "exportFormats": [
    ],
    "includedLayerIds": [
    ],
    "layerOptions": 0,
    "shouldTrim": false
  },
  "frame": {
    "_class": "rect",
    "constrainProportions": false,
    "do_objectID": "8A381937-8989-41FC-A49B-1B412A92B08F",
    "height": 40,
    "width": 40,
    "x": 4,
    "y": 4
  },
  "horizontalSpacing": 0,
  "isFixedToViewport": false,
  "isFlippedHorizontal": false,
  "isFlippedVertical": false,
  "isLocked": false,
  "isVisible": true,
  "layerListExpandedType": 0,
  "name": "Material/Icons/Black/Active/person",
  "nameIsFixed": false,
  "overrideValues": [
  ],
  "resizingConstraint": 63,
  "resizingType": 0,
  "rotation": 0,
  "scale": 1,
  "shouldBreakMaskChain": false,
  "style": {
    "_class": "style",
    "do_objectID": "9F95D91A-308E-400A-BB64-1164171343B1",
    "endMarkerType": 0,
    "miterLimit": 10,
    "startMarkerType": 0,
    "windingRule": 1
  },
  "symbolID": "8ADEEDD3-A54E-48D1-A117-054A4415927B",
  "verticalSpacing": 0
}