{
  "_class": "symbolMaster",
  "backgroundColor": {
    "_class": "color",
    "alpha": 1,
    "blue": 1,
    "do_objectID": "C5C5D1A5-66C8-428B-A5AF-413B14AAFBA6",
    "green": 1,
    "red": 1
  },
  "booleanOperation": 0,
  "changeIdentifier": 1869,
  "do_objectID": "208EDD8C-B699-464B-95A9-93912AF6FF72",
  "exportOptions": {
    "_class": "exportOptions",
    "do_objectID": "A4BED89C-38EC-47B6-A201-2C90DEA1A51D",
    "exportFormats": [
    ],
    "includedLayerIds": [
    ],
    "layerOptions": 0,
    "shouldTrim": false
  },
  "frame": {
    "_class": "rect",
    "constrainProportions": false,
    "do_objectID": "95ACE017-01EB-4BF0-A229-3AA257BCD8B2",
    "height": 48,
    "width": 320,
    "x": -258,
    "y": 244
  },
  "hasBackgroundColor": false,
  "hasClickThrough": true,
  "horizontalRulerData": {
    "_class": "rulerData",
    "base": 0,
    "do_objectID": "DD5A0F32-C9A2-467D-89A6-1CEBA112005C",
    "guides": [
    ]
  },
  "includeBackgroundColorInExport": true,
  "includeBackgroundColorInInstance": false,
  "includeInCloudUpload": true,
  "isFixedToViewport": false,
  "isFlippedHorizontal": false,
  "isFlippedVertical": false,
  "isFlowHome": false,
  "isLocked": false,
  "isVisible": true,
  "layerListExpandedType": 0,
  "layers": [
    {
      "class": "group",
      "id": "6E949EBA-147E-43F9-B0A0-D3C04F2531C9"
    },
    {
      "class": "shapeGroup",
      "id": "854A4127-5ECA-417F-80D1-71EC758B7B3F"
    }
  ],
  "name": "25h8/chat/mat-sidenav-content/mat-sidenav-component/mat-expension-panel-header-close",
  "nameIsFixed": true,
  "resizesContent": false,
  "resizingConstraint": 63,
  "resizingType": 0,
  "rotation": 0,
  "shouldBreakMaskChain": true,
  "style": {
    "_class": "style",
    "do_objectID": "C0533D73-8556-48C8-9708-0614B481580C",
    "endMarkerType": 0,
    "miterLimit": 10,
    "startMarkerType": 0,
    "windingRule": 1
  },
  "symbolID": "9590D2A0-0633-4A33-84C6-480DA5032CEA",
  "verticalRulerData": {
    "_class": "rulerData",
    "base": 0,
    "do_objectID": "B783978C-BAA5-4336-AF3E-212E1EDE920D",
    "guides": [
    ]
  }
}