{
  "_class": "group",
  "booleanOperation": 0,
  "do_objectID": "51DB150A-96E2-47E5-A00A-34BA75AF3678",
  "exportOptions": {
    "_class": "exportOptions",
    "do_objectID": "749E83E4-FE61-4DF4-8B55-EDAB117FDB24",
    "exportFormats": [
    ],
    "includedLayerIds": [
    ],
    "layerOptions": 0,
    "shouldTrim": false
  },
  "frame": {
    "_class": "rect",
    "constrainProportions": false,
    "do_objectID": "85C37BA6-D229-416C-9931-E61E8243B799",
    "height": 64,
    "width": 768,
    "x": 0,
    "y": 0
  },
  "hasClickThrough": false,
  "isFixedToViewport": false,
  "isFlippedHorizontal": false,
  "isFlippedVertical": false,
  "isLocked": false,
  "isVisible": true,
  "layerListExpandedType": 0,
  "layers": [
    {
      "class": "shapeGroup",
      "id": "1DF46900-0CCB-491A-8D68-CFBFF52CDDE8"
    },
    {
      "class": "symbolInstance",
      "id": "0CA2EBA9-0840-4565-B21A-35A9A6685891"
    },
    {
      "class": "symbolInstance",
      "id": "323DFD46-6296-4FD1-A814-12E444F2F08E"
    },
    {
      "class": "symbolInstance",
      "id": "21E6F696-9B07-4661-B5D0-8BC34FC5F88A"
    }
  ],
  "name": "25h8/chat/mat-toolbar/mat-toolbar-default-320",
  "nameIsFixed": true,
  "resizingConstraint": 63,
  "resizingType": 0,
  "rotation": 0,
  "shouldBreakMaskChain": false,
  "style": {
    "_class": "style",
    "do_objectID": "B0D592C9-C82C-40EC-AFD0-FD5A3BFC1316",
    "endMarkerType": 0,
    "miterLimit": 10,
    "startMarkerType": 0,
    "windingRule": 1
  }
}