{
  "_class": "symbolMaster",
  "backgroundColor": {
    "_class": "color",
    "alpha": 1,
    "blue": 1,
    "do_objectID": "CE6D9FEE-D23A-4C5B-BC7C-C6F6755BD47F",
    "green": 1,
    "red": 1
  },
  "booleanOperation": 0,
  "changeIdentifier": 5924,
  "do_objectID": "3DDC2411-4DD8-4023-BAD4-2A8100751BDE",
  "exportOptions": {
    "_class": "exportOptions",
    "do_objectID": "F8706F8F-4007-4ECF-82DB-F51FD9FD4595",
    "exportFormats": [
    ],
    "includedLayerIds": [
    ],
    "layerOptions": 0,
    "shouldTrim": false
  },
  "frame": {
    "_class": "rect",
    "constrainProportions": false,
    "do_objectID": "B022CAF7-75DF-4E4B-8340-5956ECEE1D96",
    "height": 72,
    "width": 72,
    "x": -1560,
    "y": 3374
  },
  "hasBackgroundColor": false,
  "hasClickThrough": true,
  "horizontalRulerData": {
    "_class": "rulerData",
    "base": 0,
    "do_objectID": "32AA0750-6B32-4ECE-89E4-E8604D78DD7D",
    "guides": [
    ]
  },
  "includeBackgroundColorInExport": true,
  "includeBackgroundColorInInstance": false,
  "includeInCloudUpload": true,
  "isFixedToViewport": false,
  "isFlippedHorizontal": false,
  "isFlippedVertical": false,
  "isFlowHome": false,
  "isLocked": false,
  "isVisible": true,
  "layerListExpandedType": 2,
  "layers": [
    {
      "class": "shapeGroup",
      "id": "A9F8BCCA-BA9F-422C-AD2D-EF5C57D2A086"
    },
    {
      "class": "text",
      "id": "0AD650F9-819F-4BB2-8E1D-0E276074D254"
    },
    {
      "class": "group",
      "id": "C12CA469-6E7B-4EBD-BBC5-956E3A140305"
    }
  ],
  "name": "25h8/chat/product-icon-name/prozorro/prozorro-default",
  "nameIsFixed": true,
  "originalObjectID": "4DA53197-7BA7-435C-8748-21FB1B337C7E",
  "resizesContent": false,
  "resizingConstraint": 63,
  "resizingType": 0,
  "rotation": 0,
  "shouldBreakMaskChain": true,
  "style": {
    "_class": "style",
    "do_objectID": "3EDA0656-202E-4628-ACEF-B42916ACED91",
    "endMarkerType": 0,
    "miterLimit": 10,
    "startMarkerType": 0,
    "windingRule": 1
  },
  "symbolID": "6EDD02CB-0932-48DD-B2CC-4D7F24F69B32",
  "verticalRulerData": {
    "_class": "rulerData",
    "base": 0,
    "do_objectID": "8CC25DF8-0FD9-4D1E-BBA8-D3E7769032FC",
    "guides": [
    ]
  }
}