{
  "_class": "symbolMaster",
  "backgroundColor": {
    "_class": "color",
    "alpha": 1,
    "blue": 1,
    "do_objectID": "9AAD92F5-2F84-49D3-A25A-FD338A992C66",
    "green": 1,
    "red": 1
  },
  "booleanOperation": 0,
  "changeIdentifier": 334,
  "do_objectID": "A77B667A-85CC-4ED3-BBA7-8DB691589C9A",
  "exportOptions": {
    "_class": "exportOptions",
    "do_objectID": "DA7D06FB-51F8-42F8-8B18-7376CAB4B4CB",
    "exportFormats": [
      {
        "_class": "exportFormat",
        "absoluteSize": 0,
        "fileFormat": "svg",
        "name": "",
        "namingScheme": 0,
        "scale": 1,
        "visibleScaleType": 0
      }
    ],
    "includedLayerIds": [
    ],
    "layerOptions": 0,
    "shouldTrim": false
  },
  "frame": {
    "_class": "rect",
    "constrainProportions": false,
    "do_objectID": "EBA0BE46-0973-4DA1-8774-B4DB71CE725A",
    "height": 24,
    "width": 24,
    "x": 8404,
    "y": -2294
  },
  "hasBackgroundColor": false,
  "hasClickThrough": true,
  "horizontalRulerData": {
    "_class": "rulerData",
    "base": 0,
    "do_objectID": "DCB1B740-6408-4524-AD94-8B14E5DE2B33",
    "guides": [
    ]
  },
  "includeBackgroundColorInExport": true,
  "includeBackgroundColorInInstance": false,
  "includeInCloudUpload": true,
  "isFixedToViewport": false,
  "isFlippedHorizontal": false,
  "isFlippedVertical": false,
  "isFlowHome": false,
  "isLocked": false,
  "isVisible": true,
  "layerListExpandedType": 2,
  "layers": [
    {
      "class": "shapeGroup",
      "id": "5D4FDB8C-1AE4-4E68-A973-CE53C5511254"
    }
  ],
  "name": "25h8/chat/mat-icon-button/add/add-inactive",
  "nameIsFixed": true,
  "resizesContent": false,
  "resizingConstraint": 63,
  "resizingType": 0,
  "rotation": 0,
  "shouldBreakMaskChain": true,
  "style": {
    "_class": "style",
    "do_objectID": "08A76100-CD14-4632-897A-C354E2F7CCAA",
    "endMarkerType": 0,
    "miterLimit": 10,
    "startMarkerType": 0,
    "windingRule": 1
  },
  "symbolID": "7E450114-4984-44B7-9D6B-D31A3F376FDE",
  "verticalRulerData": {
    "_class": "rulerData",
    "base": 0,
    "do_objectID": "4E0583FC-03C5-4C09-99DE-FBA6CD4260A5",
    "guides": [
    ]
  }
}