{
  "_class": "group",
  "booleanOperation": 0,
  "do_objectID": "2C3F9117-163E-4F3F-9D8B-5E446B70DCDB",
  "exportOptions": {
    "_class": "exportOptions",
    "do_objectID": "62C8CB57-0BA5-4875-87BD-107CE3220A1F",
    "exportFormats": [
    ],
    "includedLayerIds": [
    ],
    "layerOptions": 0,
    "shouldTrim": false
  },
  "frame": {
    "_class": "rect",
    "constrainProportions": false,
    "do_objectID": "ED84469E-56E8-4F42-AE52-60BDF986A4CD",
    "height": 36,
    "width": 276,
    "x": 0,
    "y": 158
  },
  "hasClickThrough": false,
  "isFixedToViewport": false,
  "isFlippedHorizontal": false,
  "isFlippedVertical": false,
  "isLocked": false,
  "isVisible": true,
  "layerListExpandedType": 2,
  "layers": [
    {
      "class": "shapeGroup",
      "id": "3B821895-46F1-4C4E-B637-76355EF7382C"
    },
    {
      "class": "text",
      "id": "A66C958E-C0CC-45D1-B7AD-09BD49FD7FBD"
    }
  ],
  "name": "Dense two-line list with double avatar/normal",
  "nameIsFixed": true,
  "resizingConstraint": 63,
  "resizingType": 0,
  "rotation": 0,
  "shouldBreakMaskChain": false,
  "style": {
    "_class": "style",
    "do_objectID": "8AFF7964-E507-4E51-9F22-934C28CB953E",
    "endMarkerType": 0,
    "miterLimit": 10,
    "startMarkerType": 0,
    "windingRule": 1
  },
  "userInfo": {
    "com.animaapp.stc-sketch-plugin": {
      "kModelPropertiesKey": {
      }
    }
  }
}