{
  "_class": "shapeGroup",
  "booleanOperation": 0,
  "clippingMaskMode": 0,
  "do_objectID": "A928CEEE-8250-4AB3-A104-15518CABC904",
  "exportOptions": {
    "_class": "exportOptions",
    "do_objectID": "7E702B0B-3A60-4709-B6A2-262E5ECFE73C",
    "exportFormats": [
    ],
    "includedLayerIds": [
    ],
    "layerOptions": 0,
    "shouldTrim": false
  },
  "frame": {
    "_class": "rect",
    "constrainProportions": false,
    "do_objectID": "21D1F624-852E-428C-9DA9-6E61D35A5F63",
    "height": 20,
    "width": 20,
    "x": 10,
    "y": 10
  },
  "hasClickThrough": false,
  "hasClippingMask": false,
  "isFixedToViewport": false,
  "isFlippedHorizontal": false,
  "isFlippedVertical": false,
  "isLocked": false,
  "isVisible": true,
  "layerListExpandedType": 1,
  "layers": [
    {
      "class": "shapePath",
      "id": "93F03353-BE31-4A77-855F-CE4BFBA060DD"
    },
    {
      "class": "shapePath",
      "id": "08A403BF-6996-4502-877D-2867EA598647"
    },
    {
      "class": "shapePath",
      "id": "632C4992-59E6-4804-8559-933E7AFC542B"
    },
    {
      "class": "oval",
      "id": "4435777F-F580-4B79-9E45-66C14C2501F6"
    },
    {
      "class": "oval",
      "id": "1D25EE81-29A5-4263-AC58-EA07E90F9891"
    }
  ],
  "name": "Shape",
  "nameIsFixed": false,
  "resizingConstraint": 63,
  "resizingType": 0,
  "rotation": 0,
  "shouldBreakMaskChain": false,
  "style": {
    "_class": "style",
    "do_objectID": "514A0C40-AF21-4832-BCA0-FA27F407755B",
    "endMarkerType": 0,
    "fills": [
      {
        "_class": "fill",
        "color": {
          "_class": "color",
          "alpha": 0.54,
          "blue": 0,
          "green": 0,
          "red": 0
        },
        "fillType": 0,
        "isEnabled": true,
        "noiseIndex": 0,
        "noiseIntensity": 0,
        "patternFillType": 1,
        "patternTileScale": 1
      }
    ],
    "miterLimit": 10,
    "startMarkerType": 0,
    "windingRule": 0
  },
  "windingRule": 0
}