{
  "_class": "shapePath",
  "booleanOperation": -1,
  "do_objectID": "F051BCB3-20BB-4665-A4B2-37B7484621D7",
  "edited": true,
  "exportOptions": {
    "_class": "exportOptions",
    "do_objectID": "795431B5-E71A-41D0-891C-2BAE6D5D6BDF",
    "exportFormats": [
    ],
    "includedLayerIds": [
    ],
    "layerOptions": 0,
    "shouldTrim": false
  },
  "frame": {
    "_class": "rect",
    "constrainProportions": false,
    "do_objectID": "8FB4C7F4-16A2-498D-A4AD-7F0A540B46A6",
    "height": 13.99999916,
    "width": 11.99999928,
    "x": 0,
    "y": 0
  },
  "isClosed": true,
  "isFixedToViewport": false,
  "isFlippedHorizontal": false,
  "isFlippedVertical": false,
  "isLocked": false,
  "isVisible": true,
  "layerListExpandedType": 0,
  "name": "Path",
  "nameIsFixed": false,
  "pointRadiusBehaviour": 0,
  "points": [
    {
      "_class": "curvePoint",
      "cornerRadius": 0,
      "curveFrom": "{1, 0.38928570000000007}",
      "curveMode": 4,
      "curveTo": "{1, 0.42857142857142849}",
      "hasCurveFrom": true,
      "hasCurveTo": false,
      "point": "{1, 0.42857142857142849}"
    },
    {
      "_class": "curvePoint",
      "cornerRadius": 0,
      "curveFrom": "{0.91666666666666663, 0.35714285714285715}",
      "curveMode": 4,
      "curveTo": "{0.96250000833333327, 0.35714285714285715}",
      "hasCurveFrom": false,
      "hasCurveTo": true,
      "point": "{0.91666666666666663, 0.35714285714285715}"
    },
    {
      "_class": "curvePoint",
      "cornerRadius": 0,
      "curveFrom": "{0.48500001416666666, 0.35714285714285715}",
      "curveMode": 1,
      "curveTo": "{0.48500001416666666, 0.35714285714285715}",
      "hasCurveFrom": false,
      "hasCurveTo": false,
      "point": "{0.48500001416666666, 0.35714285714285715}"
    },
    {
      "_class": "curvePoint",
      "cornerRadius": 0,
      "curveFrom": "{0.54000000083333333, 0.12999999499999992}",
      "curveMode": 1,
      "curveTo": "{0.54000000083333333, 0.12999999499999992}",
      "hasCurveFrom": false,
      "hasCurveTo": false,
      "point": "{0.54000000083333333, 0.12999999499999992}"
    },
    {
      "_class": "curvePoint",
      "cornerRadius": 0,
      "curveFrom": "{0.54166666666666663, 0.09142856928571437}",
      "curveMode": 4,
      "curveTo": "{0.54166666666666663, 0.11357142214285718}",
      "hasCurveFrom": true,
      "hasCurveTo": false,
      "point": "{0.54166666666666663, 0.11357142214285718}"
    },
    {
      "_class": "curvePoint",
      "cornerRadius": 0,
      "curveFrom": "{0.51416667250000003, 0.056428564428571359}",
      "curveMode": 4,
      "curveTo": "{0.53083332333333333, 0.071428562857142802}",
      "hasCurveFrom": false,
      "hasCurveTo": true,
      "point": "{0.51416667250000003, 0.056428564428571359}"
    },
    {
      "_class": "curvePoint",
      "cornerRadius": 0,
      "curveFrom": "{0.44833334250000001, 0}",
      "curveMode": 1,
      "curveTo": "{0.44833334250000001, 0}",
      "hasCurveFrom": false,
      "hasCurveTo": false,
      "point": "{0.44833334250000001, 0}"
    },
    {
      "_class": "curvePoint",
      "cornerRadius": 0,
      "curveFrom": "{0.014166668, 0.37214285928571433}",
      "curveMode": 4,
      "curveTo": "{0.036666666416666667, 0.35285714642857158}",
      "hasCurveFrom": true,
      "hasCurveTo": false,
      "point": "{0.036666666416666667, 0.35285714642857158}"
    },
    {
      "_class": "curvePoint",
      "cornerRadius": 0,
      "curveFrom": "{0, 0.42857142857142849}",
      "curveMode": 4,
      "curveTo": "{0, 0.39928572500000004}",
      "hasCurveFrom": false,
      "hasCurveTo": true,
      "point": "{0, 0.42857142857142849}"
    },
    {
      "_class": "curvePoint",
      "cornerRadius": 0,
      "curveFrom": "{0, 0.9521428500000001}",
      "curveMode": 4,
      "curveTo": "{0, 0.8928571428571429}",
      "hasCurveFrom": true,
      "hasCurveTo": false,
      "point": "{0, 0.8928571428571429}"
    },
    {
      "_class": "curvePoint",
      "cornerRadius": 0,
      "curveFrom": "{0.125, 1}",
      "curveMode": 4,
      "curveTo": "{0.055833334666666672, 1}",
      "hasCurveFrom": false,
      "hasCurveTo": true,
      "point": "{0.125, 1}"
    },
    {
      "_class": "curvePoint",
      "cornerRadius": 0,
      "curveFrom": "{0.73916665666666659, 1}",
      "curveMode": 4,
      "curveTo": "{0.68749999999999989, 1}",
      "hasCurveFrom": true,
      "hasCurveTo": false,
      "point": "{0.68749999999999989, 1}"
    },
    {
      "_class": "curvePoint",
      "cornerRadius": 0,
      "curveFrom": "{0.80250000916666653, 0.93500000714285703}",
      "curveMode": 4,
      "curveTo": "{0.78333330083333341, 0.97285712857142859}",
      "hasCurveFrom": false,
      "hasCurveTo": true,
      "point": "{0.80250000916666653, 0.93500000714285703}"
    },
    {
      "_class": "curvePoint",
      "cornerRadius": 0,
      "curveFrom": "{0.9966666666666667, 0.54500000785714275}",
      "curveMode": 4,
      "curveTo": "{0.9908333583333333, 0.5571428707142857}",
      "hasCurveFrom": true,
      "hasCurveTo": false,
      "point": "{0.9908333583333333, 0.5571428707142857}"
    },
    {
      "_class": "curvePoint",
      "cornerRadius": 0,
      "curveFrom": "{1, 0.51785714285714279}",
      "curveMode": 4,
      "curveTo": "{1, 0.53142857499999996}",
      "hasCurveFrom": false,
      "hasCurveTo": true,
      "point": "{1, 0.51785714285714279}"
    }
  ],
  "resizingConstraint": 63,
  "resizingType": 0,
  "rotation": 0,
  "shouldBreakMaskChain": false
}