{
  "_class": "symbolInstance",
  "booleanOperation": -1,
  "do_objectID": "2633563E-D84B-4E39-89A9-2821F63B1A21",
  "exportOptions": {
    "_class": "exportOptions",
    "do_objectID": "92F1EA4A-4CD1-44C7-8583-919891E5B0F1",
    "exportFormats": [
    ],
    "includedLayerIds": [
    ],
    "layerOptions": 0,
    "shouldTrim": false
  },
  "frame": {
    "_class": "rect",
    "constrainProportions": false,
    "do_objectID": "33B066FA-4C3F-4321-B506-90DFDE6EEFFE",
    "height": 80,
    "width": 320,
    "x": 288,
    "y": 688
  },
  "horizontalSpacing": 0,
  "isFixedToViewport": false,
  "isFlippedHorizontal": false,
  "isFlippedVertical": false,
  "isLocked": false,
  "isVisible": true,
  "layerListExpandedType": 0,
  "name": "25h8/Chat/Chat List/Inactive/Long Title/chat-list-item+entity",
  "nameIsFixed": false,
  "overrideValues": [
  ],
  "resizingConstraint": 63,
  "resizingType": 0,
  "rotation": 0,
  "scale": 1,
  "shouldBreakMaskChain": false,
  "style": {
    "_class": "style",
    "do_objectID": "AC89DAE3-34B3-426A-AFC3-03D7B46A1A6D",
    "endMarkerType": 0,
    "miterLimit": 10,
    "startMarkerType": 0,
    "windingRule": 1
  },
  "symbolID": "2C1CE1F6-D0F5-4AFB-868F-DBD3EDA620D3",
  "verticalSpacing": 0
}