{
  "_class": "symbolInstance",
  "booleanOperation": -1,
  "do_objectID": "882CCAEC-7BD4-4C4B-9F7E-F415F5D12E42",
  "exportOptions": {
    "_class": "exportOptions",
    "do_objectID": "731C25E1-63D1-417B-B8CA-A4F58E0F349A",
    "exportFormats": [
    ],
    "includedLayerIds": [
    ],
    "layerOptions": 0,
    "shouldTrim": false
  },
  "frame": {
    "_class": "rect",
    "constrainProportions": false,
    "do_objectID": "BE52605A-CC50-4523-9D2D-E736BEA744B0",
    "height": 80,
    "width": 320,
    "x": 288,
    "y": 1088
  },
  "horizontalSpacing": 0,
  "isFixedToViewport": false,
  "isFlippedHorizontal": false,
  "isFlippedVertical": false,
  "isLocked": false,
  "isVisible": true,
  "layerListExpandedType": 0,
  "name": "25h8/Chat/Chat List/Inactive/Short Title/chat-list-item+entity+state-icon",
  "nameIsFixed": false,
  "overrideValues": [
  ],
  "resizingConstraint": 63,
  "resizingType": 0,
  "rotation": 0,
  "scale": 1,
  "shouldBreakMaskChain": false,
  "style": {
    "_class": "style",
    "do_objectID": "CDD4B335-C1AB-4A17-9CFE-9D8A2D74A087",
    "endMarkerType": 0,
    "miterLimit": 10,
    "startMarkerType": 0,
    "windingRule": 1
  },
  "symbolID": "CD458EEE-7A54-4E1E-B988-CED030987949",
  "verticalSpacing": 0
}