{
  "_class": "group",
  "booleanOperation": 0,
  "do_objectID": "D602120C-6808-43D2-B0D9-F378D17C81B2",
  "exportOptions": {
    "_class": "exportOptions",
    "do_objectID": "20BBF061-E958-4671-A959-DA0DF49F3B6C",
    "exportFormats": [
    ],
    "includedLayerIds": [
    ],
    "layerOptions": 0,
    "shouldTrim": false
  },
  "frame": {
    "_class": "rect",
    "constrainProportions": false,
    "do_objectID": "566A7FDC-ECE5-4BDB-AECF-E0430C1E605B",
    "height": 24,
    "width": 63,
    "x": 48,
    "y": 8
  },
  "hasClickThrough": false,
  "isFixedToViewport": false,
  "isFlippedHorizontal": false,
  "isFlippedVertical": false,
  "isLocked": false,
  "isVisible": true,
  "layerListExpandedType": 0,
  "layers": [
    {
      "class": "group",
      "id": "AE01DCE6-B7A0-4A52-A983-C777481A5DB5"
    }
  ],
  "name": "files",
  "nameIsFixed": true,
  "resizingConstraint": 63,
  "resizingType": 0,
  "rotation": 0,
  "shouldBreakMaskChain": false,
  "style": {
    "_class": "style",
    "do_objectID": "456D9C07-81FD-4818-BEBF-1BB3E4370D00",
    "endMarkerType": 0,
    "miterLimit": 10,
    "startMarkerType": 0,
    "windingRule": 1
  },
  "userInfo": {
    "com.animaapp.stc-sketch-plugin": {
      "kModelPropertiesKey": {
      }
    }
  }
}