{
  "_class": "group",
  "booleanOperation": 0,
  "do_objectID": "92A5F53E-2AC8-41BC-AB0F-446DA3B3DC53",
  "exportOptions": {
    "_class": "exportOptions",
    "do_objectID": "15F9D056-02F9-4933-ACD1-84C25AAE2352",
    "exportFormats": [
    ],
    "includedLayerIds": [
    ],
    "layerOptions": 0,
    "shouldTrim": false
  },
  "frame": {
    "_class": "rect",
    "constrainProportions": false,
    "do_objectID": "987D8FAC-914A-458E-A4EF-BB7143614116",
    "height": 48,
    "width": 100,
    "x": 499,
    "y": 0
  },
  "hasClickThrough": false,
  "isFixedToViewport": false,
  "isFlippedHorizontal": false,
  "isFlippedVertical": false,
  "isLocked": false,
  "isVisible": true,
  "layerListExpandedType": 1,
  "layers": [
    {
      "class": "shapeGroup",
      "id": "A8611649-C2EE-496F-BA0B-95D1C23A4C56"
    },
    {
      "class": "text",
      "id": "F9D066A9-540C-4815-8FE4-6A4412A913D8"
    }
  ],
  "name": "tab",
  "nameIsFixed": true,
  "resizingConstraint": 63,
  "resizingType": 0,
  "rotation": 0,
  "shouldBreakMaskChain": false,
  "style": {
    "_class": "style",
    "do_objectID": "E8E6656B-1602-4B91-9980-32E02B35A51D",
    "endMarkerType": 0,
    "miterLimit": 10,
    "startMarkerType": 0,
    "windingRule": 1
  },
  "userInfo": {
    "com.animaapp.stc-sketch-plugin": {
      "kModelPropertiesKey": {
      }
    }
  }
}