{
  "_class": "group",
  "booleanOperation": 0,
  "do_objectID": "D47486C5-65AD-4245-8E3B-AA2F4AE75A1F",
  "exportOptions": {
    "_class": "exportOptions",
    "do_objectID": "4683530A-5685-4C0A-BD81-391679FCACAD",
    "exportFormats": [
    ],
    "includedLayerIds": [
    ],
    "layerOptions": 0,
    "shouldTrim": false
  },
  "frame": {
    "_class": "rect",
    "constrainProportions": false,
    "do_objectID": "4D749C85-F9BE-4E45-A7D1-3E65F1EDAEBF",
    "height": 48,
    "width": 87,
    "x": 225,
    "y": 44
  },
  "hasClickThrough": false,
  "isFixedToViewport": false,
  "isFlippedHorizontal": false,
  "isFlippedVertical": false,
  "isLocked": false,
  "isVisible": true,
  "layerListExpandedType": 0,
  "layers": [
    {
      "class": "shapeGroup",
      "id": "15B972FC-B8C7-4DC2-8613-DF0DE1A4AFDB"
    },
    {
      "class": "text",
      "id": "047A3911-26BC-420B-96FD-DD59A0C38DB5"
    }
  ],
  "name": "tab",
  "nameIsFixed": true,
  "resizingConstraint": 63,
  "resizingType": 0,
  "rotation": 0,
  "shouldBreakMaskChain": false,
  "style": {
    "_class": "style",
    "do_objectID": "BE80D171-9140-4C5E-90A1-41EA512104C8",
    "endMarkerType": 0,
    "miterLimit": 10,
    "startMarkerType": 0,
    "windingRule": 1
  },
  "userInfo": {
    "com.animaapp.stc-sketch-plugin": {
      "kModelPropertiesKey": {
      }
    }
  }
}