{
  "_class": "symbolMaster",
  "backgroundColor": {
    "_class": "color",
    "alpha": 1,
    "blue": 1,
    "do_objectID": "733E4526-C5C4-49E5-A742-6DA2CF59F6AD",
    "green": 1,
    "red": 1
  },
  "booleanOperation": 0,
  "changeIdentifier": 6247,
  "do_objectID": "12678EDC-B7A6-4BA2-86E9-A009E7A0F90B",
  "exportOptions": {
    "_class": "exportOptions",
    "do_objectID": "84D72E7F-90C3-4CCA-B429-9D403B54E684",
    "exportFormats": [
    ],
    "includedLayerIds": [
    ],
    "layerOptions": 0,
    "shouldTrim": false
  },
  "frame": {
    "_class": "rect",
    "constrainProportions": false,
    "do_objectID": "82A69CB2-B8D8-4A8B-BE8A-B100043756F1",
    "height": 120,
    "width": 888,
    "x": 444,
    "y": -725
  },
  "hasBackgroundColor": false,
  "hasClickThrough": true,
  "horizontalRulerData": {
    "_class": "rulerData",
    "base": 0,
    "do_objectID": "48CACC11-E84D-42C8-8FA7-FBB676BB2C7B",
    "guides": [
    ]
  },
  "includeBackgroundColorInExport": true,
  "includeBackgroundColorInInstance": false,
  "includeInCloudUpload": true,
  "isFixedToViewport": false,
  "isFlippedHorizontal": false,
  "isFlippedVertical": false,
  "isFlowHome": false,
  "isLocked": false,
  "isVisible": true,
  "layerListExpandedType": 2,
  "layers": [
    {
      "class": "group",
      "id": "C4EBD750-7878-46E3-8D5C-D480B7EF5FB9"
    },
    {
      "class": "group",
      "id": "E6CE1FDE-D187-406B-9ADC-9A1889896543"
    },
    {
      "class": "symbolInstance",
      "id": "5244709C-051E-4E9E-BE7E-6ADE9F489818"
    },
    {
      "class": "symbolInstance",
      "id": "CB69BDA5-8AF8-41D5-B617-0049DB7A863A"
    },
    {
      "class": "symbolInstance",
      "id": "D834A217-47EB-4040-B022-D384C7B1461C"
    }
  ],
  "name": "25h8/chat/chat-layout/chat-layout-header/chat-layout-header-my-results",
  "nameIsFixed": true,
  "resizesContent": false,
  "resizingConstraint": 63,
  "resizingType": 0,
  "rotation": 0,
  "shouldBreakMaskChain": true,
  "style": {
    "_class": "style",
    "do_objectID": "8A14F603-3004-4354-9F0B-ED4D119A7DF5",
    "endMarkerType": 0,
    "miterLimit": 10,
    "startMarkerType": 0,
    "windingRule": 1
  },
  "symbolID": "580EFF67-229F-4D63-ABD2-1CD439436989",
  "verticalRulerData": {
    "_class": "rulerData",
    "base": 0,
    "do_objectID": "99049919-16E1-47A4-923D-E135197C9571",
    "guides": [
    ]
  }
}