{
  "_class": "symbolInstance",
  "booleanOperation": 0,
  "do_objectID": "018BE3D6-6231-4E87-9FF3-14AC2E6AE970",
  "exportOptions": {
    "_class": "exportOptions",
    "do_objectID": "88E2FCAC-47DD-4CC2-8F03-5E50C34FA6AB",
    "exportFormats": [
    ],
    "includedLayerIds": [
    ],
    "layerOptions": 0,
    "shouldTrim": false
  },
  "frame": {
    "_class": "rect",
    "constrainProportions": false,
    "do_objectID": "65429AAA-246E-482B-89A7-DA77DC2FECC9",
    "height": 194,
    "width": 276,
    "x": 304,
    "y": 4104
  },
  "horizontalSpacing": 0,
  "isFixedToViewport": false,
  "isFlippedHorizontal": false,
  "isFlippedVertical": false,
  "isLocked": false,
  "isVisible": true,
  "layerListExpandedType": 0,
  "name": "25h8/chat/chat-layout/chat-layout-component/chat-card-item-v1-test-test copy",
  "nameIsFixed": false,
  "overrideValues": [
  ],
  "resizingConstraint": 63,
  "resizingType": 0,
  "rotation": 0,
  "scale": 1,
  "shouldBreakMaskChain": false,
  "style": {
    "_class": "style",
    "do_objectID": "657B02A4-7C12-4D6C-9FD2-FD2F3D895BE8",
    "endMarkerType": 0,
    "miterLimit": 10,
    "startMarkerType": 0,
    "windingRule": 1
  },
  "symbolID": "FE7A14B9-38B5-49CD-B662-C2DEF4A70205",
  "verticalSpacing": 0
}