{
  "_class": "symbolInstance",
  "booleanOperation": 0,
  "do_objectID": "07E9678C-ADF6-45C2-9805-93FDC8942737",
  "exportOptions": {
    "_class": "exportOptions",
    "do_objectID": "1977E776-46FD-4F04-9F95-E8B16798A703",
    "exportFormats": [
    ],
    "includedLayerIds": [
    ],
    "layerOptions": 0,
    "shouldTrim": false
  },
  "frame": {
    "_class": "rect",
    "constrainProportions": false,
    "do_objectID": "1BFA4A5F-31B4-414C-96F9-5F5986E5606E",
    "height": 72,
    "width": 72,
    "x": 1394,
    "y": 3823
  },
  "horizontalSpacing": 0,
  "isFixedToViewport": false,
  "isFlippedHorizontal": false,
  "isFlippedVertical": false,
  "isLocked": false,
  "isVisible": true,
  "layerListExpandedType": 0,
  "name": "25h8/chat/product-icon-name/chat/chat-active copy 7",
  "nameIsFixed": false,
  "overrideValues": [
  ],
  "resizingConstraint": 63,
  "resizingType": 0,
  "rotation": 0,
  "scale": 1,
  "shouldBreakMaskChain": false,
  "style": {
    "_class": "style",
    "do_objectID": "B208C7FF-6154-4C6E-9A5F-258766A2861F",
    "endMarkerType": 0,
    "miterLimit": 10,
    "startMarkerType": 0,
    "windingRule": 1
  },
  "symbolID": "801CB2A5-D61A-44EF-8167-3B2936A434F6",
  "verticalSpacing": 0
}