{
  "_class": "symbolInstance",
  "booleanOperation": 0,
  "do_objectID": "40AF2569-EA94-4BAA-A573-83D488152EFE",
  "exportOptions": {
    "_class": "exportOptions",
    "do_objectID": "0B6EB263-7933-4393-875C-EEEB03C6C177",
    "exportFormats": [
    ],
    "includedLayerIds": [
    ],
    "layerOptions": 0,
    "shouldTrim": false
  },
  "frame": {
    "_class": "rect",
    "constrainProportions": false,
    "do_objectID": "03E2A7CE-BC2D-4C94-82F5-172EA51ABEBE",
    "height": 72,
    "width": 72,
    "x": 1695,
    "y": 3823
  },
  "horizontalSpacing": 0,
  "isFixedToViewport": false,
  "isFlippedHorizontal": false,
  "isFlippedVertical": false,
  "isLocked": false,
  "isVisible": true,
  "layerListExpandedType": 0,
  "name": "25h8/chat/product-icon-name/chat/chat-active copy 16",
  "nameIsFixed": false,
  "overrideValues": [
  ],
  "resizingConstraint": 63,
  "resizingType": 0,
  "rotation": 0,
  "scale": 1,
  "shouldBreakMaskChain": false,
  "style": {
    "_class": "style",
    "do_objectID": "3F707438-12EB-45B0-AC93-BD6AA472F347",
    "endMarkerType": 0,
    "miterLimit": 10,
    "startMarkerType": 0,
    "windingRule": 1
  },
  "symbolID": "109C42E9-93FE-42D5-93D9-D939AD6AB4B6",
  "verticalSpacing": 0
}