{
  "_class": "symbolInstance",
  "booleanOperation": 0,
  "do_objectID": "48CD0165-8F2A-4A9E-BD41-F8D18C04E565",
  "exportOptions": {
    "_class": "exportOptions",
    "do_objectID": "476D5E98-F143-48C9-B36A-126A9FF83B0F",
    "exportFormats": [
      {
        "_class": "exportFormat",
        "absoluteSize": 0,
        "fileFormat": "svg",
        "name": "",
        "namingScheme": 0,
        "scale": 1,
        "visibleScaleType": 0
      }
    ],
    "includedLayerIds": [
    ],
    "layerOptions": 0,
    "shouldTrim": false
  },
  "frame": {
    "_class": "rect",
    "constrainProportions": false,
    "do_objectID": "292D5675-083C-45D1-A60B-2EE28766A343",
    "height": 40,
    "width": 40,
    "x": 720,
    "y": 0
  },
  "horizontalSpacing": 0,
  "isFixedToViewport": false,
  "isFlippedHorizontal": false,
  "isFlippedVertical": false,
  "isLocked": false,
  "isVisible": true,
  "layerListExpandedType": 0,
  "name": "25h8/chat/mat-icon-button/language/language-default copy",
  "nameIsFixed": false,
  "overrideValues": [
  ],
  "resizingConstraint": 63,
  "resizingType": 0,
  "rotation": 0,
  "scale": 1,
  "shouldBreakMaskChain": false,
  "style": {
    "_class": "style",
    "do_objectID": "76A01042-033B-4598-9DA3-2C09085D872D",
    "endMarkerType": 0,
    "miterLimit": 10,
    "startMarkerType": 0,
    "windingRule": 1
  },
  "symbolID": "361E504B-01E8-4C22-8B63-0E427BD51D7A",
  "verticalSpacing": 0
}