{
  "_class": "symbolInstance",
  "booleanOperation": 0,
  "do_objectID": "AE9D4590-55FB-4567-A040-A57074080846",
  "exportOptions": {
    "_class": "exportOptions",
    "do_objectID": "4B629A03-7987-4EDE-8290-BE890BF7BD79",
    "exportFormats": [
    ],
    "includedLayerIds": [
    ],
    "layerOptions": 0,
    "shouldTrim": false
  },
  "frame": {
    "_class": "rect",
    "constrainProportions": false,
    "do_objectID": "8353D1F1-08BB-4AC2-96B7-D41D6464513E",
    "height": 80,
    "width": 320,
    "x": 1301,
    "y": 2945
  },
  "horizontalSpacing": 0,
  "isFixedToViewport": false,
  "isFlippedHorizontal": false,
  "isFlippedVertical": false,
  "isLocked": false,
  "isVisible": true,
  "layerListExpandedType": 0,
  "name": "25h8/chat/mat-sidenav-content/mat-sidenav-component/chat-list-item-v1 copy 4",
  "nameIsFixed": false,
  "overrideValues": [
  ],
  "resizingConstraint": 63,
  "resizingType": 0,
  "rotation": 0,
  "scale": 1,
  "shouldBreakMaskChain": false,
  "style": {
    "_class": "style",
    "do_objectID": "483D9754-DF07-470A-BCAC-40CD6DD519DE",
    "endMarkerType": 0,
    "miterLimit": 10,
    "startMarkerType": 0,
    "windingRule": 1
  },
  "symbolID": "354FBB6F-1C1B-4750-B4DF-980131E24683",
  "verticalSpacing": 0
}