{
  "_class": "symbolInstance",
  "booleanOperation": 0,
  "do_objectID": "E9F96DDF-B44D-421C-BB85-2F10E9858743",
  "exportOptions": {
    "_class": "exportOptions",
    "do_objectID": "1FE7D4DA-1508-48BF-8949-2AD4C2042454",
    "exportFormats": [
      {
        "_class": "exportFormat",
        "absoluteSize": 0,
        "fileFormat": "svg",
        "name": "",
        "namingScheme": 0,
        "scale": 1,
        "visibleScaleType": 0
      }
    ],
    "includedLayerIds": [
    ],
    "layerOptions": 0,
    "shouldTrim": false
  },
  "frame": {
    "_class": "rect",
    "constrainProportions": false,
    "do_objectID": "CFF1DD21-436B-453D-BB20-A987B6FD88DC",
    "height": 40,
    "width": 40,
    "x": 920,
    "y": 0
  },
  "horizontalSpacing": 0,
  "isFixedToViewport": false,
  "isFlippedHorizontal": false,
  "isFlippedVertical": false,
  "isLocked": false,
  "isVisible": true,
  "layerListExpandedType": 0,
  "name": "25h8/chat/mat-icon-button/language/language-default copy 6",
  "nameIsFixed": false,
  "overrideValues": [
  ],
  "resizingConstraint": 63,
  "resizingType": 0,
  "rotation": 0,
  "scale": 1,
  "shouldBreakMaskChain": false,
  "style": {
    "_class": "style",
    "do_objectID": "2E9FB2CE-DFBF-41A2-A0B7-822CC3A59A4C",
    "endMarkerType": 0,
    "miterLimit": 10,
    "startMarkerType": 0,
    "windingRule": 1
  },
  "symbolID": "8ADEEDD3-A54E-48D1-A117-054A4415927B",
  "verticalSpacing": 0
}