{
  "_class": "group",
  "booleanOperation": 0,
  "do_objectID": "1643ED08-B4A6-42E3-A27D-AF51951995C0",
  "exportOptions": {
    "_class": "exportOptions",
    "exportFormats": [
    ],
    "includedLayerIds": [
    ],
    "layerOptions": 0,
    "shouldTrim": false
  },
  "frame": {
    "_class": "rect",
    "constrainProportions": false,
    "height": 24,
    "width": 154,
    "x": 75,
    "y": 12
  },
  "hasClickThrough": false,
  "isFixedToViewport": false,
  "isFlippedHorizontal": false,
  "isFlippedVertical": false,
  "isLocked": false,
  "isVisible": true,
  "layerListExpandedType": 2,
  "layers": [
    {
      "class": "text",
      "id": "E444FA83-F4F8-4464-9388-CE818B2D35C4"
    },
    {
      "class": "symbolInstance",
      "id": "7F3CC267-8C62-499A-8065-37577794CA94"
    }
  ],
  "name": "12:75",
  "nameIsFixed": true,
  "resizingConstraint": 61,
  "resizingType": 0,
  "rotation": 0,
  "shouldBreakMaskChain": false,
  "style": {
    "_class": "style",
    "endMarkerType": 0,
    "miterLimit": 10,
    "startMarkerType": 0,
    "windingRule": 1
  }
}