{
  "_class": "symbolInstance",
  "booleanOperation": 0,
  "do_objectID": "3B2FA1E0-6EF9-4A38-83CF-9B9B3CDD9A61",
  "exportOptions": {
    "_class": "exportOptions",
    "do_objectID": "294D7160-2A58-4823-8608-DCBD8051B2DB",
    "exportFormats": [
    ],
    "includedLayerIds": [
    ],
    "layerOptions": 0,
    "shouldTrim": false
  },
  "frame": {
    "_class": "rect",
    "constrainProportions": true,
    "do_objectID": "DF150B64-6687-4008-8DD3-7ABD3E5514B8",
    "height": 12,
    "width": 12,
    "x": 304,
    "y": 4
  },
  "horizontalSpacing": 0,
  "isFixedToViewport": false,
  "isFlippedHorizontal": false,
  "isFlippedVertical": false,
  "isLocked": false,
  "isVisible": true,
  "layerListExpandedType": 0,
  "name": "Black/icon-active-unfocused",
  "nameIsFixed": false,
  "overrideValues": [
  ],
  "resizingConstraint": 12,
  "resizingType": 0,
  "rotation": 0,
  "scale": 1,
  "shouldBreakMaskChain": false,
  "style": {
    "_class": "style",
    "do_objectID": "538F9777-2E1E-432E-849D-D7A089E7199B",
    "endMarkerType": 0,
    "miterLimit": 10,
    "startMarkerType": 0,
    "windingRule": 1
  },
  "symbolID": "39FA8BF2-9336-4B2B-AE56-6B5E13045A31",
  "verticalSpacing": 0
}