{
  "_class": "symbolInstance",
  "booleanOperation": -1,
  "do_objectID": "96E94828-5765-4357-B381-01FE2778CF75",
  "exportOptions": {
    "_class": "exportOptions",
    "do_objectID": "3FE5439F-4113-4617-957E-9C7716DBE5BA",
    "exportFormats": [
    ],
    "includedLayerIds": [
    ],
    "layerOptions": 0,
    "shouldTrim": false
  },
  "frame": {
    "_class": "rect",
    "constrainProportions": false,
    "do_objectID": "F5F548B6-D28B-410C-A2F2-964A755EA737",
    "height": 48,
    "width": 48,
    "x": 4,
    "y": 16
  },
  "horizontalSpacing": 0,
  "isFixedToViewport": false,
  "isFlippedHorizontal": false,
  "isFlippedVertical": false,
  "isLocked": false,
  "isVisible": true,
  "layerListExpandedType": 0,
  "name": "Supporting visual/Avatar",
  "nameIsFixed": false,
  "overrideValues": [
  ],
  "resizingConstraint": 9,
  "resizingType": 0,
  "rotation": 0,
  "scale": 1,
  "shouldBreakMaskChain": false,
  "style": {
    "_class": "style",
    "do_objectID": "E558675C-20B6-49AF-9356-1426ADA8AF04",
    "endMarkerType": 0,
    "miterLimit": 10,
    "startMarkerType": 0,
    "windingRule": 1
  },
  "symbolID": "AC8333FE-D665-4417-84B6-711CE9B12AC9",
  "verticalSpacing": 0
}