{
  "_class": "sharedStyle",
  "do_objectID": "47B8F8CE-DC0F-49E7-9424-8D54C646944A",
  "name": "Color/Clear",
  "value": {
    "_class": "style",
    "endMarkerType": 0,
    "miterLimit": 10,
    "sharedObjectID": "47B8F8CE-DC0F-49E7-9424-8D54C646944A",
    "startMarkerType": 0,
    "windingRule": 1
  }
}