{
  "_class": "group",
  "booleanOperation": 0,
  "do_objectID": "FF0C520E-8C2C-4F4B-B822-EF18155287D7",
  "exportOptions": {
    "_class": "exportOptions",
    "do_objectID": "C80EC8DB-E50E-4134-B6EE-333A65EECA5B",
    "exportFormats": [
      {
        "_class": "exportFormat",
        "absoluteSize": 0,
        "fileFormat": "png",
        "name": "",
        "namingScheme": 0,
        "scale": 1,
        "visibleScaleType": 0
      }
    ],
    "includedLayerIds": [
    ],
    "layerOptions": 0,
    "shouldTrim": false
  },
  "frame": {
    "_class": "rect",
    "constrainProportions": true,
    "do_objectID": "1600E567-C090-40C6-B4D1-5BF9BDD0D1CB",
    "height": 48,
    "width": 48,
    "x": 0,
    "y": 0
  },
  "hasClickThrough": false,
  "isFixedToViewport": false,
  "isFlippedHorizontal": false,
  "isFlippedVertical": false,
  "isLocked": false,
  "isVisible": true,
  "layerListExpandedType": 0,
  "layers": [
    {
      "class": "shapeGroup",
      "id": "1781D1D1-0B51-4B6D-98E2-122C7E01335B"
    },
    {
      "class": "group",
      "id": "278AD468-AFC6-4BE0-BA6F-88EB3B278EA6"
    }
  ],
  "name": "Material/Icons/Other/trade 48 px",
  "nameIsFixed": true,
  "originalObjectID": "30695052-4080-492F-B50B-AA9B1BA7C25F",
  "resizingConstraint": 63,
  "resizingType": 0,
  "rotation": 0,
  "shouldBreakMaskChain": true,
  "style": {
    "_class": "style",
    "do_objectID": "381201FC-E09A-4547-A368-5CEF931325AF",
    "endMarkerType": 0,
    "miterLimit": 10,
    "shadows": [
      {
        "_class": "shadow",
        "blurRadius": 4,
        "color": {
          "_class": "color",
          "alpha": 0.24,
          "blue": 0,
          "green": 0,
          "red": 0
        },
        "contextSettings": {
          "_class": "graphicsContextSettings",
          "blendMode": 0,
          "opacity": 1
        },
        "isEnabled": true,
        "offsetX": 0,
        "offsetY": 2,
        "spread": 0
      }
    ],
    "startMarkerType": 0,
    "windingRule": 1
  },
  "userInfo": {
    "com.animaapp.stc-sketch-plugin": {
      "kModelPropertiesKey": {
        "constraints": {
          "aspectRatio": {
            "constant": 48,
            "enabled": 1,
            "modelID": "constraint_e4984732-1dc6-443b-b877-d3ff71ade9ef",
            "model_class": "ADModelConstraint",
            "model_version": 0.1,
            "multiplier": 48
          },
          "automatic": 1,
          "modelID": "viewConstraints_acb28ec0-7528-48da-a2d4-d2d72ed1513d",
          "model_class": "ADModelViewConstraints",
          "model_version": 0.1
        }
      }
    }
  }
}