{
  "_class": "shapePath",
  "booleanOperation": -1,
  "do_objectID": "CDE44AF6-2E4D-4246-BE56-A5220D355CB5",
  "edited": true,
  "exportOptions": {
    "_class": "exportOptions",
    "do_objectID": "32DFCF46-1D77-40DF-A9CE-BB90F7A6D1FA",
    "exportFormats": [
    ],
    "includedLayerIds": [
    ],
    "layerOptions": 0,
    "shouldTrim": false
  },
  "frame": {
    "_class": "rect",
    "constrainProportions": false,
    "do_objectID": "659685D8-5328-47F8-96D1-A843C91176A3",
    "height": 20,
    "width": 16,
    "x": 0,
    "y": 0
  },
  "isClosed": true,
  "isFixedToViewport": false,
  "isFlippedHorizontal": false,
  "isFlippedVertical": false,
  "isLocked": false,
  "isVisible": true,
  "layerListExpandedType": 0,
  "name": "Path",
  "nameIsFixed": false,
  "pointRadiusBehaviour": 1,
  "points": [
    {
      "_class": "curvePoint",
      "cornerRadius": 0,
      "curveFrom": "{0.056250000000000022, 0}",
      "curveMode": 4,
      "curveTo": "{0.125, 0}",
      "hasCurveFrom": true,
      "hasCurveTo": false,
      "point": "{0.125, 0}"
    },
    {
      "_class": "curvePoint",
      "cornerRadius": 0,
      "curveFrom": "{0.00062499999999998668, 0.10000000000000001}",
      "curveMode": 4,
      "curveTo": "{0.00062499999999998668, 0.044999999999999998}",
      "hasCurveFrom": false,
      "hasCurveTo": true,
      "point": "{0.00062499999999998668, 0.10000000000000001}"
    },
    {
      "_class": "curvePoint",
      "cornerRadius": 0,
      "curveFrom": "{0, 0.95500000000000007}",
      "curveMode": 4,
      "curveTo": "{0, 0.90000000000000002}",
      "hasCurveFrom": true,
      "hasCurveTo": false,
      "point": "{0, 0.90000000000000002}"
    },
    {
      "_class": "curvePoint",
      "cornerRadius": 0,
      "curveFrom": "{0.12437500000000001, 1}",
      "curveMode": 4,
      "curveTo": "{0.05562499999999998, 1}",
      "hasCurveFrom": false,
      "hasCurveTo": true,
      "point": "{0.12437500000000001, 1}"
    },
    {
      "_class": "curvePoint",
      "cornerRadius": 0,
      "curveFrom": "{0.94375000000000009, 1}",
      "curveMode": 4,
      "curveTo": "{0.875, 1}",
      "hasCurveFrom": true,
      "hasCurveTo": false,
      "point": "{0.875, 1}"
    },
    {
      "_class": "curvePoint",
      "cornerRadius": 0,
      "curveFrom": "{1, 0.90000000000000002}",
      "curveMode": 4,
      "curveTo": "{1, 0.95500000000000007}",
      "hasCurveFrom": false,
      "hasCurveTo": true,
      "point": "{1, 0.90000000000000002}"
    },
    {
      "_class": "curvePoint",
      "cornerRadius": 0,
      "curveFrom": "{1, 0.29999999999999999}",
      "curveMode": 1,
      "curveTo": "{1, 0.29999999999999999}",
      "hasCurveFrom": false,
      "hasCurveTo": false,
      "point": "{1, 0.29999999999999999}"
    },
    {
      "_class": "curvePoint",
      "cornerRadius": 0,
      "curveFrom": "{0.625, 0}",
      "curveMode": 1,
      "curveTo": "{0.625, 0}",
      "hasCurveFrom": false,
      "hasCurveTo": false,
      "point": "{0.625, 0}"
    }
  ],
  "resizingConstraint": 63,
  "resizingType": 0,
  "rotation": 0,
  "shouldBreakMaskChain": false
}