{
  "_class": "symbolInstance",
  "booleanOperation": 0,
  "do_objectID": "06C95CAE-7A31-4C32-9271-61C83EC4F189",
  "exportOptions": {
    "_class": "exportOptions",
    "do_objectID": "99742833-1C0E-4D38-8251-3FFCE5E17F05",
    "exportFormats": [
    ],
    "includedLayerIds": [
    ],
    "layerOptions": 0,
    "shouldTrim": false
  },
  "frame": {
    "_class": "rect",
    "constrainProportions": false,
    "do_objectID": "2B3C3136-8EEE-414F-B742-68691A69A617",
    "height": 72,
    "width": 72,
    "x": 0,
    "y": 175
  },
  "horizontalSpacing": 0,
  "isFixedToViewport": false,
  "isFlippedHorizontal": false,
  "isFlippedVertical": false,
  "isLocked": false,
  "isVisible": true,
  "layerListExpandedType": 0,
  "name": "25h8/chat/product-icon-name/trade/trade-default",
  "nameIsFixed": false,
  "overrideValues": [
    {
      "_class": "overrideValue",
      "do_objectID": "745922BC-7254-4E15-903C-D493DD88ABA9",
      "overrideName": "B8202CC0-F21F-4B07-A07E-25229AE83155_stringValue",
      "value": "Бізнес"
    }
  ],
  "resizingConstraint": 63,
  "resizingType": 0,
  "rotation": 0,
  "scale": 1,
  "shouldBreakMaskChain": false,
  "style": {
    "_class": "style",
    "do_objectID": "B12BFE13-AA96-4628-A850-84881BD359D9",
    "endMarkerType": 0,
    "miterLimit": 10,
    "startMarkerType": 0,
    "windingRule": 1
  },
  "symbolID": "39009F97-4725-4DE1-A51E-0E905BC491C9",
  "verticalSpacing": 0
}