{
  "_class": "group",
  "booleanOperation": 0,
  "do_objectID": "EC26D5C6-1C3D-4CC9-8B87-879400DBF5D3",
  "exportOptions": {
    "_class": "exportOptions",
    "do_objectID": "74B561B6-943D-4F84-B27B-DDCD2C78F8BE",
    "exportFormats": [
    ],
    "includedLayerIds": [
    ],
    "layerOptions": 0,
    "shouldTrim": false
  },
  "frame": {
    "_class": "rect",
    "constrainProportions": false,
    "do_objectID": "D77D04A7-18D7-4CD6-8759-F44596ADF5B8",
    "height": 787,
    "width": 72,
    "x": 0,
    "y": 0
  },
  "hasClickThrough": false,
  "isFixedToViewport": false,
  "isFlippedHorizontal": false,
  "isFlippedVertical": false,
  "isLocked": false,
  "isVisible": true,
  "layerListExpandedType": 2,
  "layers": [
    {
      "class": "shapeGroup",
      "id": "A409A9D8-06FC-450E-8A20-18AEB95C6FB5"
    },
    {
      "class": "symbolInstance",
      "id": "06C95CAE-7A31-4C32-9271-61C83EC4F189"
    },
    {
      "class": "symbolInstance",
      "id": "B082B114-757C-4ADD-B1DC-E6D51551116E"
    },
    {
      "class": "symbolInstance",
      "id": "BAEF89F2-EF68-41A3-BB4A-1A2C5F8D63D0"
    },
    {
      "class": "symbolInstance",
      "id": "CD12BF9D-25F1-4355-887C-B7262E33DC70"
    },
    {
      "class": "symbolInstance",
      "id": "7BBECAEF-56E5-421D-9B9A-1759478F477A"
    },
    {
      "class": "symbolInstance",
      "id": "52B98284-4198-47F0-8D76-FA1FA10B6A89"
    },
    {
      "class": "symbolInstance",
      "id": "F206F53D-BCA7-4170-9B1E-AFF015E14A00"
    }
  ],
  "name": "app-bar",
  "nameIsFixed": true,
  "resizingConstraint": 63,
  "resizingType": 0,
  "rotation": 0,
  "shouldBreakMaskChain": false,
  "style": {
    "_class": "style",
    "do_objectID": "51E354CA-B4F1-462C-A922-1CA61A025006",
    "endMarkerType": 0,
    "miterLimit": 10,
    "startMarkerType": 0,
    "windingRule": 1
  },
  "userInfo": {
    "com.animaapp.stc-sketch-plugin": {
      "kModelPropertiesKey": {
      }
    }
  }
}