{
  "_class": "group",
  "booleanOperation": -1,
  "do_objectID": "A23CA269-7B8D-49B6-8EEF-10AB25DBB668",
  "exportOptions": {
    "_class": "exportOptions",
    "do_objectID": "B8527BEF-29FC-448E-884C-5B2DF3DA2E01",
    "exportFormats": [
    ],
    "includedLayerIds": [
    ],
    "layerOptions": 0,
    "shouldTrim": false
  },
  "frame": {
    "_class": "rect",
    "constrainProportions": false,
    "do_objectID": "1D38B5C3-C4AC-4D33-A55A-0DE3A3CBE322",
    "height": 80,
    "width": 320,
    "x": 0,
    "y": 0
  },
  "hasClickThrough": false,
  "isFixedToViewport": false,
  "isFlippedHorizontal": false,
  "isFlippedVertical": false,
  "isLocked": false,
  "isVisible": true,
  "layerListExpandedType": 2,
  "layers": [
    {
      "class": "shapeGroup",
      "id": "6BE47591-0BE4-40AB-934D-EAED98F5AD80"
    },
    {
      "class": "text",
      "id": "95D9E9FB-302D-4149-A24A-B5755E8BA0A9"
    },
    {
      "class": "text",
      "id": "E673961F-75EA-41AB-8455-D9FBBCC05493"
    },
    {
      "class": "shapeGroup",
      "id": "25F77C36-C793-439F-A159-A1E28D264A6F"
    },
    {
      "class": "symbolInstance",
      "id": "25AE5980-3D09-49F9-9D1B-75B4976D509B"
    },
    {
      "class": "text",
      "id": "02EA4A69-0D86-40F5-B1E6-FE837B7D4BFC"
    },
    {
      "class": "text",
      "id": "5EA1FF11-29C1-4696-97EE-80FB5CF70736"
    },
    {
      "class": "symbolInstance",
      "id": "9270BA19-FE27-4268-A02D-FE1A313314F7"
    },
    {
      "class": "symbolInstance",
      "id": "4530BA21-A6F0-40F7-AC85-564E27ECA0EA"
    },
    {
      "class": "symbolInstance",
      "id": "8CB8932E-1D04-4727-8A3B-955EB7321E3E"
    }
  ],
  "name": "25h8/Chat/Chat List/Hover/Long Title/chat-list-item entity+state-icon",
  "nameIsFixed": true,
  "resizingConstraint": 63,
  "resizingType": 0,
  "rotation": 0,
  "shouldBreakMaskChain": false,
  "style": {
    "_class": "style",
    "do_objectID": "B62C3351-01C8-47B1-A9CE-32BDAE8FEDE6",
    "endMarkerType": 0,
    "miterLimit": 10,
    "startMarkerType": 0,
    "windingRule": 1
  }
}