{
  "_class": "shapeGroup",
  "booleanOperation": 0,
  "clippingMaskMode": 0,
  "do_objectID": "BE5F7DC3-267D-4F90-8FF6-AC426EB52FBE",
  "exportOptions": {
    "_class": "exportOptions",
    "do_objectID": "BC1D64B1-62DF-4769-9B58-569B79A7CD24",
    "exportFormats": [
    ],
    "includedLayerIds": [
    ],
    "layerOptions": 0,
    "shouldTrim": false
  },
  "frame": {
    "_class": "rect",
    "constrainProportions": false,
    "do_objectID": "CB9BA713-9B4E-4FF9-89B4-DA24244F9470",
    "height": 12.84957142857143,
    "width": 14.07200000000001,
    "x": 29.40159999999997,
    "y": 3.504285714285742
  },
  "hasClickThrough": false,
  "hasClippingMask": false,
  "isFixedToViewport": false,
  "isFlippedHorizontal": false,
  "isFlippedVertical": false,
  "isLocked": false,
  "isVisible": true,
  "layerListExpandedType": 1,
  "layers": [
    {
      "class": "shapePath",
      "id": "250955B8-F61C-456B-A207-C9407D521944"
    }
  ],
  "name": "Path",
  "nameIsFixed": false,
  "resizingConstraint": 63,
  "resizingType": 0,
  "rotation": 0,
  "shouldBreakMaskChain": false,
  "style": {
    "_class": "style",
    "blur": {
      "_class": "blur",
      "center": "{0.5, 0.5}",
      "do_objectID": "84F105DF-1DF9-44F6-95F0-0323366F033B",
      "isEnabled": false,
      "motionAngle": 0,
      "radius": 16,
      "type": 0
    },
    "do_objectID": "A49E39C8-C42B-4E4F-ABCE-50C504E9AD09",
    "endMarkerType": 0,
    "fills": [
      {
        "_class": "fill",
        "color": {
          "_class": "color",
          "alpha": 1,
          "blue": 0.9294117647058824,
          "green": 0.8274509803921568,
          "red": 0.5568627450980392
        },
        "fillType": 1,
        "gradient": {
          "_class": "gradient",
          "elipseLength": 0,
          "from": "{0.53374952424340483, 0}",
          "gradientType": 0,
          "stops": [
            {
              "_class": "gradientStop",
              "color": {
                "_class": "color",
                "alpha": 1,
                "blue": 1,
                "green": 0.9921568627450981,
                "red": 0.984313725490196
              },
              "position": 0
            },
            {
              "_class": "gradientStop",
              "color": {
                "_class": "color",
                "alpha": 1,
                "blue": 0.5686274509803921,
                "green": 0.4588235294117646,
                "red": 0.09411764705882353
              },
              "position": 1
            }
          ],
          "to": "{1, 0.5}"
        },
        "isEnabled": true,
        "noiseIndex": 0,
        "noiseIntensity": 0,
        "patternFillType": 1,
        "patternTileScale": 1
      }
    ],
    "miterLimit": 10,
    "startMarkerType": 0,
    "windingRule": 1
  },
  "windingRule": 1
}