{
  "_class": "shapeGroup",
  "booleanOperation": 0,
  "clippingMaskMode": 0,
  "do_objectID": "0292D0E0-011F-44BD-9E28-5CB1DF0D4C9D",
  "exportOptions": {
    "_class": "exportOptions",
    "do_objectID": "03C0FF17-1CED-4CE2-8690-6C05DB0B6CB9",
    "exportFormats": [
    ],
    "includedLayerIds": [
    ],
    "layerOptions": 0,
    "shouldTrim": false
  },
  "frame": {
    "_class": "rect",
    "constrainProportions": false,
    "do_objectID": "65C7ECCF-B2A5-4F75-B210-8E9ACC869E77",
    "height": 40,
    "width": 288,
    "x": 8,
    "y": 4
  },
  "hasClickThrough": false,
  "hasClippingMask": false,
  "isFixedToViewport": false,
  "isFlippedHorizontal": false,
  "isFlippedVertical": false,
  "isLocked": false,
  "isVisible": true,
  "layerListExpandedType": 0,
  "layers": [
    {
      "class": "rectangle",
      "id": "37411680-4D1A-4F96-8B56-778AB0EA1521"
    }
  ],
  "name": "overlay bg",
  "nameIsFixed": true,
  "originalObjectID": "CE860E75-4C59-49E9-8B39-5794227061C8",
  "resizingConstraint": 63,
  "resizingType": 0,
  "rotation": 0,
  "shouldBreakMaskChain": false,
  "style": {
    "_class": "style",
    "do_objectID": "909044A7-ED5A-4710-A658-1567355E38C4",
    "endMarkerType": 0,
    "fills": [
      {
        "_class": "fill",
        "color": {
          "_class": "color",
          "alpha": 0.12,
          "blue": 0.1490196078431373,
          "green": 0.6549019607843137,
          "red": 1
        },
        "fillType": 0,
        "isEnabled": true,
        "noiseIndex": 0,
        "noiseIntensity": 0,
        "patternFillType": 1,
        "patternTileScale": 1
      }
    ],
    "miterLimit": 10,
    "sharedObjectID": "183251AA-FCB1-47B7-AD31-D4CC1EB16982",
    "startMarkerType": 0,
    "windingRule": 0
  },
  "windingRule": 0
}