{
  "_class": "symbolInstance",
  "booleanOperation": 0,
  "do_objectID": "6F3F1868-1D05-4251-86DB-016780E745B3",
  "exportOptions": {
    "_class": "exportOptions",
    "do_objectID": "9753AD8A-69A0-4387-8F5A-51DBE039A0F9",
    "exportFormats": [
    ],
    "includedLayerIds": [
    ],
    "layerOptions": 0,
    "shouldTrim": false
  },
  "frame": {
    "_class": "rect",
    "constrainProportions": false,
    "do_objectID": "A5F384A7-55F8-4E01-8A11-3D87E812933F",
    "height": 48,
    "width": 304,
    "x": 8,
    "y": 211
  },
  "horizontalSpacing": 0,
  "isFixedToViewport": false,
  "isFlippedHorizontal": false,
  "isFlippedVertical": false,
  "isLocked": false,
  "isVisible": true,
  "layerListExpandedType": 0,
  "name": "extendet-FAB",
  "nameIsFixed": false,
  "overrideValues": [
  ],
  "resizingConstraint": 63,
  "resizingType": 0,
  "rotation": 0,
  "scale": 1,
  "shouldBreakMaskChain": false,
  "style": {
    "_class": "style",
    "do_objectID": "D2602042-C201-4384-92DB-B74342666B3D",
    "endMarkerType": 0,
    "miterLimit": 10,
    "startMarkerType": 0,
    "windingRule": 1
  },
  "symbolID": "96A8986A-07B2-4C89-BA78-1EE33C859171",
  "verticalSpacing": 0
}