{
  "_class": "shapePath",
  "booleanOperation": 0,
  "do_objectID": "74791D4F-4EA7-4D97-9C93-B8E25DD22306",
  "edited": true,
  "exportOptions": {
    "_class": "exportOptions",
    "do_objectID": "D4ACB585-3570-485D-A068-46193086DCE3",
    "exportFormats": [
    ],
    "includedLayerIds": [
    ],
    "layerOptions": 0,
    "shouldTrim": false
  },
  "frame": {
    "_class": "rect",
    "constrainProportions": false,
    "do_objectID": "45132178-BE71-4C6B-AC53-C6F9B25CB03B",
    "height": 21,
    "width": 11,
    "x": 0,
    "y": 23
  },
  "isClosed": true,
  "isFixedToViewport": false,
  "isFlippedHorizontal": false,
  "isFlippedVertical": false,
  "isLocked": false,
  "isVisible": true,
  "layerListExpandedType": 0,
  "name": "Fill 9",
  "nameIsFixed": false,
  "pointRadiusBehaviour": 0,
  "points": [
    {
      "_class": "curvePoint",
      "cornerRadius": 0,
      "curveFrom": "{0.026648870107569694, 0.22187519890929636}",
      "curveMode": 4,
      "curveTo": "{0.16930521809731605, 0.81020301168405862}",
      "hasCurveFrom": true,
      "hasCurveTo": true,
      "point": "{0.026648870107569694, 0.22187519890929636}"
    },
    {
      "_class": "curvePoint",
      "cornerRadius": 0,
      "curveFrom": "{0.10326687980149536, -0.0045841201211997175}",
      "curveMode": 2,
      "curveTo": "{-0.037329448722695079, 0.030792680453667096}",
      "hasCurveFrom": true,
      "hasCurveTo": true,
      "point": "{0.032976072751777115, 0.013091919299505863}"
    },
    {
      "_class": "curvePoint",
      "cornerRadius": 0,
      "curveFrom": "{0.24799796168155155, 0.062823806434218699}",
      "curveMode": 2,
      "curveTo": "{0.12442622259770522, -0.0083500641842593482}",
      "hasCurveFrom": true,
      "hasCurveTo": true,
      "point": "{0.18632980753766015, 0.027257472569526167}"
    },
    {
      "_class": "curvePoint",
      "cornerRadius": 0,
      "curveFrom": "{0.39709922771353701, 0.18643247371188115}",
      "curveMode": 2,
      "curveTo": "{0.33312090888327223, 0.12275752890824816}",
      "hasCurveFrom": true,
      "hasCurveTo": true,
      "point": "{0.36496292405086495, 0.15459912159897382}"
    },
    {
      "_class": "curvePoint",
      "cornerRadius": 0,
      "curveFrom": "{0.51204831389155669, 0.27488683601577646}",
      "curveMode": 2,
      "curveTo": "{0.51204831389155669, 0.22531976043743393}",
      "hasCurveFrom": true,
      "hasCurveTo": true,
      "point": "{0.51204831389155669, 0.25010741851551438}"
    },
    {
      "_class": "curvePoint",
      "cornerRadius": 0,
      "curveFrom": "{0.53751898314067992, 0.39163934254843796}",
      "curveMode": 2,
      "curveTo": "{0.48641578597013957, 0.33501833235744999}",
      "hasCurveFrom": true,
      "hasCurveTo": true,
      "point": "{0.51204831389155669, 0.36331647658621613}"
    },
    {
      "_class": "curvePoint",
      "cornerRadius": 0,
      "curveFrom": "{0.69093157562557894, 0.42341501061661568}",
      "curveMode": 2,
      "curveTo": "{0.57579120192575783, 0.39521575332167164}",
      "hasCurveFrom": true,
      "hasCurveTo": true,
      "point": "{0.63344231811181528, 0.40931538196914374}"
    },
    {
      "_class": "curvePoint",
      "cornerRadius": 0,
      "curveFrom": "{0.9270392352277933, 0.50842481139237339}",
      "curveMode": 2,
      "curveTo": "{0.79939160048709723, 0.44469218254401061}",
      "hasCurveFrom": true,
      "hasCurveTo": true,
      "point": "{0.86325220391933022, 0.47659145927946606}"
    },
    {
      "_class": "curvePoint",
      "cornerRadius": 0,
      "curveFrom": "{0.97814243239833387, 0.63226421484895423}",
      "curveMode": 2,
      "curveTo": "{1.0165912242804593, 0.54731209811792603}",
      "hasCurveFrom": true,
      "hasCurveTo": true,
      "point": "{0.99734475670226574, 0.58973459272761986}"
    },
    {
      "_class": "curvePoint",
      "cornerRadius": 0,
      "curveFrom": "{0.9653261684376252, 0.7454403106083819}",
      "curveMode": 2,
      "curveTo": "{0.93987021361325584, 0.69589795676349475}",
      "hasCurveFrom": true,
      "hasCurveTo": true,
      "point": "{0.95268647757396463, 0.72065265253030142}"
    },
    {
      "_class": "curvePoint",
      "cornerRadius": 0,
      "curveFrom": "{0.90796934074664737, 0.82323960579294264}",
      "curveMode": 2,
      "curveTo": "{1.0101610206629741, 0.78786280521807561}",
      "hasCurveFrom": true,
      "hasCurveTo": true,
      "point": "{0.95911668119144955, 0.80553884463878145}"
    },
    {
      "_class": "curvePoint",
      "cornerRadius": 0,
      "curveFrom": "{0.88249867149752392, 0.88333813982334219}",
      "curveMode": 2,
      "curveTo": "{0.86968240753681547, 0.81973736022007559}",
      "hasCurveFrom": true,
      "hasCurveTo": true,
      "point": "{0.87600961018102297, 0.85150478771043492}"
    },
    {
      "_class": "curvePoint",
      "cornerRadius": 0,
      "curveFrom": "{0.96567931463172052, 1}",
      "curveMode": 4,
      "curveTo": "{0.94647699032778854, 0.98232396057929428}",
      "hasCurveFrom": true,
      "hasCurveTo": true,
      "point": "{0.96562045693270471, 1}"
    }
  ],
  "resizingConstraint": 63,
  "resizingType": 0,
  "rotation": 0,
  "shouldBreakMaskChain": false
}