{
  "_class": "symbolInstance",
  "booleanOperation": 0,
  "do_objectID": "6CC59BFB-5D17-4753-80A5-DD8EC023C4DE",
  "exportOptions": {
    "_class": "exportOptions",
    "do_objectID": "F797C88D-7428-4823-B1DB-EAF7E7BC39DA",
    "exportFormats": [
    ],
    "includedLayerIds": [
    ],
    "layerOptions": 0,
    "shouldTrim": false
  },
  "frame": {
    "_class": "rect",
    "constrainProportions": false,
    "do_objectID": "B178CCE1-8288-4F08-B6DE-C8FFC5CD135F",
    "height": 159,
    "width": 474,
    "x": 248,
    "y": 358
  },
  "horizontalSpacing": 0,
  "isFixedToViewport": false,
  "isFlippedHorizontal": false,
  "isFlippedVertical": false,
  "isLocked": false,
  "isVisible": true,
  "layerListExpandedType": 0,
  "name": "25h8/chat/chat-area/chat-message-area/chat-message-link",
  "nameIsFixed": false,
  "overrideValues": [
  ],
  "resizingConstraint": 63,
  "resizingType": 0,
  "rotation": 0,
  "scale": 1,
  "shouldBreakMaskChain": false,
  "style": {
    "_class": "style",
    "do_objectID": "7EC545A4-8F87-4416-AE0B-3CEA8B559E2F",
    "endMarkerType": 0,
    "miterLimit": 10,
    "startMarkerType": 0,
    "windingRule": 1
  },
  "symbolID": "E9B803AE-7FFC-4582-B002-F51BDFFC71C9",
  "verticalSpacing": 0
}