{
  "_class": "group",
  "booleanOperation": 0,
  "do_objectID": "49CAC71A-C976-41C0-A038-0F0C80CC5BC7",
  "exportOptions": {
    "_class": "exportOptions",
    "exportFormats": [
    ],
    "includedLayerIds": [
    ],
    "layerOptions": 0,
    "shouldTrim": false
  },
  "frame": {
    "_class": "rect",
    "constrainProportions": false,
    "height": 48,
    "width": 304,
    "x": 0,
    "y": 0
  },
  "hasClickThrough": true,
  "isFixedToViewport": false,
  "isFlippedHorizontal": false,
  "isFlippedVertical": false,
  "isLocked": false,
  "isVisible": true,
  "layerListExpandedType": 2,
  "layers": [
    {
      "class": "shapeGroup",
      "id": "57005495-2DDA-4E0A-9009-7F58AE80A8DD"
    },
    {
      "class": "group",
      "id": "1643ED08-B4A6-42E3-A27D-AF51951995C0"
    }
  ],
  "name": "25h8/chat/buttons/FAB/fab-extendet-secondary-default",
  "nameIsFixed": true,
  "resizingConstraint": 63,
  "resizingType": 0,
  "rotation": 0,
  "shouldBreakMaskChain": false,
  "style": {
    "_class": "style",
    "endMarkerType": 0,
    "miterLimit": 10,
    "startMarkerType": 0,
    "windingRule": 1
  }
}