{
  "_class": "symbolMaster",
  "backgroundColor": {
    "_class": "color",
    "alpha": 1,
    "blue": 1,
    "do_objectID": "8E3B165D-B15D-4CEC-9332-957EA3CABD34",
    "green": 1,
    "red": 1
  },
  "booleanOperation": 0,
  "changeIdentifier": 5949,
  "do_objectID": "2A8672D0-60F8-4C73-9209-8A591712708C",
  "exportOptions": {
    "_class": "exportOptions",
    "do_objectID": "7996F06E-4967-4370-BAC3-FAC6D6E5575D",
    "exportFormats": [
    ],
    "includedLayerIds": [
    ],
    "layerOptions": 0,
    "shouldTrim": false
  },
  "frame": {
    "_class": "rect",
    "constrainProportions": false,
    "do_objectID": "AEADD686-C204-41F9-B07A-739C79C17E71",
    "height": 72,
    "width": 72,
    "x": -1435,
    "y": 3374
  },
  "hasBackgroundColor": false,
  "hasClickThrough": true,
  "horizontalRulerData": {
    "_class": "rulerData",
    "base": 0,
    "do_objectID": "46781AA8-C68D-4296-B849-8A4AD4770072",
    "guides": [
    ]
  },
  "includeBackgroundColorInExport": true,
  "includeBackgroundColorInInstance": false,
  "includeInCloudUpload": true,
  "isFixedToViewport": false,
  "isFlippedHorizontal": false,
  "isFlippedVertical": false,
  "isFlowHome": false,
  "isLocked": false,
  "isVisible": true,
  "layerListExpandedType": 2,
  "layers": [
    {
      "class": "shapeGroup",
      "id": "04EC6845-E99B-4246-ACC3-4F6B040AB0F5"
    },
    {
      "class": "text",
      "id": "4FD23266-8E5B-4F46-AA42-B40F524B5372"
    },
    {
      "class": "group",
      "id": "E19672B9-8D2A-4E3B-9B82-CF7FB045E741"
    }
  ],
  "name": "25h8/chat/product-icon-name/prozorro/prozorro-hover",
  "nameIsFixed": true,
  "originalObjectID": "4DA53197-7BA7-435C-8748-21FB1B337C7E",
  "resizesContent": false,
  "resizingConstraint": 63,
  "resizingType": 0,
  "rotation": 0,
  "shouldBreakMaskChain": true,
  "style": {
    "_class": "style",
    "do_objectID": "35D9CA53-653E-4BAA-BF75-F57A7A09F819",
    "endMarkerType": 0,
    "miterLimit": 10,
    "startMarkerType": 0,
    "windingRule": 1
  },
  "symbolID": "E20C5196-EDDC-45F9-BF71-FF6A8C04D6CB",
  "verticalRulerData": {
    "_class": "rulerData",
    "base": 0,
    "do_objectID": "66DD660A-B54F-4D65-AD9E-2D55B0BADD29",
    "guides": [
    ]
  }
}