{
  "_class": "shapeGroup",
  "booleanOperation": 0,
  "clippingMaskMode": 0,
  "do_objectID": "F3A9B651-E27F-430B-AAE6-514B7AB26E33",
  "exportOptions": {
    "_class": "exportOptions",
    "exportFormats": [
    ],
    "includedLayerIds": [
    ],
    "layerOptions": 0,
    "shouldTrim": false
  },
  "frame": {
    "_class": "rect",
    "constrainProportions": true,
    "height": 24,
    "width": 24,
    "x": 0,
    "y": 0
  },
  "hasClickThrough": false,
  "hasClippingMask": false,
  "isFixedToViewport": false,
  "isFlippedHorizontal": false,
  "isFlippedVertical": false,
  "isLocked": false,
  "isVisible": true,
  "layerListExpandedType": 0,
  "layers": [
    {
      "class": "rectangle",
      "id": "87A3ACC4-EBD5-45A0-ABB0-7178FDA3BBFC"
    }
  ],
  "name": "24x24",
  "nameIsFixed": true,
  "originalObjectID": "F3A9B651-E27F-430B-AAE6-514B7AB26E33",
  "resizingConstraint": 63,
  "resizingType": 0,
  "rotation": 0,
  "shouldBreakMaskChain": false,
  "style": {
    "_class": "style",
    "endMarkerType": 0,
    "miterLimit": 10,
    "sharedObjectID": "AE7841E5-E34E-496B-B937-76B742ED84F1",
    "startMarkerType": 0,
    "windingRule": 1
  },
  "windingRule": 1
}