{
  "_class": "symbolInstance",
  "booleanOperation": 0,
  "do_objectID": "0A42BA50-5710-413C-87FB-61AD0285DD3A",
  "exportOptions": {
    "_class": "exportOptions",
    "do_objectID": "6F7106F5-CF85-4DC1-BC0A-6440F6455215",
    "exportFormats": [
    ],
    "includedLayerIds": [
    ],
    "layerOptions": 0,
    "shouldTrim": false
  },
  "frame": {
    "_class": "rect",
    "constrainProportions": false,
    "do_objectID": "7311A6A5-EF56-4444-83FD-296015319218",
    "height": 127,
    "width": 423,
    "x": 408,
    "y": 529
  },
  "horizontalSpacing": 0,
  "isFixedToViewport": false,
  "isFlippedHorizontal": false,
  "isFlippedVertical": false,
  "isLocked": false,
  "isVisible": true,
  "layerListExpandedType": 0,
  "name": "25h8/chat/chat-area/chat-message-area/chat-message-reply",
  "nameIsFixed": false,
  "overrideValues": [
  ],
  "resizingConstraint": 63,
  "resizingType": 0,
  "rotation": 0,
  "scale": 1,
  "shouldBreakMaskChain": false,
  "style": {
    "_class": "style",
    "do_objectID": "2AA0B363-29EC-4A55-8D11-F9B9B245A581",
    "endMarkerType": 0,
    "miterLimit": 10,
    "startMarkerType": 0,
    "windingRule": 1
  },
  "symbolID": "A767782E-1685-48E2-B9DB-8D6E0EB44BFA",
  "verticalSpacing": 0
}