{
  "_class": "symbolInstance",
  "booleanOperation": 0,
  "do_objectID": "0A8B0B77-61B8-4455-90F2-6EE8A5556497",
  "exportOptions": {
    "_class": "exportOptions",
    "do_objectID": "CFC7320B-0789-4292-88B1-283FC81F3A87",
    "exportFormats": [
    ],
    "includedLayerIds": [
    ],
    "layerOptions": 0,
    "shouldTrim": false
  },
  "frame": {
    "_class": "rect",
    "constrainProportions": false,
    "do_objectID": "359B9BF6-DFFD-43D5-9B36-5E91411E7704",
    "height": 787,
    "width": 72,
    "x": 0,
    "y": 63
  },
  "horizontalSpacing": 0,
  "isFixedToViewport": false,
  "isFlippedHorizontal": false,
  "isFlippedVertical": false,
  "isLocked": false,
  "isVisible": true,
  "layerListExpandedType": 0,
  "name": "25h8/chat/app-bar/app-bar-chat-selected",
  "nameIsFixed": false,
  "overrideValues": [
  ],
  "resizingConstraint": 63,
  "resizingType": 0,
  "rotation": 0,
  "scale": 1,
  "shouldBreakMaskChain": false,
  "style": {
    "_class": "style",
    "do_objectID": "FAFC920A-161D-4D17-BA0A-62DE2B1845BE",
    "endMarkerType": 0,
    "miterLimit": 10,
    "startMarkerType": 0,
    "windingRule": 1
  },
  "symbolID": "6C6B96EC-7A8C-462C-A11E-05CBEF647FCA",
  "verticalSpacing": 0
}