{
  "_class": "symbolInstance",
  "booleanOperation": 0,
  "do_objectID": "17AD037E-1256-4F1A-904B-FCE9C150CCE5",
  "exportOptions": {
    "_class": "exportOptions",
    "do_objectID": "1E67E521-1FD4-4CA7-8D19-16546AA4C911",
    "exportFormats": [
    ],
    "includedLayerIds": [
    ],
    "layerOptions": 0,
    "shouldTrim": false
  },
  "frame": {
    "_class": "rect",
    "constrainProportions": false,
    "do_objectID": "E8E229E5-5F3A-4327-9C55-25581866F8E8",
    "height": 787,
    "width": 320,
    "x": 72,
    "y": 63
  },
  "horizontalSpacing": 0,
  "isFixedToViewport": false,
  "isFlippedHorizontal": false,
  "isFlippedVertical": false,
  "isLocked": false,
  "isVisible": true,
  "layerListExpandedType": 0,
  "name": "25h8/chat/mat-sidenav-content/mat-sidenav-conten-close",
  "nameIsFixed": false,
  "overrideValues": [
  ],
  "resizingConstraint": 63,
  "resizingType": 0,
  "rotation": 0,
  "scale": 1,
  "shouldBreakMaskChain": false,
  "style": {
    "_class": "style",
    "do_objectID": "D8E237D2-3F84-4128-A74A-F47716080708",
    "endMarkerType": 0,
    "miterLimit": 10,
    "startMarkerType": 0,
    "windingRule": 1
  },
  "symbolID": "054F37F0-E653-46A5-AEBB-9A410F4B4452",
  "verticalSpacing": 0
}