{
  "_class": "artboard",
  "backgroundColor": {
    "_class": "color",
    "alpha": 1,
    "blue": 1,
    "do_objectID": "D39E034A-336C-42F0-8126-C4FF74D88FDC",
    "green": 1,
    "red": 1
  },
  "booleanOperation": 0,
  "do_objectID": "933C45F2-2605-4F40-85FF-33C50867E5F3",
  "exportOptions": {
    "_class": "exportOptions",
    "do_objectID": "FC495F46-62E1-4E4E-AD9A-9A40A640C0B3",
    "exportFormats": [
    ],
    "includedLayerIds": [
    ],
    "layerOptions": 0,
    "shouldTrim": false
  },
  "frame": {
    "_class": "rect",
    "constrainProportions": false,
    "do_objectID": "A1F1FD45-1127-47BF-801F-053D70C939D8",
    "height": 850,
    "width": 1280,
    "x": 9805,
    "y": -1040
  },
  "hasBackgroundColor": false,
  "hasClickThrough": true,
  "horizontalRulerData": {
    "_class": "rulerData",
    "base": 0,
    "do_objectID": "318E5A36-A2DF-4B6C-9BE5-F32D9AB89B82",
    "guides": [
    ]
  },
  "includeBackgroundColorInExport": true,
  "includeInCloudUpload": true,
  "isFixedToViewport": false,
  "isFlippedHorizontal": false,
  "isFlippedVertical": false,
  "isFlowHome": false,
  "isLocked": false,
  "isVisible": true,
  "layerListExpandedType": 2,
  "layers": [
    {
      "class": "shapeGroup",
      "id": "B100503A-83A9-41A4-A49C-5290CC6EE6F4"
    },
    {
      "class": "symbolInstance",
      "id": "9F05BA46-B814-493A-95F5-388168FDEC72"
    },
    {
      "class": "symbolInstance",
      "id": "78E77D2B-85AA-4776-8E3E-31F54D0972B6"
    },
    {
      "class": "symbolInstance",
      "id": "E8B10B0C-4315-4EFA-AF20-04027761A07C"
    },
    {
      "class": "symbolInstance",
      "id": "D4DDCA96-DAE1-4006-99CA-CD1ED0ED0496"
    },
    {
      "class": "symbolInstance",
      "id": "B7DBC2A7-08BA-413A-8FD2-0A79EA0BF133"
    },
    {
      "class": "symbolInstance",
      "id": "0A42BA50-5710-413C-87FB-61AD0285DD3A"
    },
    {
      "class": "symbolInstance",
      "id": "FB37580A-CD6F-4FE3-B0A7-F1CBD1DB82D2"
    },
    {
      "class": "symbolInstance",
      "id": "64074492-4991-420D-A5C2-424E6FF1BF82"
    },
    {
      "class": "symbolInstance",
      "id": "8FBA4F13-CE37-4181-AAAF-DF63A39AABED"
    },
    {
      "class": "symbolInstance",
      "id": "71A2B33B-8A64-4E36-B89E-EF81F6AEF092"
    },
    {
      "class": "symbolInstance",
      "id": "17AD037E-1256-4F1A-904B-FCE9C150CCE5"
    },
    {
      "class": "symbolInstance",
      "id": "E2B0C1D9-DB57-4589-B638-4C26908BF16E"
    },
    {
      "class": "symbolInstance",
      "id": "0A4D4486-A60E-4AC9-8B0D-FABAB7CB6A43"
    },
    {
      "class": "symbolInstance",
      "id": "0A8B0B77-61B8-4455-90F2-6EE8A5556497"
    },
    {
      "class": "shapeGroup",
      "id": "A38E6435-2FA0-4C2E-9B88-2FF8E3BCD39D"
    },
    {
      "class": "symbolInstance",
      "id": "CB2CC58A-4CCE-4A1B-8157-B6558DB4AA62"
    }
  ],
  "name": "25h8-chat-area-subchat-1280",
  "nameIsFixed": true,
  "resizesContent": false,
  "resizingConstraint": 63,
  "resizingType": 0,
  "rotation": 0,
  "shouldBreakMaskChain": true,
  "style": {
    "_class": "style",
    "do_objectID": "3198B92C-321E-43E4-821A-CCA237022A3A",
    "endMarkerType": 0,
    "miterLimit": 10,
    "startMarkerType": 0,
    "windingRule": 1
  },
  "verticalRulerData": {
    "_class": "rulerData",
    "base": 0,
    "do_objectID": "8098891E-470F-49D0-ABA9-F84067BB7DAC",
    "guides": [
    ]
  }
}