{
  "_class": "group",
  "booleanOperation": 0,
  "do_objectID": "E48E834E-4FC6-4152-9A45-FFF7B5D01396",
  "exportOptions": {
    "_class": "exportOptions",
    "exportFormats": [
    ],
    "includedLayerIds": [
    ],
    "layerOptions": 0,
    "shouldTrim": false
  },
  "frame": {
    "_class": "rect",
    "constrainProportions": false,
    "height": 24,
    "width": 24,
    "x": 0,
    "y": 0
  },
  "hasClickThrough": false,
  "isFixedToViewport": false,
  "isFlippedHorizontal": false,
  "isFlippedVertical": false,
  "isLocked": false,
  "isVisible": true,
  "layerListExpandedType": 1,
  "layers": [
    {
      "class": "shapeGroup",
      "id": "E48114EB-81FB-453B-8A2F-C869619C84BE"
    },
    {
      "class": "shapeGroup",
      "id": "F9ED18DD-C2C0-4B28-91BB-9381087B4E76"
    }
  ],
  "name": "25h8/chat/icon/white/pin-active-unfocused",
  "nameIsFixed": true,
  "resizingConstraint": 63,
  "resizingType": 0,
  "rotation": 0,
  "shouldBreakMaskChain": false,
  "style": {
    "_class": "style",
    "endMarkerType": 0,
    "miterLimit": 10,
    "startMarkerType": 0,
    "windingRule": 1
  }
}