{
  "_class": "symbolMaster",
  "backgroundColor": {
    "_class": "color",
    "alpha": 1,
    "blue": 1,
    "do_objectID": "C2BEF7F2-CDC2-4C30-AB60-823ADBB29647",
    "green": 1,
    "red": 1
  },
  "booleanOperation": 0,
  "changeIdentifier": 458,
  "do_objectID": "AA46308A-D4EC-4E6F-A5E9-2DCD668B4A8C",
  "exportOptions": {
    "_class": "exportOptions",
    "do_objectID": "6CBAD4DE-A030-4A31-940C-11C210127058",
    "exportFormats": [
    ],
    "includedLayerIds": [
    ],
    "layerOptions": 0,
    "shouldTrim": false
  },
  "frame": {
    "_class": "rect",
    "constrainProportions": false,
    "do_objectID": "5F56FAD5-6CEB-4187-84AD-F3FDB197247C",
    "height": 40,
    "width": 40,
    "x": 1840,
    "y": 75
  },
  "hasBackgroundColor": false,
  "hasClickThrough": true,
  "horizontalRulerData": {
    "_class": "rulerData",
    "base": 0,
    "do_objectID": "D2AD916E-6F44-4B0A-9D91-D4AF36A3B062",
    "guides": [
    ]
  },
  "includeBackgroundColorInExport": true,
  "includeBackgroundColorInInstance": false,
  "includeInCloudUpload": true,
  "isFixedToViewport": false,
  "isFlippedHorizontal": false,
  "isFlippedVertical": false,
  "isFlowHome": false,
  "isLocked": false,
  "isVisible": true,
  "layerListExpandedType": 2,
  "layers": [
    {
      "class": "shapeGroup",
      "id": "B9131D4A-CC6F-4CDB-82A3-F7156FCC3861"
    }
  ],
  "name": "25h8/chat/mat-icon-button/subchat/subchat-hover",
  "nameIsFixed": true,
  "resizesContent": false,
  "resizingConstraint": 63,
  "resizingType": 0,
  "rotation": 0,
  "shouldBreakMaskChain": true,
  "style": {
    "_class": "style",
    "do_objectID": "AD23C3F8-9255-4291-9ACF-BB00D62D05F1",
    "endMarkerType": 0,
    "miterLimit": 10,
    "startMarkerType": 0,
    "windingRule": 1
  },
  "symbolID": "7BEC32C7-9B3A-4064-AEA2-A6EC1535B4D3",
  "verticalRulerData": {
    "_class": "rulerData",
    "base": 0,
    "do_objectID": "C97C5B43-6987-42C6-AD4C-9BE08CB21C13",
    "guides": [
    ]
  }
}