{
  "_class": "group",
  "booleanOperation": 0,
  "do_objectID": "E1BB9429-6222-4151-883D-5BB3FE333D48",
  "exportOptions": {
    "_class": "exportOptions",
    "do_objectID": "1B29751C-1A34-4B62-B50D-9A40D5871B34",
    "exportFormats": [
    ],
    "includedLayerIds": [
    ],
    "layerOptions": 0,
    "shouldTrim": false
  },
  "frame": {
    "_class": "rect",
    "constrainProportions": false,
    "do_objectID": "D3B8BE17-C67F-4858-9B84-136ED0DBDA00",
    "height": 48,
    "width": 320,
    "x": 0,
    "y": 0
  },
  "hasClickThrough": false,
  "isFixedToViewport": false,
  "isFlippedHorizontal": false,
  "isFlippedVertical": false,
  "isLocked": false,
  "isVisible": true,
  "layerListExpandedType": 0,
  "layers": [
    {
      "class": "shapeGroup",
      "id": "85EB005E-B714-418A-8042-B2144470948E"
    },
    {
      "class": "text",
      "id": "0F9B4C3A-08A5-4133-B4F9-CBBA1C012128"
    },
    {
      "class": "shapeGroup",
      "id": "CEBC0DBC-EF06-438E-869D-9BA8B205E664"
    }
  ],
  "name": "tab",
  "nameIsFixed": true,
  "resizingConstraint": 15,
  "resizingType": 0,
  "rotation": 0,
  "shouldBreakMaskChain": false,
  "style": {
    "_class": "style",
    "do_objectID": "D4E512CC-7658-4F36-8294-A0BBD220D993",
    "endMarkerType": 0,
    "miterLimit": 10,
    "startMarkerType": 0,
    "windingRule": 1
  },
  "userInfo": {
    "com.animaapp.stc-sketch-plugin": {
      "kModelPropertiesKey": {
      }
    }
  }
}