{
  "_class": "group",
  "booleanOperation": 0,
  "do_objectID": "9F71BA18-2119-4834-A797-5FD9469FD871",
  "exportOptions": {
    "_class": "exportOptions",
    "do_objectID": "AB2ED28A-1B31-4CCE-A320-1D750A436FAA",
    "exportFormats": [
    ],
    "includedLayerIds": [
    ],
    "layerOptions": 0,
    "shouldTrim": false
  },
  "frame": {
    "_class": "rect",
    "constrainProportions": false,
    "do_objectID": "D6809208-CE7A-4F84-91B6-8563A3C7B851",
    "height": 445,
    "width": 560,
    "x": 696,
    "y": 12094
  },
  "hasClickThrough": false,
  "isFixedToViewport": false,
  "isFlippedHorizontal": false,
  "isFlippedVertical": false,
  "isLocked": false,
  "isVisible": true,
  "layerListExpandedType": 2,
  "layers": [
    {
      "class": "text",
      "id": "2DC19E70-C760-416C-B0BA-A02E5A2E662F"
    },
    {
      "class": "text",
      "id": "21E0D65A-6922-4DBB-87BC-D0550C1E1346"
    },
    {
      "class": "text",
      "id": "BD01D0FF-F022-4421-B04F-DB99C1305512"
    },
    {
      "class": "text",
      "id": "4BBE6BFF-DA2A-4EF2-BDC0-DC3543DF4FC5"
    },
    {
      "class": "text",
      "id": "1F4EB8D1-4C3D-4D4E-9C7B-DC115309C695"
    },
    {
      "class": "text",
      "id": "A2722765-661D-4EB5-8BAE-9FFCAF97A309"
    }
  ],
  "name": "Medium-emphasis Light background Left aligment ",
  "nameIsFixed": true,
  "resizingConstraint": 63,
  "resizingType": 0,
  "rotation": 0,
  "shouldBreakMaskChain": false,
  "style": {
    "_class": "style",
    "do_objectID": "B9EF74F2-F223-4038-9806-91AB13B66C86",
    "endMarkerType": 0,
    "miterLimit": 10,
    "startMarkerType": 0,
    "windingRule": 1
  }
}