{
  "_class": "group",
  "booleanOperation": 0,
  "do_objectID": "FC07E605-41DB-47CE-BFBE-2F18619EEA62",
  "exportOptions": {
    "_class": "exportOptions",
    "do_objectID": "8447857C-5FFB-4C98-B1AB-434820BB48D1",
    "exportFormats": [
    ],
    "includedLayerIds": [
    ],
    "layerOptions": 0,
    "shouldTrim": false
  },
  "frame": {
    "_class": "rect",
    "constrainProportions": false,
    "do_objectID": "C191CB1F-A1FF-4BD5-B6E9-A774283DEB34",
    "height": 14,
    "width": 209,
    "x": 347,
    "y": 8
  },
  "hasClickThrough": false,
  "isFixedToViewport": false,
  "isFlippedHorizontal": false,
  "isFlippedVertical": false,
  "isLocked": false,
  "isVisible": true,
  "layerListExpandedType": 0,
  "layers": [
    {
      "class": "text",
      "id": "A0011B39-33B8-4659-A7B4-68CA03CA938A"
    }
  ],
  "name": "link",
  "nameIsFixed": true,
  "resizingConstraint": 63,
  "resizingType": 0,
  "rotation": 0,
  "shouldBreakMaskChain": false,
  "style": {
    "_class": "style",
    "do_objectID": "018D2E25-43C0-4AF7-AE28-461D60243D9F",
    "endMarkerType": 0,
    "miterLimit": 10,
    "startMarkerType": 0,
    "windingRule": 1
  }
}