{
  "_class": "symbolInstance",
  "booleanOperation": 0,
  "do_objectID": "E81E60B7-AC0F-44F5-AAB0-D9512D4E9057",
  "exportOptions": {
    "_class": "exportOptions",
    "do_objectID": "C4927707-799F-43EC-AB0E-B9991FEE912E",
    "exportFormats": [
    ],
    "includedLayerIds": [
    ],
    "layerOptions": 0,
    "shouldTrim": false
  },
  "frame": {
    "_class": "rect",
    "constrainProportions": false,
    "do_objectID": "F23E6CF9-3AD6-4B0E-AD18-6AAB43416870",
    "height": 40,
    "width": 40,
    "x": 4,
    "y": 4
  },
  "horizontalSpacing": 0,
  "isFixedToViewport": false,
  "isFlippedHorizontal": false,
  "isFlippedVertical": false,
  "isLocked": false,
  "isVisible": true,
  "layerListExpandedType": 0,
  "name": "25h8/chat/mat-icon-button/arrow/arrow-down-defaul-white copy",
  "nameIsFixed": false,
  "overrideValues": [
  ],
  "resizingConstraint": 63,
  "resizingType": 0,
  "rotation": 0,
  "scale": 1,
  "shouldBreakMaskChain": false,
  "style": {
    "_class": "style",
    "do_objectID": "D8068BC2-8806-4D66-A6EB-5625AD673DD3",
    "endMarkerType": 0,
    "miterLimit": 10,
    "startMarkerType": 0,
    "windingRule": 1
  },
  "symbolID": "C80409A1-8421-46F7-ACFA-2585674622E9",
  "verticalSpacing": 0
}