{
  "_class": "symbolInstance",
  "booleanOperation": 0,
  "do_objectID": "9340BF6A-EFD7-4BC5-AEB6-8EF948C416F8",
  "exportOptions": {
    "_class": "exportOptions",
    "do_objectID": "BD0CD36E-2D15-48F8-BAC9-27B537CCFF8A",
    "exportFormats": [
    ],
    "includedLayerIds": [
    ],
    "layerOptions": 0,
    "shouldTrim": false
  },
  "frame": {
    "_class": "rect",
    "constrainProportions": false,
    "do_objectID": "8D3A3FC8-3E98-4CA6-8624-B0524FE087EB",
    "height": 80,
    "width": 768,
    "x": 0,
    "y": 160
  },
  "horizontalSpacing": 0,
  "isFixedToViewport": false,
  "isFlippedHorizontal": false,
  "isFlippedVertical": false,
  "isLocked": false,
  "isVisible": true,
  "layerListExpandedType": 0,
  "name": "chat",
  "nameIsFixed": false,
  "overrideValues": [
  ],
  "resizingConstraint": 63,
  "resizingType": 0,
  "rotation": 0,
  "scale": 1,
  "shouldBreakMaskChain": false,
  "style": {
    "_class": "style",
    "do_objectID": "53F3D7C1-D7EA-45BC-AC18-5382AB46522F",
    "endMarkerType": 0,
    "miterLimit": 10,
    "startMarkerType": 0,
    "windingRule": 1
  },
  "symbolID": "67E4337C-8E77-4680-BB08-2C10A20C4FD3",
  "verticalSpacing": 0
}