{
  "_class": "symbolInstance",
  "booleanOperation": 0,
  "do_objectID": "A3451FAE-D82F-4605-A287-EC88E3320F2A",
  "exportOptions": {
    "_class": "exportOptions",
    "do_objectID": "56C2AC32-AFAB-4B10-9628-63A0D0FFC580",
    "exportFormats": [
    ],
    "includedLayerIds": [
    ],
    "layerOptions": 0,
    "shouldTrim": false
  },
  "frame": {
    "_class": "rect",
    "constrainProportions": false,
    "do_objectID": "D6424784-4D03-4F7C-A2DF-3C3082B29B8F",
    "height": 80,
    "width": 768,
    "x": 0,
    "y": 240
  },
  "horizontalSpacing": 0,
  "isFixedToViewport": false,
  "isFlippedHorizontal": false,
  "isFlippedVertical": false,
  "isLocked": false,
  "isVisible": true,
  "layerListExpandedType": 0,
  "name": "chat",
  "nameIsFixed": false,
  "overrideValues": [
  ],
  "resizingConstraint": 63,
  "resizingType": 0,
  "rotation": 0,
  "scale": 1,
  "shouldBreakMaskChain": false,
  "style": {
    "_class": "style",
    "do_objectID": "FE905A4C-1CA6-4FE2-BADD-F402C6BBD52D",
    "endMarkerType": 0,
    "miterLimit": 10,
    "startMarkerType": 0,
    "windingRule": 1
  },
  "symbolID": "3C5A1D0D-4593-49D3-BED5-2DBE2A6566B0",
  "verticalSpacing": 0
}