{
  "_class": "symbolMaster",
  "backgroundColor": {
    "_class": "color",
    "alpha": 1,
    "blue": 1,
    "do_objectID": "91C40B1D-AA86-485F-BBD7-C5ABD6E6D501",
    "green": 1,
    "red": 1
  },
  "booleanOperation": 0,
  "changeIdentifier": 580,
  "do_objectID": "37857F89-970E-447B-8CE6-B3C02F7C43FC",
  "exportOptions": {
    "_class": "exportOptions",
    "do_objectID": "95593A9C-5F66-4170-9079-E19EF6D10777",
    "exportFormats": [
      {
        "_class": "exportFormat",
        "absoluteSize": 0,
        "fileFormat": "svg",
        "name": "",
        "namingScheme": 0,
        "scale": 1,
        "visibleScaleType": 0
      }
    ],
    "includedLayerIds": [
    ],
    "layerOptions": 0,
    "shouldTrim": false
  },
  "frame": {
    "_class": "rect",
    "constrainProportions": false,
    "do_objectID": "C391052C-6428-491B-9C8C-6DF226EF3806",
    "height": 40,
    "width": 40,
    "x": 2992,
    "y": 75
  },
  "hasBackgroundColor": false,
  "hasClickThrough": true,
  "horizontalRulerData": {
    "_class": "rulerData",
    "base": 0,
    "do_objectID": "0A28B115-EAF7-4D07-A04E-A5E39428F3FE",
    "guides": [
    ]
  },
  "includeBackgroundColorInExport": true,
  "includeBackgroundColorInInstance": true,
  "includeInCloudUpload": true,
  "isFixedToViewport": false,
  "isFlippedHorizontal": false,
  "isFlippedVertical": false,
  "isFlowHome": false,
  "isLocked": false,
  "isVisible": true,
  "layerListExpandedType": 2,
  "layers": [
    {
      "class": "shapeGroup",
      "id": "3385045B-C400-45A2-95D5-DDDCEDD9906C"
    }
  ],
  "name": "25h8/chat/mat-icon-button/selected/selected-hover",
  "nameIsFixed": true,
  "originalObjectID": "94181E18-2C17-4785-B3EE-09DDFD9A27BC",
  "resizesContent": false,
  "resizingConstraint": 63,
  "resizingType": 0,
  "rotation": 0,
  "shouldBreakMaskChain": true,
  "style": {
    "_class": "style",
    "do_objectID": "E1DB63CE-2E68-4115-A103-F79743B09606",
    "endMarkerType": 0,
    "miterLimit": 10,
    "startMarkerType": 0,
    "windingRule": 1
  },
  "symbolID": "4511FF8C-50F3-40CE-9758-0888576EA822",
  "verticalRulerData": {
    "_class": "rulerData",
    "base": 0,
    "do_objectID": "B1AE9C11-A6B8-4E3D-A3C0-03F878338D26",
    "guides": [
    ]
  }
}