{
  "_class": "shapeGroup",
  "booleanOperation": 0,
  "clippingMaskMode": 0,
  "do_objectID": "C4EBDF6A-3430-4FDB-835E-88816AA69773",
  "exportOptions": {
    "_class": "exportOptions",
    "do_objectID": "49846969-470C-41B3-B0FF-53C135BF5D71",
    "exportFormats": [
    ],
    "includedLayerIds": [
    ],
    "layerOptions": 0,
    "shouldTrim": false
  },
  "frame": {
    "_class": "rect",
    "constrainProportions": false,
    "do_objectID": "E7037B80-0554-4206-A702-AFF037B923C9",
    "height": 12.00002971999817,
    "width": 7.413989545160602,
    "x": 15.99950933002401,
    "y": 13.99806940011581
  },
  "hasClickThrough": false,
  "hasClippingMask": false,
  "isFixedToViewport": false,
  "isFlippedHorizontal": false,
  "isFlippedVertical": false,
  "isLocked": false,
  "isVisible": true,
  "layerListExpandedType": 0,
  "layers": [
    {
      "class": "shapePath",
      "id": "02DE60A4-309F-40CD-8CC3-CE54DFEA2210"
    }
  ],
  "name": "chevron left",
  "nameIsFixed": true,
  "originalObjectID": "B0C8ABEA-5151-4B4C-B801-4F4B23EF1AA5",
  "resizingConstraint": 63,
  "resizingType": 0,
  "rotation": 90,
  "shouldBreakMaskChain": false,
  "style": {
    "_class": "style",
    "do_objectID": "DDA9EEB3-427A-408B-90A3-E2ABFAE4CDC6",
    "endMarkerType": 0,
    "fills": [
      {
        "_class": "fill",
        "color": {
          "_class": "color",
          "alpha": 1,
          "blue": 1,
          "green": 1,
          "red": 1
        },
        "fillType": 0,
        "isEnabled": true,
        "noiseIndex": 0,
        "noiseIntensity": 0,
        "patternFillType": 0,
        "patternTileScale": 1
      }
    ],
    "miterLimit": 10,
    "sharedObjectID": "0261879A-372D-491B-8108-FCA089D037C4",
    "startMarkerType": 0,
    "windingRule": 1
  },
  "userInfo": {
    "com.animaapp.stc-sketch-plugin": {
      "kModelPropertiesKey": {
      }
    }
  },
  "windingRule": 1
}