{
  "_class": "shapeGroup",
  "booleanOperation": 0,
  "clippingMaskMode": 0,
  "do_objectID": "EE44E3C2-BFCE-4818-9430-5F9C942F922D",
  "exportOptions": {
    "_class": "exportOptions",
    "do_objectID": "0CE2518C-AD8C-4CFB-8259-2CF3095952A4",
    "exportFormats": [
    ],
    "includedLayerIds": [
    ],
    "layerOptions": 0,
    "shouldTrim": false
  },
  "frame": {
    "_class": "rect",
    "constrainProportions": true,
    "do_objectID": "ABEF202A-78E5-482E-ACF6-53E954455D73",
    "height": 12,
    "width": 12,
    "x": 0,
    "y": 0
  },
  "hasClickThrough": false,
  "hasClippingMask": false,
  "isFixedToViewport": false,
  "isFlippedHorizontal": false,
  "isFlippedVertical": false,
  "isLocked": false,
  "isVisible": true,
  "layerListExpandedType": 0,
  "layers": [
    {
      "class": "rectangle",
      "id": "233EAEA5-F7F4-4A6E-8DA7-85203FE0CBC7"
    }
  ],
  "name": "24x24",
  "nameIsFixed": true,
  "originalObjectID": "9D436205-9740-4304-995C-B366685038C8",
  "resizingConstraint": 63,
  "resizingType": 0,
  "rotation": 0,
  "shouldBreakMaskChain": false,
  "style": {
    "_class": "style",
    "do_objectID": "05B7E95C-E0E5-445D-8BE4-6B2EC54491FD",
    "endMarkerType": 0,
    "miterLimit": 10,
    "startMarkerType": 0,
    "windingRule": 1
  },
  "windingRule": 1
}