{
  "_class": "symbolInstance",
  "booleanOperation": 0,
  "do_objectID": "1BCC2FB7-6327-4759-BA01-B9044EA2B725",
  "exportOptions": {
    "_class": "exportOptions",
    "do_objectID": "0EFD6E2F-14AB-4CAE-AF34-EB264C07089B",
    "exportFormats": [
    ],
    "includedLayerIds": [
    ],
    "layerOptions": 0,
    "shouldTrim": false
  },
  "frame": {
    "_class": "rect",
    "constrainProportions": true,
    "do_objectID": "4B545DF7-CC2D-4B42-A28D-7F0EC9C91426",
    "height": 24,
    "width": 24,
    "x": 123,
    "y": 14
  },
  "horizontalSpacing": 0,
  "isFixedToViewport": false,
  "isFlippedHorizontal": false,
  "isFlippedVertical": false,
  "isLocked": false,
  "isVisible": true,
  "layerListExpandedType": 0,
  "name": "Material/Icons/Black/Active/factory",
  "nameIsFixed": false,
  "overrideValues": [
  ],
  "resizingConstraint": 57,
  "resizingType": 0,
  "rotation": 0,
  "scale": 1,
  "shouldBreakMaskChain": false,
  "style": {
    "_class": "style",
    "do_objectID": "0E55477B-7DFF-4C75-AAC9-2B5C3844B37C",
    "endMarkerType": 0,
    "miterLimit": 10,
    "startMarkerType": 0,
    "windingRule": 1
  },
  "symbolID": "9764764C-74CB-4961-B421-D3016E63B0A8",
  "userInfo": {
    "com.animaapp.stc-sketch-plugin": {
      "kModelPropertiesKey": {
        "constraints": {
          "aspectRatio": {
            "constant": 24,
            "enabled": 1,
            "modelID": "constraint_23077e96-5fff-4623-9b3c-2f86adf8460d",
            "model_class": "ADModelConstraint",
            "model_version": 0.1,
            "multiplier": 24
          },
          "automatic": 1,
          "modelID": "viewConstraints_1c153370-5de8-44f2-951f-3c126599de8f",
          "model_class": "ADModelViewConstraints",
          "model_version": 0.1,
          "scaleFactor": 1
        }
      }
    }
  },
  "verticalSpacing": 0
}