{
  "_class": "group",
  "booleanOperation": 0,
  "do_objectID": "55FD97EA-7BC9-4F85-9DDB-4920EBBA6013",
  "exportOptions": {
    "_class": "exportOptions",
    "do_objectID": "26B06057-C0C9-4854-9CB0-1848473F1F9C",
    "exportFormats": [
    ],
    "includedLayerIds": [
    ],
    "layerOptions": 0,
    "shouldTrim": false
  },
  "frame": {
    "_class": "rect",
    "constrainProportions": false,
    "do_objectID": "9DFF1A49-B7E9-4E43-B89B-7F29A2A693DE",
    "height": 80,
    "width": 320,
    "x": 0,
    "y": 0
  },
  "hasClickThrough": false,
  "isFixedToViewport": false,
  "isFlippedHorizontal": false,
  "isFlippedVertical": false,
  "isLocked": false,
  "isVisible": true,
  "layerListExpandedType": 2,
  "layers": [
    {
      "class": "shapeGroup",
      "id": "1435D466-6B58-4C64-B0CD-93B7A40EC327"
    },
    {
      "class": "group",
      "id": "2E939B55-EB78-41A4-8C32-DB9AAA5D4A2C"
    },
    {
      "class": "symbolInstance",
      "id": "1BCC2FB7-6327-4759-BA01-B9044EA2B725"
    },
    {
      "class": "text",
      "id": "CCE6BAE8-B996-4B3F-A4B9-4C8C64DA448E"
    },
    {
      "class": "shapeGroup",
      "id": "FAA444C3-987A-47E9-91AE-F07FB9332839"
    },
    {
      "class": "symbolInstance",
      "id": "30E850A5-1C48-411C-806F-38F63AA924A5"
    }
  ],
  "name": "chat",
  "nameIsFixed": true,
  "resizingConstraint": 63,
  "resizingType": 0,
  "rotation": 0,
  "shouldBreakMaskChain": false,
  "style": {
    "_class": "style",
    "do_objectID": "96A1CB2C-6B0A-49AE-858D-A2AD9849BB3F",
    "endMarkerType": 0,
    "miterLimit": 10,
    "startMarkerType": 0,
    "windingRule": 1
  },
  "userInfo": {
    "com.animaapp.stc-sketch-plugin": {
      "kModelPropertiesKey": {
      }
    }
  }
}