{
  "_class": "symbolInstance",
  "booleanOperation": 0,
  "do_objectID": "76F63F84-C759-4DB8-AD0B-4FFB7A0A438A",
  "exportOptions": {
    "_class": "exportOptions",
    "do_objectID": "D0A013EC-755C-426F-AE2A-00E9758D818B",
    "exportFormats": [
    ],
    "includedLayerIds": [
    ],
    "layerOptions": 0,
    "shouldTrim": false
  },
  "frame": {
    "_class": "rect",
    "constrainProportions": false,
    "do_objectID": "B7FF1DE9-300B-48E0-8750-CF838088F29D",
    "height": 72,
    "width": 72,
    "x": 0,
    "y": 495
  },
  "horizontalSpacing": 0,
  "isFixedToViewport": false,
  "isFlippedHorizontal": false,
  "isFlippedVertical": false,
  "isLocked": false,
  "isVisible": true,
  "layerListExpandedType": 0,
  "name": "product-logo-button copy",
  "nameIsFixed": true,
  "originalObjectID": "4DA53197-7BA7-435C-8748-21FB1B337C7E",
  "overrideValues": [
    {
      "_class": "overrideValue",
      "do_objectID": "054302C3-17EE-4395-909E-B3125BCB64A0",
      "overrideName": "26F1404E-F3C0-419B-B8F4-622C5BC90554_symbolID",
      "value": "6B03D044-74B5-40AA-9690-C9713B2F04FA"
    },
    {
      "_class": "overrideValue",
      "do_objectID": "62212219-8F3F-48C3-8CBD-F07E87300F72",
      "overrideName": "25381E17-CBB5-430B-A192-934362D8229F_stringValue",
      "value": "Чати"
    }
  ],
  "resizingConstraint": 63,
  "resizingType": 0,
  "rotation": 0,
  "scale": 1,
  "shouldBreakMaskChain": false,
  "style": {
    "_class": "style",
    "do_objectID": "11EFDD50-936D-4C9D-ADCF-76EDE4A3A81E",
    "endMarkerType": 0,
    "miterLimit": 10,
    "startMarkerType": 0,
    "windingRule": 1
  },
  "symbolID": "22889918-043B-4F45-96BD-5FFEA280D3EF",
  "verticalSpacing": 0
}