{
  "_class": "group",
  "booleanOperation": 0,
  "do_objectID": "1C64AD33-5CFF-46A9-914F-348DD78924C7",
  "exportOptions": {
    "_class": "exportOptions",
    "do_objectID": "2239634B-7ACF-40F3-A13B-7BCC0866F85F",
    "exportFormats": [
    ],
    "includedLayerIds": [
    ],
    "layerOptions": 0,
    "shouldTrim": false
  },
  "frame": {
    "_class": "rect",
    "constrainProportions": false,
    "do_objectID": "3334B107-7CE7-4670-AD1E-6A1455D62D3E",
    "height": 787,
    "width": 72,
    "x": 0,
    "y": 0
  },
  "hasClickThrough": false,
  "isFixedToViewport": false,
  "isFlippedHorizontal": false,
  "isFlippedVertical": false,
  "isLocked": false,
  "isVisible": true,
  "layerListExpandedType": 2,
  "layers": [
    {
      "class": "shapeGroup",
      "id": "7240840C-F122-454B-B799-2B2616068609"
    },
    {
      "class": "symbolInstance",
      "id": "2F50276E-B950-406E-B703-54649FCD6765"
    },
    {
      "class": "symbolInstance",
      "id": "23874C21-9D36-450B-B794-53B29850483F"
    },
    {
      "class": "symbolInstance",
      "id": "619302A1-D721-49C4-8DBC-B9C494FE7B37"
    },
    {
      "class": "symbolInstance",
      "id": "5735F716-E43B-4F3C-A511-174E1A9BFED1"
    },
    {
      "class": "symbolInstance",
      "id": "76F63F84-C759-4DB8-AD0B-4FFB7A0A438A"
    },
    {
      "class": "symbolInstance",
      "id": "04B5C362-136F-4746-BAFA-71D281508886"
    },
    {
      "class": "symbolInstance",
      "id": "1D9CE41C-A5D7-4964-8489-F3C13ECF7753"
    }
  ],
  "name": "app-bar",
  "nameIsFixed": true,
  "resizingConstraint": 63,
  "resizingType": 0,
  "rotation": 0,
  "shouldBreakMaskChain": false,
  "style": {
    "_class": "style",
    "do_objectID": "5734B83C-FAEF-4CB4-915E-FF72E1FBDDDA",
    "endMarkerType": 0,
    "miterLimit": 10,
    "startMarkerType": 0,
    "windingRule": 1
  },
  "userInfo": {
    "com.animaapp.stc-sketch-plugin": {
      "kModelPropertiesKey": {
      }
    }
  }
}