{
  "_class": "shapeGroup",
  "booleanOperation": 0,
  "clippingMaskMode": 0,
  "do_objectID": "B51427F0-9716-4885-8637-1D88B1B87B06",
  "exportOptions": {
    "_class": "exportOptions",
    "do_objectID": "9E60132B-026A-4244-9E6A-F4AD01EC750E",
    "exportFormats": [
    ],
    "includedLayerIds": [
    ],
    "layerOptions": 0,
    "shouldTrim": false
  },
  "frame": {
    "_class": "rect",
    "constrainProportions": false,
    "do_objectID": "585906C9-D19F-49F6-96FF-F373556F71D5",
    "height": 14,
    "width": 22,
    "x": 0,
    "y": 0
  },
  "hasClickThrough": false,
  "hasClippingMask": false,
  "isFixedToViewport": false,
  "isFlippedHorizontal": false,
  "isFlippedVertical": false,
  "isLocked": false,
  "isVisible": true,
  "layerListExpandedType": 0,
  "layers": [
    {
      "class": "rectangle",
      "id": "2E9B0919-8F7D-4A7C-923E-070F78D32142"
    }
  ],
  "name": "Notification Bubble",
  "nameIsFixed": false,
  "originalObjectID": "6330B279-229F-41C7-9EFB-663EE6950BE3",
  "resizingConstraint": 18,
  "resizingType": 2,
  "rotation": 0,
  "shouldBreakMaskChain": false,
  "style": {
    "_class": "style",
    "blur": {
      "_class": "blur",
      "center": "{0.5, 0.5}",
      "do_objectID": "15D798F7-0675-49A0-A14B-08C8EF0D7BFD",
      "isEnabled": false,
      "motionAngle": 0,
      "radius": 5,
      "type": 0
    },
    "do_objectID": "D11008F2-47E7-478C-840C-72A5A0755027",
    "endMarkerType": 0,
    "fills": [
      {
        "_class": "fill",
        "color": {
          "_class": "color",
          "alpha": 1,
          "blue": 0.211764705882353,
          "green": 0.2627450980392158,
          "red": 0.9568627450980393
        },
        "fillType": 0,
        "isEnabled": true,
        "noiseIndex": 0,
        "noiseIntensity": 0,
        "patternFillType": 0,
        "patternTileScale": 1
      }
    ],
    "miterLimit": 10,
    "shadows": [
      {
        "_class": "shadow",
        "blurRadius": 1,
        "color": {
          "_class": "color",
          "alpha": 0.24,
          "blue": 0,
          "green": 0,
          "red": 0
        },
        "contextSettings": {
          "_class": "graphicsContextSettings",
          "blendMode": 0,
          "opacity": 1
        },
        "isEnabled": true,
        "offsetX": 0,
        "offsetY": 1,
        "spread": 0
      },
      {
        "_class": "shadow",
        "blurRadius": 1,
        "color": {
          "_class": "color",
          "alpha": 0.12,
          "blue": 0,
          "green": 0,
          "red": 0
        },
        "contextSettings": {
          "_class": "graphicsContextSettings",
          "blendMode": 0,
          "opacity": 1
        },
        "isEnabled": true,
        "offsetX": 0,
        "offsetY": 0,
        "spread": 0
      }
    ],
    "sharedObjectID": "41F3780E-F3A7-4062-BC40-A40DB0008271",
    "startMarkerType": 0,
    "windingRule": 1
  },
  "windingRule": 1
}