{
  "_class": "group",
  "booleanOperation": 0,
  "do_objectID": "EF349CC7-8925-4DC0-A4E0-CDFFD9D79580",
  "exportOptions": {
    "_class": "exportOptions",
    "do_objectID": "46057611-383F-4D9A-ABD2-6BD60B29E1EB",
    "exportFormats": [
      {
        "_class": "exportFormat",
        "absoluteSize": 0,
        "fileFormat": "png",
        "name": "",
        "namingScheme": 0,
        "scale": 1,
        "visibleScaleType": 0
      }
    ],
    "includedLayerIds": [
    ],
    "layerOptions": 0,
    "shouldTrim": false
  },
  "frame": {
    "_class": "rect",
    "constrainProportions": false,
    "do_objectID": "35491790-653F-45FE-BEFF-6CE54F082580",
    "height": 48,
    "width": 48,
    "x": 0,
    "y": 0
  },
  "hasClickThrough": false,
  "isFixedToViewport": false,
  "isFlippedHorizontal": false,
  "isFlippedVertical": false,
  "isLocked": false,
  "isVisible": true,
  "layerListExpandedType": 0,
  "layers": [
    {
      "class": "shapeGroup",
      "id": "404CCE26-C6AD-47ED-AC23-2912D62416E8"
    },
    {
      "class": "shapeGroup",
      "id": "6382FBCA-693D-4081-A67A-A4A5D959699B"
    },
    {
      "class": "shapeGroup",
      "id": "180D55D1-651A-4455-8390-57C97ABB84B3"
    },
    {
      "class": "shapeGroup",
      "id": "852DA072-8F14-4D71-94A4-EE3B58574A39"
    },
    {
      "class": "shapeGroup",
      "id": "55C99319-A569-477E-B39E-FF6368403D5D"
    },
    {
      "class": "shapeGroup",
      "id": "7E6162A7-20BD-4A5E-B02B-B2ED727828B7"
    },
    {
      "class": "shapeGroup",
      "id": "71551BA1-9F90-4855-94DD-161F1C3F8B99"
    },
    {
      "class": "shapeGroup",
      "id": "1A41E285-A41E-4A11-B08B-66310314A0D1"
    },
    {
      "class": "group",
      "id": "9D0F1CDB-1D90-4544-8255-B477164DC0F7"
    }
  ],
  "name": "Documents 48px",
  "nameIsFixed": true,
  "originalObjectID": "71347709-B64D-4E47-BAD9-307DAF65BE87",
  "resizingConstraint": 63,
  "resizingType": 0,
  "rotation": 0,
  "shouldBreakMaskChain": false,
  "style": {
    "_class": "style",
    "do_objectID": "DB134530-C1BA-44B2-917E-DF2DE1BB161B",
    "endMarkerType": 0,
    "miterLimit": 10,
    "startMarkerType": 0,
    "windingRule": 1
  },
  "userInfo": {
    "com.animaapp.stc-sketch-plugin": {
      "kModelPropertiesKey": {
      }
    }
  }
}