{
  "_class": "symbolInstance",
  "booleanOperation": 0,
  "do_objectID": "20F1237E-A202-431F-8264-E64E3BFF453A",
  "exportOptions": {
    "_class": "exportOptions",
    "do_objectID": "DD3F1D7C-6DD1-4947-8E0F-C16F2AAE5C47",
    "exportFormats": [
    ],
    "includedLayerIds": [
    ],
    "layerOptions": 0,
    "shouldTrim": false
  },
  "frame": {
    "_class": "rect",
    "constrainProportions": true,
    "do_objectID": "F20E8E07-B4D7-4C9F-8CB3-198B9394D1FC",
    "height": 16,
    "width": 16,
    "x": 302,
    "y": 2
  },
  "horizontalSpacing": 0,
  "isFixedToViewport": false,
  "isFlippedHorizontal": false,
  "isFlippedVertical": false,
  "isLocked": false,
  "isVisible": true,
  "layerListExpandedType": 0,
  "name": "25h8/chat/mat-icon-button/black/setting/setting-default",
  "nameIsFixed": false,
  "overrideValues": [
  ],
  "resizingConstraint": 60,
  "resizingType": 0,
  "rotation": 0,
  "scale": 1,
  "shouldBreakMaskChain": false,
  "style": {
    "_class": "style",
    "do_objectID": "3E7E3213-92E7-48B3-A411-E377305CCCDD",
    "endMarkerType": 0,
    "miterLimit": 10,
    "startMarkerType": 0,
    "windingRule": 1
  },
  "symbolID": "0839DCFD-3D47-47D5-BA29-9A0D7434CF31",
  "verticalSpacing": 0
}