{
  "_class": "symbolInstance",
  "booleanOperation": 0,
  "do_objectID": "1CD2BE89-574D-4F5F-A689-9574285DADBC",
  "exportOptions": {
    "_class": "exportOptions",
    "do_objectID": "A3B5FFD8-EFF2-493E-96B2-535B6468B499",
    "exportFormats": [
    ],
    "includedLayerIds": [
    ],
    "layerOptions": 0,
    "shouldTrim": false
  },
  "frame": {
    "_class": "rect",
    "constrainProportions": false,
    "do_objectID": "1F07C3FF-219B-4A68-8086-17789925D10D",
    "height": 48,
    "width": 304,
    "x": 288,
    "y": 560
  },
  "horizontalSpacing": 0,
  "isFixedToViewport": false,
  "isFlippedHorizontal": false,
  "isFlippedVertical": false,
  "isLocked": false,
  "isVisible": true,
  "layerListExpandedType": 0,
  "name": "25h8/chat/mat-sidenav-content/mat-sidenav-content/mat-menu-item-focused",
  "nameIsFixed": false,
  "overrideValues": [
  ],
  "resizingConstraint": 63,
  "resizingType": 0,
  "rotation": 0,
  "scale": 1,
  "shouldBreakMaskChain": false,
  "style": {
    "_class": "style",
    "do_objectID": "722398A9-0765-40E3-AAD9-2F5ECA44A78E",
    "endMarkerType": 0,
    "miterLimit": 10,
    "startMarkerType": 0,
    "windingRule": 1
  },
  "symbolID": "238AE578-F1BD-48CE-803C-349C058E838A",
  "verticalSpacing": 0
}