{
  "_class": "symbolInstance",
  "booleanOperation": 0,
  "do_objectID": "378DF41D-A679-4789-8B29-95A1F4EC19D0",
  "exportOptions": {
    "_class": "exportOptions",
    "do_objectID": "31DE81E9-498A-4C39-B3F9-5B4A847CBFE2",
    "exportFormats": [
    ],
    "includedLayerIds": [
    ],
    "layerOptions": 0,
    "shouldTrim": false
  },
  "frame": {
    "_class": "rect",
    "constrainProportions": false,
    "do_objectID": "81EED510-A5B5-4735-BE03-E4759058F5C6",
    "height": 48,
    "width": 304,
    "x": 288,
    "y": 608
  },
  "horizontalSpacing": 0,
  "isFixedToViewport": false,
  "isFlippedHorizontal": false,
  "isFlippedVertical": false,
  "isLocked": false,
  "isVisible": true,
  "layerListExpandedType": 0,
  "name": "25h8/chat/mat-sidenav-content/mat-sidenav-content/mat-menu-item-disabled",
  "nameIsFixed": false,
  "overrideValues": [
  ],
  "resizingConstraint": 63,
  "resizingType": 0,
  "rotation": 0,
  "scale": 1,
  "shouldBreakMaskChain": false,
  "style": {
    "_class": "style",
    "do_objectID": "5ACC2D9F-C86D-416B-A57A-AD413904EB81",
    "endMarkerType": 0,
    "miterLimit": 10,
    "startMarkerType": 0,
    "windingRule": 1
  },
  "symbolID": "260DF909-0A9C-4591-8BFF-E4C8A100C3D6",
  "verticalSpacing": 0
}