{
  "_class": "symbolInstance",
  "booleanOperation": 0,
  "do_objectID": "527A0D74-5527-4D82-BF9C-15F98C17499B",
  "exportOptions": {
    "_class": "exportOptions",
    "do_objectID": "FD582EE7-C297-4ADD-B0AC-697AC7673930",
    "exportFormats": [
    ],
    "includedLayerIds": [
    ],
    "layerOptions": 0,
    "shouldTrim": false
  },
  "frame": {
    "_class": "rect",
    "constrainProportions": false,
    "do_objectID": "FB6C0458-DE0B-4C65-96BF-88040EF036A1",
    "height": 64,
    "width": 304,
    "x": 282,
    "y": 1178
  },
  "horizontalSpacing": 0,
  "isFixedToViewport": false,
  "isFlippedHorizontal": false,
  "isFlippedVertical": false,
  "isLocked": false,
  "isVisible": true,
  "layerListExpandedType": 0,
  "name": "25h8/chat/speed-dial/speed-dial-header-hover",
  "nameIsFixed": false,
  "overrideValues": [
  ],
  "resizingConstraint": 63,
  "resizingType": 0,
  "rotation": 0,
  "scale": 1,
  "shouldBreakMaskChain": false,
  "style": {
    "_class": "style",
    "do_objectID": "F86802DC-BA82-41E3-8ED2-E18DD6C02DE0",
    "endMarkerType": 0,
    "miterLimit": 10,
    "startMarkerType": 0,
    "windingRule": 1
  },
  "symbolID": "5BEA3A0F-39A3-4E58-9ECF-A805EE7F9C3B",
  "verticalSpacing": 0
}