{
  "_class": "symbolInstance",
  "booleanOperation": 0,
  "do_objectID": "7B7D36C2-BAF2-4042-B3BA-080C4ADC4834",
  "exportOptions": {
    "_class": "exportOptions",
    "do_objectID": "6A4C389E-5CA8-42DE-B118-4F51C3A34FEC",
    "exportFormats": [
    ],
    "includedLayerIds": [
    ],
    "layerOptions": 0,
    "shouldTrim": false
  },
  "frame": {
    "_class": "rect",
    "constrainProportions": false,
    "do_objectID": "D4CC3D40-6896-47B6-BCE4-C024852BD02D",
    "height": 48,
    "width": 304,
    "x": 282,
    "y": 851
  },
  "horizontalSpacing": 0,
  "isFixedToViewport": false,
  "isFlippedHorizontal": false,
  "isFlippedVertical": false,
  "isLocked": false,
  "isVisible": true,
  "layerListExpandedType": 0,
  "name": "25h8/chat/speed-dial/speed-dial-menu-item-activated",
  "nameIsFixed": false,
  "overrideValues": [
  ],
  "resizingConstraint": 63,
  "resizingType": 0,
  "rotation": 0,
  "scale": 1,
  "shouldBreakMaskChain": false,
  "style": {
    "_class": "style",
    "do_objectID": "9DBC14BE-D877-4500-A3CA-D9557E55152B",
    "endMarkerType": 0,
    "miterLimit": 10,
    "startMarkerType": 0,
    "windingRule": 1
  },
  "symbolID": "40695760-576E-4385-8485-C708C1C5984F",
  "verticalSpacing": 0
}