{
  "_class": "symbolMaster",
  "backgroundColor": {
    "_class": "color",
    "alpha": 1,
    "blue": 1,
    "do_objectID": "E11C9C88-9B75-4B92-ABD9-4D248A7DF3CB",
    "green": 1,
    "red": 1
  },
  "booleanOperation": 0,
  "changeIdentifier": 493,
  "do_objectID": "2C3D57FC-5CC2-4765-B67A-75F0697B59DA",
  "exportOptions": {
    "_class": "exportOptions",
    "do_objectID": "FE22E91F-2DE3-489B-9BFD-D43169877D77",
    "exportFormats": [
      {
        "_class": "exportFormat",
        "absoluteSize": 0,
        "fileFormat": "svg",
        "name": "",
        "namingScheme": 0,
        "scale": 1,
        "visibleScaleType": 0
      }
    ],
    "includedLayerIds": [
    ],
    "layerOptions": 0,
    "shouldTrim": false
  },
  "frame": {
    "_class": "rect",
    "constrainProportions": false,
    "do_objectID": "736400B5-64E3-465E-ABDE-8C5EFD263985",
    "height": 40,
    "width": 40,
    "x": 1912,
    "y": 139
  },
  "hasBackgroundColor": false,
  "hasClickThrough": false,
  "horizontalRulerData": {
    "_class": "rulerData",
    "base": 0,
    "do_objectID": "17B49247-EBD3-4CEF-B2B8-21D38B2FE798",
    "guides": [
    ]
  },
  "includeBackgroundColorInExport": true,
  "includeBackgroundColorInInstance": false,
  "includeInCloudUpload": true,
  "isFixedToViewport": false,
  "isFlippedHorizontal": false,
  "isFlippedVertical": false,
  "isFlowHome": false,
  "isLocked": false,
  "isVisible": true,
  "layerListExpandedType": 2,
  "layers": [
    {
      "class": "shapeGroup",
      "id": "A98C631D-8F53-4B27-A145-06638A1A02BB"
    },
    {
      "class": "shapeGroup",
      "id": "F12B8731-C1F0-4211-89D3-7033E5ED558A"
    }
  ],
  "name": "25h8/chat/mat-icon-button/file/file-press",
  "nameIsFixed": true,
  "resizesContent": false,
  "resizingConstraint": 63,
  "resizingType": 0,
  "rotation": 0,
  "shouldBreakMaskChain": true,
  "style": {
    "_class": "style",
    "do_objectID": "0D8B8F34-616A-45AB-9BEA-ED1188858F05",
    "endMarkerType": 0,
    "miterLimit": 10,
    "startMarkerType": 0,
    "windingRule": 1
  },
  "symbolID": "F1362D14-6135-4F79-8F6B-E8243607B63A",
  "verticalRulerData": {
    "_class": "rulerData",
    "base": 0,
    "do_objectID": "F79F5AD9-4E6E-4DE9-9C22-C51CE4663ED2",
    "guides": [
    ]
  }
}