{
  "_class": "symbolInstance",
  "booleanOperation": 0,
  "do_objectID": "0DC22481-3D4A-47A1-AD67-3553EEB71643",
  "exportOptions": {
    "_class": "exportOptions",
    "do_objectID": "35A9C6BF-785A-467D-83B1-D6853F6E30F4",
    "exportFormats": [
    ],
    "includedLayerIds": [
    ],
    "layerOptions": 0,
    "shouldTrim": false
  },
  "frame": {
    "_class": "rect",
    "constrainProportions": true,
    "do_objectID": "1CD5AA2A-DEC8-4483-9020-EC9E8C456980",
    "height": 24,
    "width": 24,
    "x": 292,
    "y": 14
  },
  "horizontalSpacing": 0,
  "isFixedToViewport": false,
  "isFlippedHorizontal": false,
  "isFlippedVertical": false,
  "isLocked": false,
  "isVisible": true,
  "layerListExpandedType": 0,
  "name": "Material/Icons/Black/Active/factory",
  "nameIsFixed": false,
  "overrideValues": [
  ],
  "resizingConstraint": 57,
  "resizingType": 0,
  "rotation": 0,
  "scale": 1,
  "shouldBreakMaskChain": false,
  "style": {
    "_class": "style",
    "do_objectID": "7AC37151-642C-49DA-ABE9-BFCA35D271AE",
    "endMarkerType": 0,
    "miterLimit": 10,
    "startMarkerType": 0,
    "windingRule": 1
  },
  "symbolID": "9764764C-74CB-4961-B421-D3016E63B0A8",
  "userInfo": {
    "com.animaapp.stc-sketch-plugin": {
      "kModelPropertiesKey": {
        "constraints": {
          "aspectRatio": {
            "constant": 24,
            "enabled": 1,
            "modelID": "constraint_23077e96-5fff-4623-9b3c-2f86adf8460d",
            "model_class": "ADModelConstraint",
            "model_version": 0.1,
            "multiplier": 24
          },
          "automatic": 1,
          "modelID": "viewConstraints_1c153370-5de8-44f2-951f-3c126599de8f",
          "model_class": "ADModelViewConstraints",
          "model_version": 0.1,
          "scaleFactor": 1
        }
      }
    }
  },
  "verticalSpacing": 0
}