{
  "_class": "group",
  "booleanOperation": 0,
  "do_objectID": "B762CF1E-3C2B-4E1C-AF4E-399182AA65F2",
  "exportOptions": {
    "_class": "exportOptions",
    "do_objectID": "6166B268-B4C7-4217-9A76-35EB893BE153",
    "exportFormats": [
    ],
    "includedLayerIds": [
    ],
    "layerOptions": 0,
    "shouldTrim": false
  },
  "frame": {
    "_class": "rect",
    "constrainProportions": false,
    "do_objectID": "F77991EC-C235-4288-885E-588257710454",
    "height": 56,
    "width": 320,
    "x": 0,
    "y": 272
  },
  "hasClickThrough": false,
  "isFixedToViewport": false,
  "isFlippedHorizontal": false,
  "isFlippedVertical": false,
  "isLocked": false,
  "isVisible": true,
  "layerListExpandedType": 0,
  "layers": [
    {
      "class": "shapeGroup",
      "id": "85420216-B25B-47CC-8B8F-E764DFD24423"
    },
    {
      "class": "symbolInstance",
      "id": "BE1CC0AA-D354-4158-B32B-3FD4A0430B60"
    },
    {
      "class": "text",
      "id": "050B14D7-2AD6-4776-A65B-847E27314DB4"
    },
    {
      "class": "shapeGroup",
      "id": "67FBF561-348F-46A3-8A19-A57FAFF2C76C"
    },
    {
      "class": "group",
      "id": "5841E846-965B-48A8-A97C-2F5A78D400D9"
    }
  ],
  "name": "files copy 4",
  "nameIsFixed": true,
  "resizingConstraint": 63,
  "resizingType": 0,
  "rotation": 0,
  "shouldBreakMaskChain": false,
  "style": {
    "_class": "style",
    "do_objectID": "4295230E-F72A-4119-B64D-41F707570D89",
    "endMarkerType": 0,
    "miterLimit": 10,
    "startMarkerType": 0,
    "windingRule": 1
  }
}