{
  "_class": "symbolInstance",
  "booleanOperation": 0,
  "do_objectID": "BE5D2EFF-B54D-46E6-ACE1-B2DD1650AAC7",
  "exportOptions": {
    "_class": "exportOptions",
    "do_objectID": "C6CF0926-7339-4ACB-945E-DD6B7FAE4E7D",
    "exportFormats": [
    ],
    "includedLayerIds": [
    ],
    "layerOptions": 0,
    "shouldTrim": false
  },
  "frame": {
    "_class": "rect",
    "constrainProportions": false,
    "do_objectID": "E9BE1957-B2A0-4FE3-8A3B-7414B684227B",
    "height": 30,
    "width": 1280,
    "x": 0,
    "y": 820
  },
  "horizontalSpacing": 0,
  "isFixedToViewport": false,
  "isFlippedHorizontal": false,
  "isFlippedVertical": false,
  "isLocked": false,
  "isVisible": true,
  "layerListExpandedType": 0,
  "name": "25h8/chat/primary-footer",
  "nameIsFixed": false,
  "overrideValues": [
  ],
  "resizingConstraint": 63,
  "resizingType": 0,
  "rotation": 0,
  "scale": 1,
  "shouldBreakMaskChain": false,
  "style": {
    "_class": "style",
    "do_objectID": "B1E3183D-B8B3-4926-84C5-78E32C3A0265",
    "endMarkerType": 0,
    "miterLimit": 10,
    "startMarkerType": 0,
    "windingRule": 1
  },
  "symbolID": "961ECB26-8895-4CD9-B642-C33CB958259C",
  "verticalSpacing": 0
}