{
  "_class": "symbolInstance",
  "booleanOperation": 0,
  "do_objectID": "DB4469A9-1CB0-4199-8159-952AF93CA926",
  "exportOptions": {
    "_class": "exportOptions",
    "do_objectID": "F083CB3F-15B3-49FC-AA98-7C6B2E694FDC",
    "exportFormats": [
    ],
    "includedLayerIds": [
    ],
    "layerOptions": 0,
    "shouldTrim": false
  },
  "frame": {
    "_class": "rect",
    "constrainProportions": false,
    "do_objectID": "FE81141C-9A1C-4F07-A57A-7855699C8E80",
    "height": 80,
    "width": 423,
    "x": 521,
    "y": 668
  },
  "horizontalSpacing": 0,
  "isFixedToViewport": false,
  "isFlippedHorizontal": false,
  "isFlippedVertical": false,
  "isLocked": false,
  "isVisible": true,
  "layerListExpandedType": 0,
  "name": "25h8/chat/chat-area/chat-message-area/chat-message-own",
  "nameIsFixed": false,
  "overrideValues": [
  ],
  "resizingConstraint": 63,
  "resizingType": 0,
  "rotation": 0,
  "scale": 1,
  "shouldBreakMaskChain": false,
  "style": {
    "_class": "style",
    "do_objectID": "A5099FD6-A854-4E48-8E9A-8B104B1B9B33",
    "endMarkerType": 0,
    "miterLimit": 10,
    "startMarkerType": 0,
    "windingRule": 1
  },
  "symbolID": "5437EC01-9610-4D86-99EB-0CCAD477B3B4",
  "verticalSpacing": 0
}