{
  "_class": "group",
  "booleanOperation": -1,
  "do_objectID": "7BE953ED-1D2A-405B-8E95-A124ACA5488C",
  "exportOptions": {
    "_class": "exportOptions",
    "do_objectID": "96C1B19A-EDCE-44F8-9D4A-F72485343FD6",
    "exportFormats": [
    ],
    "includedLayerIds": [
    ],
    "layerOptions": 0,
    "shouldTrim": false
  },
  "frame": {
    "_class": "rect",
    "constrainProportions": false,
    "do_objectID": "D3DDA4A8-D2B0-4831-B57C-7FCA53337BC1",
    "height": 80,
    "width": 320,
    "x": 0,
    "y": 0
  },
  "hasClickThrough": false,
  "isFixedToViewport": false,
  "isFlippedHorizontal": false,
  "isFlippedVertical": false,
  "isLocked": false,
  "isVisible": true,
  "layerListExpandedType": 2,
  "layers": [
    {
      "class": "shapeGroup",
      "id": "BD8A1055-E098-4F31-9291-BC57E580E78C"
    },
    {
      "class": "text",
      "id": "33E1AD79-F393-438A-B49A-9655A6C32D9E"
    },
    {
      "class": "text",
      "id": "D454ED25-1729-47E1-A136-FE6A79DEF6C4"
    },
    {
      "class": "shapeGroup",
      "id": "5D1ACC9A-21F7-4B77-B51F-688D9D6E2BB8"
    },
    {
      "class": "symbolInstance",
      "id": "EC06F909-5FEE-43A0-8C95-A94E23587CA7"
    },
    {
      "class": "text",
      "id": "34589593-299E-4CC7-9195-2C3FC1B1C28E"
    },
    {
      "class": "text",
      "id": "E7C97259-1C61-4641-A914-EE2C2ECE62E4"
    },
    {
      "class": "symbolInstance",
      "id": "1D283D64-917A-472E-813D-C321A135C946"
    },
    {
      "class": "symbolInstance",
      "id": "12938B11-D046-4748-A5DC-B5893133160C"
    },
    {
      "class": "symbolInstance",
      "id": "DE821EFE-2353-4D7B-BD10-785CC0B0E919"
    }
  ],
  "name": "25h8/Chat/Chat List/Hover/Short Title/chat-list-item+entity+notification-bubble",
  "nameIsFixed": true,
  "resizingConstraint": 63,
  "resizingType": 0,
  "rotation": 0,
  "shouldBreakMaskChain": false,
  "style": {
    "_class": "style",
    "do_objectID": "B70F3D59-F5BA-4753-89EB-E74B3C13A1F7",
    "endMarkerType": 0,
    "miterLimit": 10,
    "startMarkerType": 0,
    "windingRule": 1
  }
}