{
  "_class": "symbolMaster",
  "backgroundColor": {
    "_class": "color",
    "alpha": 1,
    "blue": 1,
    "do_objectID": "A5FEE065-AB0A-42DB-9740-828B00EE51F4",
    "green": 1,
    "red": 1
  },
  "booleanOperation": 0,
  "changeIdentifier": 1387,
  "do_objectID": "CF5BD409-8FAB-40A9-84AF-CE0B97F6EFC0",
  "exportOptions": {
    "_class": "exportOptions",
    "do_objectID": "0BF53F60-A90E-4600-B029-E949D2B934D7",
    "exportFormats": [
    ],
    "includedLayerIds": [
    ],
    "layerOptions": 0,
    "shouldTrim": false
  },
  "frame": {
    "_class": "rect",
    "constrainProportions": false,
    "do_objectID": "6948AC7D-F1E4-467D-8741-D5C27B1C1A78",
    "height": 72,
    "width": 72,
    "x": -2218,
    "y": 1264
  },
  "hasBackgroundColor": false,
  "hasClickThrough": false,
  "horizontalRulerData": {
    "_class": "rulerData",
    "base": 0,
    "do_objectID": "B4EAB6A3-6BCE-4499-8E60-0444D8E2D814",
    "guides": [
    ]
  },
  "includeBackgroundColorInExport": true,
  "includeBackgroundColorInInstance": false,
  "includeInCloudUpload": true,
  "isFixedToViewport": false,
  "isFlippedHorizontal": false,
  "isFlippedVertical": false,
  "isFlowHome": false,
  "isLocked": false,
  "isVisible": true,
  "layerListExpandedType": 1,
  "layers": [
    {
      "class": "shapeGroup",
      "id": "16ED79F0-34F6-4DB4-946B-5E536F4C46C8"
    },
    {
      "class": "text",
      "id": "6C91AFD3-35D1-48B5-99E3-197338623309"
    },
    {
      "class": "group",
      "id": "C07DAF0A-DD9D-44FE-AF70-AC70AA67C4A3"
    }
  ],
  "name": "25h8/chat/product-icon-name/documents/documents-active",
  "nameIsFixed": true,
  "originalObjectID": "4DA53197-7BA7-435C-8748-21FB1B337C7E",
  "resizesContent": false,
  "resizingConstraint": 63,
  "resizingType": 0,
  "rotation": 0,
  "shouldBreakMaskChain": true,
  "style": {
    "_class": "style",
    "do_objectID": "A3BE4FD2-7033-41BE-87A2-D2A0DBA87ABB",
    "endMarkerType": 0,
    "miterLimit": 10,
    "startMarkerType": 0,
    "windingRule": 1
  },
  "symbolID": "82F723DD-EF84-4E43-B2A5-F29BC83366EE",
  "verticalRulerData": {
    "_class": "rulerData",
    "base": 0,
    "do_objectID": "6E3D934D-25A8-46BA-AC19-458399931F23",
    "guides": [
    ]
  }
}