{
  "_class": "symbolInstance",
  "booleanOperation": 0,
  "do_objectID": "DAAD0024-F469-4AB9-8411-9FF3255E659B",
  "exportOptions": {
    "_class": "exportOptions",
    "do_objectID": "144C0C97-3311-4C34-A3C7-89D73837996A",
    "exportFormats": [
    ],
    "includedLayerIds": [
    ],
    "layerOptions": 0,
    "shouldTrim": false
  },
  "frame": {
    "_class": "rect",
    "constrainProportions": false,
    "do_objectID": "CE5F0872-545E-47D3-9455-E10172F1847A",
    "height": 80,
    "width": 767.9999999999998,
    "x": 0,
    "y": 320
  },
  "horizontalSpacing": 0,
  "isFixedToViewport": false,
  "isFlippedHorizontal": false,
  "isFlippedVertical": false,
  "isLocked": false,
  "isVisible": true,
  "layerListExpandedType": 0,
  "name": "25h8/chat/chat-list-item",
  "nameIsFixed": false,
  "overrideValues": [
  ],
  "resizingConstraint": 63,
  "resizingType": 0,
  "rotation": 0,
  "scale": 1,
  "shouldBreakMaskChain": false,
  "style": {
    "_class": "style",
    "do_objectID": "FC8DC681-FAF2-4804-A7EA-FD18E89DA660",
    "endMarkerType": 0,
    "miterLimit": 10,
    "startMarkerType": 0,
    "windingRule": 1
  },
  "symbolID": "359A9BD0-A10E-45CA-B6B3-22CDD16204F7",
  "verticalSpacing": 0
}