{
  "_class": "symbolInstance",
  "booleanOperation": 0,
  "do_objectID": "97D93948-8A2D-4799-935E-DDC4B4FFAFF2",
  "exportOptions": {
    "_class": "exportOptions",
    "do_objectID": "BBCCBEB2-4E7B-4AAC-A77E-E67E041BDFFD",
    "exportFormats": [
    ],
    "includedLayerIds": [
    ],
    "layerOptions": 0,
    "shouldTrim": false
  },
  "frame": {
    "_class": "rect",
    "constrainProportions": false,
    "do_objectID": "09810542-5F3C-49F5-9052-248092CFB71A",
    "height": 48,
    "width": 48,
    "x": 2,
    "y": 2
  },
  "horizontalSpacing": 0,
  "isFixedToViewport": false,
  "isFlippedHorizontal": false,
  "isFlippedVertical": false,
  "isLocked": false,
  "isVisible": true,
  "layerListExpandedType": 0,
  "name": "25h8/chat/avatar/4x-avatar",
  "nameIsFixed": false,
  "overrideValues": [
  ],
  "resizingConstraint": 57,
  "resizingType": 0,
  "rotation": 0,
  "scale": 1,
  "shouldBreakMaskChain": false,
  "style": {
    "_class": "style",
    "do_objectID": "2C9347E0-B499-48BC-A815-10750CC06AF9",
    "endMarkerType": 0,
    "miterLimit": 10,
    "startMarkerType": 0,
    "windingRule": 1
  },
  "symbolID": "B625601D-F0DD-499D-BDA9-D993BA4470C2",
  "verticalSpacing": 0
}