{
  "_class": "symbolMaster",
  "backgroundColor": {
    "_class": "color",
    "alpha": 1,
    "blue": 1,
    "do_objectID": "83C06518-8D81-4561-A03A-B6B80E6D67C5",
    "green": 1,
    "red": 1
  },
  "booleanOperation": 0,
  "changeIdentifier": 464,
  "do_objectID": "105A2B76-8AE4-43E3-ABEE-3BFE7644FD44",
  "exportOptions": {
    "_class": "exportOptions",
    "do_objectID": "237BF136-2629-4B9D-828E-6C27BD6920BC",
    "exportFormats": [
      {
        "_class": "exportFormat",
        "absoluteSize": 0,
        "fileFormat": "svg",
        "name": "",
        "namingScheme": 0,
        "scale": 1,
        "visibleScaleType": 0
      }
    ],
    "includedLayerIds": [
    ],
    "layerOptions": 0,
    "shouldTrim": false
  },
  "frame": {
    "_class": "rect",
    "constrainProportions": false,
    "do_objectID": "F5A4226C-0E9D-4461-B88D-E25F3F538F60",
    "height": 40,
    "width": 40,
    "x": 2704,
    "y": 203
  },
  "hasBackgroundColor": false,
  "hasClickThrough": true,
  "horizontalRulerData": {
    "_class": "rulerData",
    "base": 0,
    "do_objectID": "9258845E-4C86-4CF4-8582-B94979C3AA2A",
    "guides": [
    ]
  },
  "includeBackgroundColorInExport": true,
  "includeBackgroundColorInInstance": true,
  "includeInCloudUpload": true,
  "isFixedToViewport": false,
  "isFlippedHorizontal": false,
  "isFlippedVertical": false,
  "isFlowHome": false,
  "isLocked": false,
  "isVisible": true,
  "layerListExpandedType": 2,
  "layers": [
    {
      "class": "shapeGroup",
      "id": "BC790EF3-11DE-4883-91C2-304BEE5A6A42"
    }
  ],
  "name": "25h8/chat/mat-icon-button/person-add/person-add-basic-button",
  "nameIsFixed": true,
  "originalObjectID": "CD9C339A-1EE6-481A-AA95-88FC594F3676",
  "resizesContent": false,
  "resizingConstraint": 63,
  "resizingType": 0,
  "rotation": 0,
  "shouldBreakMaskChain": true,
  "style": {
    "_class": "style",
    "do_objectID": "05CB4FE2-6B1B-432B-93A7-2D47B55F2602",
    "endMarkerType": 0,
    "miterLimit": 10,
    "startMarkerType": 0,
    "windingRule": 1
  },
  "symbolID": "92245C3F-7F6E-4FF6-92E7-E7591FBB1665",
  "verticalRulerData": {
    "_class": "rulerData",
    "base": 0,
    "do_objectID": "F0471D2B-71DE-4538-B80E-13E315156A12",
    "guides": [
    ]
  }
}