{
  "_class": "symbolMaster",
  "backgroundColor": {
    "_class": "color",
    "alpha": 1,
    "blue": 1,
    "do_objectID": "0E0845BC-0BA8-437A-A64D-6C091883CD18",
    "green": 1,
    "red": 1
  },
  "booleanOperation": 0,
  "changeIdentifier": 977,
  "do_objectID": "5E2C155E-1AE5-46A6-B365-36333B35497F",
  "exportOptions": {
    "_class": "exportOptions",
    "do_objectID": "47A098BB-C74F-4058-AFE1-CC0C7805210C",
    "exportFormats": [
    ],
    "includedLayerIds": [
    ],
    "layerOptions": 0,
    "shouldTrim": false
  },
  "frame": {
    "_class": "rect",
    "constrainProportions": false,
    "do_objectID": "C1B7B72C-F85D-4A13-A1D0-0A18B85AC938",
    "height": 64,
    "width": 1209,
    "x": -1351,
    "y": -66
  },
  "hasBackgroundColor": false,
  "hasClickThrough": true,
  "horizontalRulerData": {
    "_class": "rulerData",
    "base": 0,
    "do_objectID": "96AF814F-26EA-44AA-8506-B2B798147B32",
    "guides": [
    ]
  },
  "includeBackgroundColorInExport": true,
  "includeBackgroundColorInInstance": false,
  "includeInCloudUpload": true,
  "isFixedToViewport": false,
  "isFlippedHorizontal": false,
  "isFlippedVertical": false,
  "isFlowHome": false,
  "isLocked": false,
  "isVisible": true,
  "layerListExpandedType": 1,
  "layers": [
    {
      "class": "group",
      "id": "C424932F-1110-4C3D-84B6-8B0775472979"
    }
  ],
  "name": "25h8/chat/mat-toolbar/mat-toolbar-menu",
  "nameIsFixed": true,
  "resizesContent": false,
  "resizingConstraint": 63,
  "resizingType": 0,
  "rotation": 0,
  "shouldBreakMaskChain": true,
  "style": {
    "_class": "style",
    "do_objectID": "8A92342B-CF7A-4672-899B-6763DC3B417B",
    "endMarkerType": 0,
    "miterLimit": 10,
    "startMarkerType": 0,
    "windingRule": 1
  },
  "symbolID": "0F174FB5-6671-4B35-83CC-B865989B0697",
  "verticalRulerData": {
    "_class": "rulerData",
    "base": 0,
    "do_objectID": "33898BEA-68C8-429C-BA3B-195D33134525",
    "guides": [
    ]
  }
}