{
  "_class": "symbolMaster",
  "backgroundColor": {
    "_class": "color",
    "alpha": 1,
    "blue": 1,
    "do_objectID": "7EF20276-1D69-4CFD-909F-92EEA9235DED",
    "green": 1,
    "red": 1
  },
  "booleanOperation": 0,
  "changeIdentifier": 414,
  "do_objectID": "62055127-D4A1-4D32-A818-A206D028B807",
  "exportOptions": {
    "_class": "exportOptions",
    "do_objectID": "C95D092B-249D-4C36-8EE4-14DFEC9C3B5D",
    "exportFormats": [
      {
        "_class": "exportFormat",
        "absoluteSize": 0,
        "fileFormat": "svg",
        "name": "",
        "namingScheme": 0,
        "scale": 1,
        "visibleScaleType": 0
      }
    ],
    "includedLayerIds": [
    ],
    "layerOptions": 0,
    "shouldTrim": false
  },
  "frame": {
    "_class": "rect",
    "constrainProportions": false,
    "do_objectID": "0E2F3A9C-20F7-4A1E-8916-25ED5DF56574",
    "height": 24,
    "width": 24,
    "x": 2828,
    "y": -887
  },
  "hasBackgroundColor": false,
  "hasClickThrough": true,
  "horizontalRulerData": {
    "_class": "rulerData",
    "base": 0,
    "do_objectID": "D682717F-A14D-434B-8AC7-16D0F5CA742B",
    "guides": [
    ]
  },
  "includeBackgroundColorInExport": true,
  "includeBackgroundColorInInstance": false,
  "includeInCloudUpload": true,
  "isFixedToViewport": false,
  "isFlippedHorizontal": false,
  "isFlippedVertical": false,
  "isFlowHome": false,
  "isLocked": false,
  "isVisible": true,
  "layerListExpandedType": 0,
  "layers": [
    {
      "class": "shapeGroup",
      "id": "40600EE1-A6C4-4274-8030-6FF4CCF33B06"
    },
    {
      "class": "shapeGroup",
      "id": "18731278-6C23-4CE5-9C65-93CC6A590344"
    }
  ],
  "name": "25h8/chat/icons/digital-signification",
  "nameIsFixed": true,
  "originalObjectID": "DAE589B6-EB9A-443E-9015-364D2E1962B2",
  "resizesContent": false,
  "resizingConstraint": 63,
  "resizingType": 0,
  "rotation": 0,
  "shouldBreakMaskChain": true,
  "style": {
    "_class": "style",
    "do_objectID": "51BD6414-783D-491D-B063-2D6E38CCEBE3",
    "endMarkerType": 0,
    "miterLimit": 10,
    "startMarkerType": 0,
    "windingRule": 1
  },
  "symbolID": "87406BD1-3A21-444C-8C03-6AA410237C62",
  "verticalRulerData": {
    "_class": "rulerData",
    "base": 0,
    "do_objectID": "023C9664-393B-43BE-9F76-F9F5C1AF26A8",
    "guides": [
    ]
  }
}