{
  "_class": "shapePath",
  "booleanOperation": -1,
  "do_objectID": "162362EB-5331-496A-99CC-BCDA0B541359",
  "edited": true,
  "exportOptions": {
    "_class": "exportOptions",
    "do_objectID": "EF939348-06A2-4E23-9CEA-CDF0563C13AE",
    "exportFormats": [
    ],
    "includedLayerIds": [
    ],
    "layerOptions": 0,
    "shouldTrim": false
  },
  "frame": {
    "_class": "rect",
    "constrainProportions": false,
    "do_objectID": "A6FCA418-9B9B-45E4-BC5B-561348E7230D",
    "height": 3.600000000000001,
    "width": 4.300000000000001,
    "x": 3.100000000000364,
    "y": 14
  },
  "isClosed": true,
  "isFixedToViewport": false,
  "isFlippedHorizontal": false,
  "isFlippedVertical": false,
  "isLocked": false,
  "isVisible": true,
  "layerListExpandedType": 0,
  "name": "Path",
  "nameIsFixed": false,
  "pointRadiusBehaviour": 0,
  "points": [
    {
      "_class": "curvePoint",
      "cornerRadius": 0,
      "curveFrom": "{0, 0}",
      "curveMode": 1,
      "curveTo": "{0, 0}",
      "hasCurveFrom": false,
      "hasCurveTo": false,
      "point": "{0, 0}"
    },
    {
      "_class": "curvePoint",
      "cornerRadius": 0,
      "curveFrom": "{0.74418604651162801, 0.36111111111111116}",
      "curveMode": 4,
      "curveTo": "{0.67441860465116277, 0}",
      "hasCurveFrom": true,
      "hasCurveTo": false,
      "point": "{0.67441860465116277, 0}"
    },
    {
      "_class": "curvePoint",
      "cornerRadius": 0,
      "curveFrom": "{0.58139534883720922, 0.8055555555555548}",
      "curveMode": 4,
      "curveTo": "{0.86046511627906985, 0.66666666666666596}",
      "hasCurveFrom": true,
      "hasCurveTo": true,
      "point": "{1, 1}"
    },
    {
      "_class": "curvePoint",
      "cornerRadius": 0,
      "curveFrom": "{0, 0}",
      "curveMode": 4,
      "curveTo": "{0.20930232558139539, 0.47222222222222182}",
      "hasCurveFrom": false,
      "hasCurveTo": true,
      "point": "{0, 0}"
    }
  ],
  "resizingConstraint": 63,
  "resizingType": 0,
  "rotation": 0,
  "shouldBreakMaskChain": false
}