{
  "_class": "shapeGroup",
  "booleanOperation": 0,
  "clippingMaskMode": 0,
  "do_objectID": "2C36DB94-7E9D-468E-BD73-4B81EFBA0E9A",
  "exportOptions": {
    "_class": "exportOptions",
    "exportFormats": [
    ],
    "includedLayerIds": [
    ],
    "layerOptions": 0,
    "shouldTrim": false
  },
  "frame": {
    "_class": "rect",
    "constrainProportions": false,
    "height": 10,
    "width": 10,
    "x": 1.166666666666742,
    "y": 1.166666666666629
  },
  "hasClickThrough": false,
  "hasClippingMask": false,
  "isFixedToViewport": false,
  "isFlippedHorizontal": false,
  "isFlippedVertical": false,
  "isLocked": false,
  "isVisible": true,
  "layerListExpandedType": 0,
  "layers": [
    {
      "class": "shapePath",
      "id": "C3F739C4-8C1C-4095-979B-5F432A6BD15C"
    },
    {
      "class": "shapePath",
      "id": "78D8409C-0908-4B96-9C53-812551971584"
    },
    {
      "class": "shapePath",
      "id": "F1EB2A41-A142-45BA-8317-BDEFB9B24C19"
    },
    {
      "class": "shapePath",
      "id": "A32B0BB8-7D31-414E-ABFB-CB7FC20F06A3"
    }
  ],
  "name": "Shape",
  "nameIsFixed": false,
  "originalObjectID": "028CEA7A-24E7-4C4B-85A4-6E7A2EACCEA8",
  "resizingConstraint": 63,
  "resizingType": 0,
  "rotation": 0,
  "shouldBreakMaskChain": false,
  "style": {
    "_class": "style",
    "endMarkerType": 0,
    "fills": [
      {
        "_class": "fill",
        "color": {
          "_class": "color",
          "alpha": 1,
          "blue": 1,
          "green": 1,
          "red": 1
        },
        "fillType": 0,
        "isEnabled": true,
        "noiseIndex": 0,
        "noiseIntensity": 0,
        "patternFillType": 1,
        "patternTileScale": 1
      }
    ],
    "miterLimit": 10,
    "startMarkerType": 0,
    "windingRule": 1
  },
  "windingRule": 1
}