{
  "_class": "shapeGroup",
  "booleanOperation": 0,
  "clippingMaskMode": 0,
  "do_objectID": "76379CE2-E26C-4032-B352-71B2A8C08A27",
  "exportOptions": {
    "_class": "exportOptions",
    "do_objectID": "C23F8FEA-9C90-4687-9B62-0D11BA27E31A",
    "exportFormats": [
    ],
    "includedLayerIds": [
    ],
    "layerOptions": 0,
    "shouldTrim": false
  },
  "frame": {
    "_class": "rect",
    "constrainProportions": false,
    "do_objectID": "5C4041BB-AEEB-4502-9B25-44E1EDCC53A5",
    "height": 40,
    "width": 288,
    "x": 8,
    "y": 4
  },
  "hasClickThrough": false,
  "hasClippingMask": true,
  "isFixedToViewport": false,
  "isFlippedHorizontal": false,
  "isFlippedVertical": false,
  "isLocked": false,
  "isVisible": true,
  "layerListExpandedType": 0,
  "layers": [
    {
      "class": "rectangle",
      "id": "BC0A2F4B-08BD-4E4A-91FA-30903ABE8741"
    }
  ],
  "name": "overlay bg",
  "nameIsFixed": true,
  "originalObjectID": "CE860E75-4C59-49E9-8B39-5794227061C8",
  "resizingConstraint": 63,
  "resizingType": 0,
  "rotation": 0,
  "shouldBreakMaskChain": true,
  "style": {
    "_class": "style",
    "do_objectID": "99EF5D9A-3348-4B87-BC3B-21A965DD5D35",
    "endMarkerType": 0,
    "miterLimit": 10,
    "sharedObjectID": "47B8F8CE-DC0F-49E7-9424-8D54C646944A",
    "startMarkerType": 0,
    "windingRule": 0
  },
  "windingRule": 0
}