{
  "_class": "shapeGroup",
  "booleanOperation": 0,
  "clippingMaskMode": 0,
  "do_objectID": "40600EE1-A6C4-4274-8030-6FF4CCF33B06",
  "exportOptions": {
    "_class": "exportOptions",
    "do_objectID": "6ECE1F79-3671-42A9-9186-A94FD1419924",
    "exportFormats": [
    ],
    "includedLayerIds": [
    ],
    "layerOptions": 0,
    "shouldTrim": false
  },
  "frame": {
    "_class": "rect",
    "constrainProportions": true,
    "do_objectID": "9742B851-705A-48DD-80FA-3A21E38C1034",
    "height": 24,
    "width": 24,
    "x": 0,
    "y": 0
  },
  "hasClickThrough": false,
  "hasClippingMask": false,
  "isFixedToViewport": false,
  "isFlippedHorizontal": false,
  "isFlippedVertical": false,
  "isLocked": false,
  "isVisible": true,
  "layerListExpandedType": 0,
  "layers": [
    {
      "class": "rectangle",
      "id": "87136FFF-6500-495F-A898-E95E62F02335"
    }
  ],
  "name": "24x24",
  "nameIsFixed": true,
  "originalObjectID": "87AA35DB-6F3C-4D5B-80DD-A0D63CAF07DD",
  "resizingConstraint": 63,
  "resizingType": 0,
  "rotation": 0,
  "shouldBreakMaskChain": false,
  "style": {
    "_class": "style",
    "do_objectID": "01AD3FDF-8DA4-4E27-957F-985E6EA39CA9",
    "endMarkerType": 0,
    "miterLimit": 10,
    "startMarkerType": 0,
    "windingRule": 1
  },
  "windingRule": 1
}