{
  "_class": "group",
  "booleanOperation": 0,
  "do_objectID": "900F6146-1491-4698-A859-E256AA079BD8",
  "exportOptions": {
    "_class": "exportOptions",
    "do_objectID": "D1BEC52A-B314-480E-B270-658094BA379E",
    "exportFormats": [
    ],
    "includedLayerIds": [
    ],
    "layerOptions": 0,
    "shouldTrim": false
  },
  "frame": {
    "_class": "rect",
    "constrainProportions": false,
    "do_objectID": "78ED1795-AFCF-4D06-8660-8FE27A044140",
    "height": 60,
    "width": 276,
    "x": 0,
    "y": 134
  },
  "hasClickThrough": false,
  "isFixedToViewport": false,
  "isFlippedHorizontal": false,
  "isFlippedVertical": false,
  "isLocked": false,
  "isVisible": true,
  "layerListExpandedType": 1,
  "layers": [
    {
      "class": "shapeGroup",
      "id": "E2864054-B75B-4993-89BB-1D6C59DD7590"
    },
    {
      "class": "text",
      "id": "AA089BFF-F866-4252-B57F-4DAD9CA31A62"
    },
    {
      "class": "text",
      "id": "E7F8C7AD-7315-4A2C-994B-9A332FCD3CF7"
    },
    {
      "class": "text",
      "id": "F4994E14-4DF7-490E-892F-E60367E28D00"
    },
    {
      "class": "shapeGroup",
      "id": "0F3D7ECF-0379-4B73-91AF-BDEF4C84F03A"
    },
    {
      "class": "shapeGroup",
      "id": "4ED6D2E8-3219-4880-AC0B-2D643914119B"
    }
  ],
  "name": "Dense two-line list with double avatar/normal",
  "nameIsFixed": true,
  "resizingConstraint": 63,
  "resizingType": 0,
  "rotation": 0,
  "shouldBreakMaskChain": false,
  "style": {
    "_class": "style",
    "do_objectID": "9622E25B-409C-4C13-A6A2-984DBEFF29EA",
    "endMarkerType": 0,
    "miterLimit": 10,
    "startMarkerType": 0,
    "windingRule": 1
  },
  "userInfo": {
    "com.animaapp.stc-sketch-plugin": {
      "kModelPropertiesKey": {
      }
    }
  }
}