{
  "_class": "symbolInstance",
  "booleanOperation": 0,
  "do_objectID": "78CD9760-4A94-4967-B4AD-A781E2445477",
  "exportOptions": {
    "_class": "exportOptions",
    "do_objectID": "5D8A7D63-9F6B-406C-A9CF-6FF136AC4AD1",
    "exportFormats": [
    ],
    "includedLayerIds": [
    ],
    "layerOptions": 0,
    "shouldTrim": false
  },
  "frame": {
    "_class": "rect",
    "constrainProportions": false,
    "do_objectID": "DE4C70DC-C7FC-4090-89CE-61D1ADA3F34A",
    "height": 64,
    "width": 72,
    "x": 0,
    "y": -1
  },
  "horizontalSpacing": 0,
  "isFixedToViewport": false,
  "isFlippedHorizontal": false,
  "isFlippedVertical": false,
  "isLocked": false,
  "isVisible": true,
  "layerListExpandedType": 0,
  "name": "25h8/chat/buttons/launchpad-button",
  "nameIsFixed": false,
  "overrideValues": [
  ],
  "resizingConstraint": 63,
  "resizingType": 0,
  "rotation": 0,
  "scale": 1,
  "shouldBreakMaskChain": false,
  "style": {
    "_class": "style",
    "do_objectID": "EE8255D3-62EA-419F-9F77-DEB3EDC42997",
    "endMarkerType": 0,
    "miterLimit": 10,
    "startMarkerType": 0,
    "windingRule": 1
  },
  "symbolID": "BFD688D4-581C-4195-BC5C-3DF9C150A693",
  "verticalSpacing": 0
}