{
  "_class": "symbolInstance",
  "booleanOperation": 0,
  "do_objectID": "D689989F-9FBE-4695-A568-63F5785D50E1",
  "exportOptions": {
    "_class": "exportOptions",
    "do_objectID": "E4567B4A-D762-46A2-A50D-F1B7441C4522",
    "exportFormats": [
    ],
    "includedLayerIds": [
    ],
    "layerOptions": 0,
    "shouldTrim": false
  },
  "frame": {
    "_class": "rect",
    "constrainProportions": false,
    "do_objectID": "6F1D554A-2068-4E5B-B974-5BE2DDD9C190",
    "height": 26,
    "width": 150,
    "x": 72,
    "y": 19
  },
  "horizontalSpacing": 0,
  "isFixedToViewport": false,
  "isFlippedHorizontal": false,
  "isFlippedVertical": false,
  "isLocked": false,
  "isVisible": true,
  "layerListExpandedType": 0,
  "name": "25h8-logo",
  "nameIsFixed": false,
  "overrideValues": [
  ],
  "resizingConstraint": 63,
  "resizingType": 0,
  "rotation": 0,
  "scale": 1,
  "shouldBreakMaskChain": false,
  "style": {
    "_class": "style",
    "do_objectID": "0FC2F748-DA68-4969-ADD2-DDC066E44E0B",
    "endMarkerType": 0,
    "miterLimit": 10,
    "startMarkerType": 0,
    "windingRule": 1
  },
  "symbolID": "95EF3B46-4118-4642-A91E-8A9B48CCB894",
  "verticalSpacing": 0
}