{
  "_class": "shapeGroup",
  "booleanOperation": 0,
  "clippingMaskMode": 0,
  "do_objectID": "6A322892-D0E5-490C-A678-595EAB8FBD03",
  "exportOptions": {
    "_class": "exportOptions",
    "exportFormats": [
    ],
    "includedLayerIds": [
    ],
    "layerOptions": 0,
    "shouldTrim": false
  },
  "frame": {
    "_class": "rect",
    "constrainProportions": false,
    "height": 20,
    "width": 20,
    "x": 2,
    "y": 2
  },
  "hasClickThrough": false,
  "hasClippingMask": false,
  "isFixedToViewport": false,
  "isFlippedHorizontal": false,
  "isFlippedVertical": false,
  "isLocked": false,
  "isVisible": true,
  "layerListExpandedType": 1,
  "layers": [
    {
      "class": "shapePath",
      "id": "25A33A13-AAB0-4CE1-B1A1-F742EFB1777C"
    },
    {
      "class": "shapePath",
      "id": "EF3D3082-70DD-4CB8-92A5-6B456602D4DC"
    },
    {
      "class": "shapePath",
      "id": "9B2F70CF-BAF6-4A97-BF8A-C18C3582D767"
    },
    {
      "class": "shapePath",
      "id": "0DFE69C8-7087-467A-997C-1387F1D8017F"
    }
  ],
  "name": "Shape",
  "nameIsFixed": false,
  "resizingConstraint": 63,
  "resizingType": 0,
  "rotation": 0,
  "shouldBreakMaskChain": false,
  "style": {
    "_class": "style",
    "endMarkerType": 0,
    "fills": [
      {
        "_class": "fill",
        "color": {
          "_class": "color",
          "alpha": 1,
          "blue": 1,
          "green": 1,
          "red": 1
        },
        "fillType": 0,
        "isEnabled": true,
        "noiseIndex": 0,
        "noiseIntensity": 0,
        "patternFillType": 1,
        "patternTileScale": 1
      }
    ],
    "miterLimit": 10,
    "sharedObjectID": "BACEE34A-4497-4B96-8634-95002DF57F2F",
    "startMarkerType": 0,
    "windingRule": 0
  },
  "windingRule": 0
}