{
  "_class": "symbolInstance",
  "booleanOperation": 0,
  "do_objectID": "23904610-1E47-4F3F-9FBA-FBF297473700",
  "exportOptions": {
    "_class": "exportOptions",
    "do_objectID": "58DE3419-72D1-46AA-9828-2CB34730EE79",
    "exportFormats": [
    ],
    "includedLayerIds": [
    ],
    "layerOptions": 0,
    "shouldTrim": false
  },
  "frame": {
    "_class": "rect",
    "constrainProportions": false,
    "do_objectID": "CF9859EE-9244-41DC-B0A9-3B868CADABAE",
    "height": 48,
    "width": 48,
    "x": 48,
    "y": 6
  },
  "horizontalSpacing": 0,
  "isFixedToViewport": false,
  "isFlippedHorizontal": false,
  "isFlippedVertical": false,
  "isLocked": false,
  "isVisible": true,
  "layerListExpandedType": 0,
  "name": "avatar",
  "nameIsFixed": true,
  "overrideValues": [
  ],
  "resizingConstraint": 57,
  "resizingType": 0,
  "rotation": 0,
  "scale": 1,
  "shouldBreakMaskChain": false,
  "style": {
    "_class": "style",
    "do_objectID": "BC1B533D-48F6-42ED-85C1-7B0C5485C7CD",
    "endMarkerType": 0,
    "miterLimit": 10,
    "startMarkerType": 0,
    "windingRule": 1
  },
  "symbolID": "AB2CCBC2-163B-4B1C-9103-792719EF3B27",
  "verticalSpacing": 0
}