{
  "_class": "symbolMaster",
  "backgroundColor": {
    "_class": "color",
    "alpha": 1,
    "blue": 1,
    "do_objectID": "5D29B461-E26A-44E4-AE67-014882BC81AB",
    "green": 1,
    "red": 1
  },
  "booleanOperation": 0,
  "changeIdentifier": 2058,
  "do_objectID": "69EF24D9-17C3-4753-8C2C-D649C0EB57E5",
  "exportOptions": {
    "_class": "exportOptions",
    "do_objectID": "587AD46C-A534-4171-90A2-7230A314EA5A",
    "exportFormats": [
    ],
    "includedLayerIds": [
    ],
    "layerOptions": 0,
    "shouldTrim": false
  },
  "frame": {
    "_class": "rect",
    "constrainProportions": false,
    "do_objectID": "A2745083-0D12-473D-B2BF-4497D92233ED",
    "height": 60,
    "width": 888,
    "x": 3212,
    "y": -2190
  },
  "hasBackgroundColor": false,
  "hasClickThrough": true,
  "horizontalRulerData": {
    "_class": "rulerData",
    "base": 0,
    "do_objectID": "16AD430D-C512-4FC8-ACC1-94D15D0CFCDE",
    "guides": [
    ]
  },
  "includeBackgroundColorInExport": true,
  "includeBackgroundColorInInstance": false,
  "includeInCloudUpload": true,
  "isFixedToViewport": false,
  "isFlippedHorizontal": false,
  "isFlippedVertical": false,
  "isFlowHome": false,
  "isLocked": false,
  "isVisible": true,
  "layerListExpandedType": 2,
  "layers": [
    {
      "class": "shapeGroup",
      "id": "82E604C8-728E-46CE-A7A9-4BDA48046E5F"
    },
    {
      "class": "symbolInstance",
      "id": "C4073604-8C42-4B0A-96D7-9FDA08677F7E"
    },
    {
      "class": "symbolInstance",
      "id": "CFADFC1C-AF5C-455E-83A9-38B862FDC4B8"
    },
    {
      "class": "symbolInstance",
      "id": "0956C4C2-3BD6-46EB-A384-4D918042331B"
    },
    {
      "class": "symbolInstance",
      "id": "024B1C10-5684-4BCA-BA0B-6349C02062E8"
    },
    {
      "class": "symbolInstance",
      "id": "05045CB2-3EB2-4802-815A-8A917A36135B"
    },
    {
      "class": "text",
      "id": "58DF2774-F015-4276-8C50-B87E8FEF19CE"
    },
    {
      "class": "text",
      "id": "404EE40F-4946-4577-8545-F93560869EF2"
    },
    {
      "class": "symbolInstance",
      "id": "23904610-1E47-4F3F-9FBA-FBF297473700"
    },
    {
      "class": "symbolInstance",
      "id": "36A42F6D-CBCE-4A15-951B-E0035F620E76"
    }
  ],
  "name": "25h8/chat/chat-area/chat-header/chat-header-direct-default",
  "nameIsFixed": true,
  "resizesContent": false,
  "resizingConstraint": 63,
  "resizingType": 0,
  "rotation": 0,
  "shouldBreakMaskChain": true,
  "style": {
    "_class": "style",
    "do_objectID": "796D64AF-3398-4731-BC9A-806FD7856934",
    "endMarkerType": 0,
    "miterLimit": 10,
    "startMarkerType": 0,
    "windingRule": 1
  },
  "symbolID": "0F46561D-44FD-4117-957F-B338664F8956",
  "verticalRulerData": {
    "_class": "rulerData",
    "base": 0,
    "do_objectID": "B8CFBAE6-6554-4515-B6A6-FDD774355443",
    "guides": [
    ]
  }
}