{
  "_class": "shapePath",
  "booleanOperation": -1,
  "do_objectID": "BCC0AAEC-F7F3-46F0-B129-94DCA7C7BFCB",
  "edited": true,
  "exportOptions": {
    "_class": "exportOptions",
    "do_objectID": "692B688B-A123-4F76-B4D3-FDC415721A54",
    "exportFormats": [
    ],
    "includedLayerIds": [
    ],
    "layerOptions": 0,
    "shouldTrim": false
  },
  "frame": {
    "_class": "rect",
    "constrainProportions": false,
    "do_objectID": "656F915B-3455-46E7-AD7F-F9E1B3AADD31",
    "height": 28.49390098484378,
    "width": 30.15971767029066,
    "x": 0,
    "y": 0
  },
  "isClosed": true,
  "isFixedToViewport": false,
  "isFlippedHorizontal": false,
  "isFlippedVertical": false,
  "isLocked": false,
  "isVisible": true,
  "layerListExpandedType": 0,
  "name": "Path",
  "nameIsFixed": false,
  "pointRadiusBehaviour": 0,
  "points": [
    {
      "_class": "curvePoint",
      "cornerRadius": 0,
      "curveFrom": "{0.12340985891139215, 0.38340133195290943}",
      "curveMode": 1,
      "curveTo": "{0.089574138494949204, 0.44401071585999369}",
      "hasCurveFrom": false,
      "hasCurveTo": false,
      "point": "{0.089574138494949204, 0.44401071585999369}"
    },
    {
      "_class": "curvePoint",
      "cornerRadius": 0,
      "curveFrom": "{0.020429436853764041, 0.17614269197706667}",
      "curveMode": 3,
      "curveTo": "{-0.027706282082496207, 0.26236743413546049}",
      "hasCurveFrom": true,
      "hasCurveTo": true,
      "point": "{0.0061294383339466681, 0.20175805022837648}"
    },
    {
      "_class": "curvePoint",
      "cornerRadius": 0,
      "curveFrom": "{0.19782265899207677, -0.026682216689031597}",
      "curveMode": 2,
      "curveTo": "{0.058349875071235235, 0.060968082874508417}",
      "hasCurveFrom": true,
      "hasCurveTo": true,
      "point": "{0.1280862670316559, 0.017142933092738427}"
    },
    {
      "_class": "curvePoint",
      "cornerRadius": 0,
      "curveFrom": "{0.42159420245900081, 0.027351572021086519}",
      "curveMode": 1,
      "curveTo": "{0.42159420245900081, 0.027351572021086519}",
      "hasCurveFrom": false,
      "hasCurveTo": false,
      "point": "{0.42159420245900081, 0.027351572021086519}"
    },
    {
      "_class": "curvePoint",
      "cornerRadius": 0,
      "curveFrom": "{0.93113976581116031, 0.65537291223902694}",
      "curveMode": 1,
      "curveTo": "{1, 0.57857675718486379}",
      "hasCurveFrom": false,
      "hasCurveTo": false,
      "point": "{1, 0.57857675718486379}"
    },
    {
      "_class": "curvePoint",
      "cornerRadius": 0,
      "curveFrom": "{0.76400607356821182, 0.92753040613147508}",
      "curveMode": 2,
      "curveTo": "{0.94022032532535504, 0.72884077171153661}",
      "hasCurveFrom": true,
      "hasCurveTo": true,
      "point": "{0.85211319944678343, 0.82818558892150584}"
    },
    {
      "_class": "curvePoint",
      "cornerRadius": 0,
      "curveFrom": "{0.63593949082242041, 1}",
      "curveMode": 1,
      "curveTo": "{0.69597238753349855, 0.9330485047214423}",
      "hasCurveFrom": false,
      "hasCurveTo": false,
      "point": "{0.63593949082242041, 1}"
    }
  ],
  "resizingConstraint": 63,
  "resizingType": 0,
  "rotation": 0,
  "shouldBreakMaskChain": false
}