{
  "_class": "shapePath",
  "booleanOperation": -1,
  "do_objectID": "7D63237F-7903-4C6B-A966-B90BE1BBDCFC",
  "edited": true,
  "exportOptions": {
    "_class": "exportOptions",
    "exportFormats": [
    ],
    "includedLayerIds": [
    ],
    "layerOptions": 0,
    "shouldTrim": false
  },
  "frame": {
    "_class": "rect",
    "constrainProportions": false,
    "height": 19.2,
    "width": 18.66622877812944,
    "x": -5.551115123125785e-17,
    "y": 0
  },
  "isClosed": true,
  "isFixedToViewport": false,
  "isFlippedHorizontal": false,
  "isFlippedVertical": false,
  "isLocked": false,
  "isVisible": true,
  "layerListExpandedType": 0,
  "name": "Path",
  "nameIsFixed": false,
  "pointRadiusBehaviour": 1,
  "points": [
    {
      "_class": "curvePoint",
      "cornerRadius": 0,
      "curveFrom": "{0.88572333413356552, 0.48312500000000014}",
      "curveMode": 2,
      "curveTo": "{0.88572333413356552, 0.51687500000000008}",
      "hasCurveFrom": true,
      "hasCurveTo": true,
      "point": "{0.88572333413356552, 0.50000000000000011}"
    },
    {
      "_class": "curvePoint",
      "cornerRadius": 0,
      "curveFrom": "{0.88186610079222993, 0.45125000000000015}",
      "curveMode": 4,
      "curveTo": "{0.88443758968645358, 0.46687500000000015}",
      "hasCurveFrom": false,
      "hasCurveTo": true,
      "point": "{0.88186610079222993, 0.45125000000000015}"
    },
    {
      "_class": "curvePoint",
      "cornerRadius": 0,
      "curveFrom": "{1.0001545899265232, 0.36125000000000007}",
      "curveMode": 4,
      "curveTo": "{0.9905115065731841, 0.36875000000000008}",
      "hasCurveFrom": true,
      "hasCurveTo": false,
      "point": "{0.9905115065731841, 0.36875000000000008}"
    },
    {
      "_class": "curvePoint",
      "cornerRadius": 0,
      "curveFrom": "{0.99694022880874356, 0.33687500000000009}",
      "curveMode": 4,
      "curveTo": "{1.002726078820747, 0.34750000000000009}",
      "hasCurveFrom": false,
      "hasCurveTo": true,
      "point": "{0.99694022880874356, 0.33687500000000009}"
    },
    {
      "_class": "curvePoint",
      "cornerRadius": 0,
      "curveFrom": "{0.8876519508042332, 0.15250000000000011}",
      "curveMode": 4,
      "curveTo": "{0.89408067303979266, 0.16375000000000009}",
      "hasCurveFrom": true,
      "hasCurveTo": false,
      "point": "{0.89408067303979266, 0.16375000000000009}"
    },
    {
      "_class": "curvePoint",
      "cornerRadius": 0,
      "curveFrom": "{0.86257993408555156, 0.15250000000000011}",
      "curveMode": 4,
      "curveTo": "{0.87415163410955854, 0.14875000000000008}",
      "hasCurveFrom": false,
      "hasCurveTo": true,
      "point": "{0.86257993408555156, 0.15250000000000011}"
    },
    {
      "_class": "curvePoint",
      "cornerRadius": 0,
      "curveFrom": "{0.70764772820856947, 0.18250000000000008}",
      "curveMode": 4,
      "curveTo": "{0.73464836159791891, 0.20250000000000012}",
      "hasCurveFrom": true,
      "hasCurveTo": false,
      "point": "{0.73464836159791891, 0.20250000000000012}"
    },
    {
      "_class": "curvePoint",
      "cornerRadius": 0,
      "curveFrom": "{0.64786061141786677, 0.15375000000000008}",
      "curveMode": 4,
      "curveTo": "{0.67936135037210788, 0.16625000000000009}",
      "hasCurveFrom": false,
      "hasCurveTo": true,
      "point": "{0.64786061141786677, 0.15375000000000008}"
    },
    {
      "_class": "curvePoint",
      "cornerRadius": 0,
      "curveFrom": "{0.62664582804052082, 0.0087499999999999956}",
      "curveMode": 4,
      "curveTo": "{0.62857444471118851, 0.021250000000000008}",
      "hasCurveFrom": true,
      "hasCurveTo": false,
      "point": "{0.62857444471118851, 0.021250000000000008}"
    },
    {
      "_class": "curvePoint",
      "cornerRadius": 0,
      "curveFrom": "{0.60285955576895089, 0}",
      "curveMode": 4,
      "curveTo": "{0.6157170002400697, 0}",
      "hasCurveFrom": false,
      "hasCurveTo": true,
      "point": "{0.60285955576895089, 0}"
    },
    {
      "_class": "curvePoint",
      "cornerRadius": 0,
      "curveFrom": "{0.38428299975993047, 0}",
      "curveMode": 4,
      "curveTo": "{0.39714044423104927, 0}",
      "hasCurveFrom": true,
      "hasCurveTo": false,
      "point": "{0.39714044423104927, 0}"
    },
    {
      "_class": "curvePoint",
      "cornerRadius": 0,
      "curveFrom": "{0.37206842751236746, 0.021250000000000008}",
      "curveMode": 4,
      "curveTo": "{0.37399704418303537, 0.0087499999999999956}",
      "hasCurveFrom": false,
      "hasCurveTo": true,
      "point": "{0.37206842751236746, 0.021250000000000008}"
    },
    {
      "_class": "curvePoint",
      "cornerRadius": 0,
      "curveFrom": "{0.32128152185144804, 0.16625000000000004}",
      "curveMode": 4,
      "curveTo": "{0.3527822608056892, 0.15375000000000003}",
      "hasCurveFrom": true,
      "hasCurveTo": false,
      "point": "{0.3527822608056892, 0.15375000000000003}"
    },
    {
      "_class": "curvePoint",
      "cornerRadius": 0,
      "curveFrom": "{0.26599451062563695, 0.20250000000000007}",
      "curveMode": 4,
      "curveTo": "{0.29235227179143058, 0.18312500000000001}",
      "hasCurveFrom": false,
      "hasCurveTo": true,
      "point": "{0.26599451062563695, 0.20250000000000007}"
    },
    {
      "_class": "curvePoint",
      "cornerRadius": 0,
      "curveFrom": "{0.12649123811399743, 0.14812500000000003}",
      "curveMode": 4,
      "curveTo": "{0.13806293813800438, 0.15250000000000005}",
      "hasCurveFrom": true,
      "hasCurveTo": false,
      "point": "{0.13806293813800438, 0.15250000000000005}"
    },
    {
      "_class": "curvePoint",
      "cornerRadius": 0,
      "curveFrom": "{0.10656219918376318, 0.16375000000000003}",
      "curveMode": 4,
      "curveTo": "{0.11299092141932261, 0.15250000000000005}",
      "hasCurveFrom": false,
      "hasCurveTo": true,
      "point": "{0.10656219918376318, 0.16375000000000003}"
    },
    {
      "_class": "curvePoint",
      "cornerRadius": 0,
      "curveFrom": "{-0.0027260788207470444, 0.34812500000000007}",
      "curveMode": 4,
      "curveTo": "{0.0037026434148123865, 0.33687500000000009}",
      "hasCurveFrom": true,
      "hasCurveTo": false,
      "point": "{0.0037026434148123865, 0.33687500000000009}"
    },
    {
      "_class": "curvePoint",
      "cornerRadius": 0,
      "curveFrom": "{0.010131365650371817, 0.36875000000000008}",
      "curveMode": 4,
      "curveTo": "{-0.00015458992652327198, 0.36125000000000007}",
      "hasCurveFrom": false,
      "hasCurveTo": true,
      "point": "{0.010131365650371817, 0.36875000000000008}"
    },
    {
      "_class": "curvePoint",
      "cornerRadius": 0,
      "curveFrom": "{0.11620528253710229, 0.46687500000000015}",
      "curveMode": 4,
      "curveTo": "{0.11877677143132606, 0.45125000000000015}",
      "hasCurveFrom": true,
      "hasCurveTo": false,
      "point": "{0.11877677143132606, 0.45125000000000015}"
    },
    {
      "_class": "curvePoint",
      "cornerRadius": 0,
      "curveFrom": "{0.11427666586643448, 0.5162500000000001}",
      "curveMode": 2,
      "curveTo": "{0.11427666586643448, 0.48375000000000012}",
      "hasCurveFrom": true,
      "hasCurveTo": true,
      "point": "{0.11427666586643448, 0.50000000000000011}"
    },
    {
      "_class": "curvePoint",
      "cornerRadius": 0,
      "curveFrom": "{0.11813389920777013, 0.54875000000000007}",
      "curveMode": 4,
      "curveTo": "{0.11556241031354636, 0.53312500000000007}",
      "hasCurveFrom": false,
      "hasCurveTo": true,
      "point": "{0.11813389920777013, 0.54875000000000007}"
    },
    {
      "_class": "curvePoint",
      "cornerRadius": 0,
      "curveFrom": "{-0.00015458992652318633, 0.63875000000000004}",
      "curveMode": 4,
      "curveTo": "{0.0094884934268159461, 0.63125000000000009}",
      "hasCurveFrom": true,
      "hasCurveTo": false,
      "point": "{0.0094884934268159461, 0.63125000000000009}"
    },
    {
      "_class": "curvePoint",
      "cornerRadius": 0,
      "curveFrom": "{0.0030597711912565147, 0.66312500000000008}",
      "curveMode": 4,
      "curveTo": "{-0.0027260788207469585, 0.65250000000000008}",
      "hasCurveFrom": false,
      "hasCurveTo": true,
      "point": "{0.0030597711912565147, 0.66312500000000008}"
    },
    {
      "_class": "curvePoint",
      "cornerRadius": 0,
      "curveFrom": "{0.11234804919576674, 0.84750000000000014}",
      "curveMode": 4,
      "curveTo": "{0.10591932696020731, 0.83625000000000016}",
      "hasCurveFrom": true,
      "hasCurveTo": false,
      "point": "{0.10591932696020731, 0.83625000000000016}"
    },
    {
      "_class": "curvePoint",
      "cornerRadius": 0,
      "curveFrom": "{0.13742006591444852, 0.84750000000000014}",
      "curveMode": 4,
      "curveTo": "{0.12584836589044152, 0.85125000000000017}",
      "hasCurveFrom": false,
      "hasCurveTo": true,
      "point": "{0.13742006591444852, 0.84750000000000014}"
    },
    {
      "_class": "curvePoint",
      "cornerRadius": 0,
      "curveFrom": "{0.29235227179143064, 0.81750000000000012}",
      "curveMode": 4,
      "curveTo": "{0.26535163840208109, 0.7975000000000001}",
      "hasCurveFrom": true,
      "hasCurveTo": false,
      "point": "{0.26535163840208109, 0.7975000000000001}"
    },
    {
      "_class": "curvePoint",
      "cornerRadius": 0,
      "curveFrom": "{0.35213938858213334, 0.84625000000000006}",
      "curveMode": 4,
      "curveTo": "{0.32063864962789218, 0.8337500000000001}",
      "hasCurveFrom": false,
      "hasCurveTo": true,
      "point": "{0.35213938858213334, 0.84625000000000006}"
    },
    {
      "_class": "curvePoint",
      "cornerRadius": 0,
      "curveFrom": "{0.37399704418303537, 0.99124999999999996}",
      "curveMode": 4,
      "curveTo": "{0.37142555528881166, 0.97875000000000001}",
      "hasCurveFrom": true,
      "hasCurveTo": false,
      "point": "{0.37142555528881166, 0.97875000000000001}"
    },
    {
      "_class": "curvePoint",
      "cornerRadius": 0,
      "curveFrom": "{0.39714044423104938, 1}",
      "curveMode": 4,
      "curveTo": "{0.38428299975993047, 1}",
      "hasCurveFrom": false,
      "hasCurveTo": true,
      "point": "{0.39714044423104938, 1}"
    },
    {
      "_class": "curvePoint",
      "cornerRadius": 0,
      "curveFrom": "{0.6157170002400697, 1}",
      "curveMode": 4,
      "curveTo": "{0.60285955576895089, 1}",
      "hasCurveFrom": true,
      "hasCurveTo": false,
      "point": "{0.60285955576895089, 1}"
    },
    {
      "_class": "curvePoint",
      "cornerRadius": 0,
      "curveFrom": "{0.62793157248763265, 0.97875000000000001}",
      "curveMode": 4,
      "curveTo": "{0.62664582804052082, 0.99124999999999996}",
      "hasCurveFrom": false,
      "hasCurveTo": true,
      "point": "{0.62793157248763265, 0.97875000000000001}"
    },
    {
      "_class": "curvePoint",
      "cornerRadius": 0,
      "curveFrom": "{0.67871847814855235, 0.83374999999999999}",
      "curveMode": 4,
      "curveTo": "{0.64721773919431103, 0.84624999999999995}",
      "hasCurveFrom": true,
      "hasCurveTo": false,
      "point": "{0.64721773919431103, 0.84624999999999995}"
    },
    {
      "_class": "curvePoint",
      "cornerRadius": 0,
      "curveFrom": "{0.73400548937436338, 0.79749999999999999}",
      "curveMode": 4,
      "curveTo": "{0.70764772820856969, 0.81687499999999991}",
      "hasCurveFrom": false,
      "hasCurveTo": true,
      "point": "{0.73400548937436338, 0.79749999999999999}"
    },
    {
      "_class": "curvePoint",
      "cornerRadius": 0,
      "curveFrom": "{0.87350876188600268, 0.85187500000000005}",
      "curveMode": 4,
      "curveTo": "{0.86193706186199581, 0.84750000000000003}",
      "hasCurveFrom": true,
      "hasCurveTo": false,
      "point": "{0.86193706186199581, 0.84750000000000003}"
    },
    {
      "_class": "curvePoint",
      "cornerRadius": 0,
      "curveFrom": "{0.89343780081623692, 0.83625000000000005}",
      "curveMode": 4,
      "curveTo": "{0.88700907858067757, 0.84750000000000003}",
      "hasCurveFrom": false,
      "hasCurveTo": true,
      "point": "{0.89343780081623692, 0.83625000000000005}"
    },
    {
      "_class": "curvePoint",
      "cornerRadius": 0,
      "curveFrom": "{1.0027260788207473, 0.65187499999999998}",
      "curveMode": 4,
      "curveTo": "{0.99629735658518781, 0.66312499999999996}",
      "hasCurveFrom": true,
      "hasCurveTo": false,
      "point": "{0.99629735658518781, 0.66312499999999996}"
    },
    {
      "_class": "curvePoint",
      "cornerRadius": 0,
      "curveFrom": "{0.98986863434962824, 0.63124999999999998}",
      "curveMode": 4,
      "curveTo": "{1.0001545899265234, 0.63874999999999993}",
      "hasCurveFrom": false,
      "hasCurveTo": true,
      "point": "{0.98986863434962824, 0.63124999999999998}"
    },
    {
      "_class": "curvePoint",
      "cornerRadius": 0,
      "curveFrom": "{0.88443758968645358, 0.53312500000000007}",
      "curveMode": 1,
      "curveTo": "{0.88250897301578601, 0.54874999999999996}",
      "hasCurveFrom": true,
      "hasCurveTo": false,
      "point": "{0.88250897301578601, 0.54874999999999996}"
    }
  ],
  "resizingConstraint": 63,
  "resizingType": 0,
  "rotation": 0,
  "shouldBreakMaskChain": false
}