{
  "_class": "symbolInstance",
  "booleanOperation": 0,
  "do_objectID": "739A85F7-3942-4CA0-AFE4-011C9B4C2B30",
  "exportOptions": {
    "_class": "exportOptions",
    "do_objectID": "3847F329-865C-4252-AAF6-E191735CC37F",
    "exportFormats": [
    ],
    "includedLayerIds": [
    ],
    "layerOptions": 0,
    "shouldTrim": false
  },
  "frame": {
    "_class": "rect",
    "constrainProportions": false,
    "do_objectID": "D34DCA9F-60E3-44FA-ADB8-D9A0B7984BD1",
    "height": 194,
    "width": 276,
    "x": 292,
    "y": 210
  },
  "horizontalSpacing": 0,
  "isFixedToViewport": false,
  "isFlippedHorizontal": false,
  "isFlippedVertical": false,
  "isLocked": false,
  "isVisible": true,
  "layerListExpandedType": 0,
  "name": "25h8/chat/chat-layout/chat-card-item-v2 copy",
  "nameIsFixed": false,
  "overrideValues": [
  ],
  "resizingConstraint": 63,
  "resizingType": 0,
  "rotation": 0,
  "scale": 1,
  "shouldBreakMaskChain": false,
  "style": {
    "_class": "style",
    "do_objectID": "990A3D8A-04BD-4217-AE7B-AA6B1C7CC642",
    "endMarkerType": 0,
    "miterLimit": 10,
    "startMarkerType": 0,
    "windingRule": 1
  },
  "symbolID": "067A0841-22F5-4C4B-BA73-A9C93230A172",
  "verticalSpacing": 0
}