{
  "_class": "symbolMaster",
  "backgroundColor": {
    "_class": "color",
    "alpha": 1,
    "blue": 1,
    "do_objectID": "D4D9728B-4BDB-4F8C-8DC7-EDB1F601F318",
    "green": 1,
    "red": 1
  },
  "booleanOperation": 0,
  "changeIdentifier": 539,
  "do_objectID": "3040DB86-CB34-4CD1-BAB4-ED064811134B",
  "exportOptions": {
    "_class": "exportOptions",
    "do_objectID": "4ACEEB34-B7E4-4690-A54F-EB4657DF3DAF",
    "exportFormats": [
      {
        "_class": "exportFormat",
        "absoluteSize": 0,
        "fileFormat": "svg",
        "name": "",
        "namingScheme": 0,
        "scale": 1,
        "visibleScaleType": 0
      }
    ],
    "includedLayerIds": [
    ],
    "layerOptions": 0,
    "shouldTrim": false
  },
  "frame": {
    "_class": "rect",
    "constrainProportions": false,
    "do_objectID": "8AA1B89E-93CF-4DC6-9D41-07D3D5535008",
    "height": 40,
    "width": 40,
    "x": 2992,
    "y": 11
  },
  "hasBackgroundColor": false,
  "hasClickThrough": true,
  "horizontalRulerData": {
    "_class": "rulerData",
    "base": 0,
    "do_objectID": "03C16BDA-B33F-47FE-BFC6-13E60D601C63",
    "guides": [
    ]
  },
  "includeBackgroundColorInExport": true,
  "includeBackgroundColorInInstance": true,
  "includeInCloudUpload": true,
  "isFixedToViewport": false,
  "isFlippedHorizontal": false,
  "isFlippedVertical": false,
  "isFlowHome": false,
  "isLocked": false,
  "isVisible": true,
  "layerListExpandedType": 2,
  "layers": [
    {
      "class": "shapeGroup",
      "id": "9A5E981A-312D-446F-8B2F-172F22B17C88"
    }
  ],
  "name": "25h8/chat/mat-icon-button/selected/selected-default",
  "nameIsFixed": true,
  "originalObjectID": "94181E18-2C17-4785-B3EE-09DDFD9A27BC",
  "resizesContent": false,
  "resizingConstraint": 63,
  "resizingType": 0,
  "rotation": 0,
  "shouldBreakMaskChain": true,
  "style": {
    "_class": "style",
    "do_objectID": "FDFEECE0-6E62-4214-8A7C-857BF920643C",
    "endMarkerType": 0,
    "miterLimit": 10,
    "startMarkerType": 0,
    "windingRule": 1
  },
  "symbolID": "29410A88-0269-4207-86A4-DB1EFC7B4F7B",
  "verticalRulerData": {
    "_class": "rulerData",
    "base": 0,
    "do_objectID": "91AD7FFE-7FC0-4103-A424-D8CAB466CB79",
    "guides": [
    ]
  }
}