{
  "_class": "shapeGroup",
  "booleanOperation": 0,
  "clippingMaskMode": 0,
  "do_objectID": "3B3716AB-75D2-4E8F-A0D9-1ED7B51F2445",
  "exportOptions": {
    "_class": "exportOptions",
    "exportFormats": [
    ],
    "includedLayerIds": [
    ],
    "layerOptions": 0,
    "shouldTrim": false
  },
  "frame": {
    "_class": "rect",
    "constrainProportions": true,
    "height": 16,
    "width": 16,
    "x": 0,
    "y": 0
  },
  "hasClickThrough": false,
  "hasClippingMask": false,
  "isFixedToViewport": false,
  "isFlippedHorizontal": false,
  "isFlippedVertical": false,
  "isLocked": false,
  "isVisible": true,
  "layerListExpandedType": 0,
  "layers": [
    {
      "class": "oval",
      "id": "B675129C-83A0-4EE4-A913-63266A06336B"
    }
  ],
  "name": "bid photo copy 2",
  "nameIsFixed": true,
  "resizingConstraint": 63,
  "resizingType": 0,
  "rotation": 0,
  "shouldBreakMaskChain": false,
  "style": {
    "_class": "style",
    "endMarkerType": 0,
    "fills": [
      {
        "_class": "fill",
        "color": {
          "_class": "color",
          "alpha": 0.32,
          "blue": 0,
          "green": 0,
          "red": 0
        },
        "fillType": 0,
        "isEnabled": true,
        "noiseIndex": 0,
        "noiseIntensity": 0,
        "patternFillType": 0,
        "patternTileScale": 1
      }
    ],
    "miterLimit": 10,
    "sharedObjectID": "F5777EB6-29FE-41BD-92F8-068095C1D423",
    "startMarkerType": 0,
    "windingRule": 1
  },
  "userInfo": {
    "com.animaapp.stc-sketch-plugin": {
      "kModelPropertiesKey": {
        "constraints": {
          "aspectRatio": {
            "constant": 16,
            "enabled": 1,
            "modelID": "constraint_64b9676f-da43-48cf-a4a8-ae7315af2fe3",
            "model_class": "ADModelConstraint",
            "model_version": 0.1,
            "multiplier": 16
          },
          "automatic": 1,
          "modelID": "viewConstraints_b7b97b49-5033-41ce-8cd1-991d44aca67f",
          "model_class": "ADModelViewConstraints",
          "model_version": 0.1,
          "scaleFactor": 1
        }
      }
    },
    "com.invisionlabs.duplicate": {
      "photos-duplicate": {
        "category": "Wedding",
        "mode": "unsplash",
        "showedChangelogVersion": "1.0.0"
      }
    }
  },
  "windingRule": 1
}