{
  "_class": "shapePath",
  "booleanOperation": -1,
  "do_objectID": "F19EC4D8-969A-4139-BD55-AD29B2C35DB3",
  "edited": true,
  "exportOptions": {
    "_class": "exportOptions",
    "do_objectID": "69878D15-4D77-478A-9FAC-8E7D33948E44",
    "exportFormats": [
    ],
    "includedLayerIds": [
    ],
    "layerOptions": 0,
    "shouldTrim": false
  },
  "frame": {
    "_class": "rect",
    "constrainProportions": false,
    "do_objectID": "F718CC56-6BE4-4D17-8B92-79B3A8B8FC9F",
    "height": 20,
    "width": 20,
    "x": 0,
    "y": 0
  },
  "isClosed": true,
  "isFixedToViewport": false,
  "isFlippedHorizontal": false,
  "isFlippedVertical": false,
  "isLocked": false,
  "isVisible": true,
  "layerListExpandedType": 0,
  "name": "Path",
  "nameIsFixed": false,
  "pointRadiusBehaviour": 1,
  "points": [
    {
      "_class": "curvePoint",
      "cornerRadius": 0,
      "curveFrom": "{0.22349999999999998, 0}",
      "curveMode": 2,
      "curveTo": "{0.77600000000000002, 0}",
      "hasCurveFrom": true,
      "hasCurveTo": true,
      "point": "{0.4995, 0}"
    },
    {
      "_class": "curvePoint",
      "cornerRadius": 0,
      "curveFrom": "{0, 0.77600000000000002}",
      "curveMode": 2,
      "curveTo": "{0, 0.22400000000000003}",
      "hasCurveFrom": true,
      "hasCurveTo": true,
      "point": "{0, 0.5}"
    },
    {
      "_class": "curvePoint",
      "cornerRadius": 0,
      "curveFrom": "{0.77600000000000002, 1}",
      "curveMode": 2,
      "curveTo": "{0.22349999999999998, 1}",
      "hasCurveFrom": true,
      "hasCurveTo": true,
      "point": "{0.4995, 1}"
    },
    {
      "_class": "curvePoint",
      "cornerRadius": 0,
      "curveFrom": "{1, 0.22400000000000003}",
      "curveMode": 2,
      "curveTo": "{1, 0.77600000000000002}",
      "hasCurveFrom": true,
      "hasCurveTo": true,
      "point": "{1, 0.5}"
    }
  ],
  "resizingConstraint": 63,
  "resizingType": 0,
  "rotation": 0,
  "shouldBreakMaskChain": false
}