{
  "_class": "shapePath",
  "booleanOperation": 0,
  "do_objectID": "E64BD1E1-AABA-4A65-8801-02A3BE729189",
  "edited": true,
  "exportOptions": {
    "_class": "exportOptions",
    "exportFormats": [
    ],
    "includedLayerIds": [
    ],
    "layerOptions": 0,
    "shouldTrim": false
  },
  "frame": {
    "_class": "rect",
    "constrainProportions": false,
    "height": 1.206081081081081,
    "width": 1.601072635135137,
    "x": 5.434402347971627,
    "y": 5.025343868243226
  },
  "isClosed": true,
  "isFixedToViewport": false,
  "isFlippedHorizontal": false,
  "isFlippedVertical": false,
  "isLocked": false,
  "isVisible": true,
  "layerListExpandedType": 0,
  "name": "Path",
  "nameIsFixed": false,
  "pointRadiusBehaviour": 0,
  "points": [
    {
      "_class": "curvePoint",
      "cornerRadius": 0,
      "curveFrom": "{0.084745762711864459, 0}",
      "curveMode": 4,
      "curveTo": "{0.12115505335844312, 0}",
      "hasCurveFrom": true,
      "hasCurveTo": false,
      "point": "{0.12115505335844312, 0}"
    },
    {
      "_class": "curvePoint",
      "cornerRadius": 0,
      "curveFrom": "{0.14551161330822351, 0.14849999999999972}",
      "curveMode": 4,
      "curveTo": "{0.043691148775894612, 0.0029999999999998175}",
      "hasCurveFrom": true,
      "hasCurveTo": true,
      "point": "{0, 0.0089999999999997495}"
    },
    {
      "_class": "curvePoint",
      "cornerRadius": 0,
      "curveFrom": "{0.24670433145009449, 0.58333333333333337}",
      "curveMode": 4,
      "curveTo": "{0.24670433145009449, 0.33616666666666656}",
      "hasCurveFrom": false,
      "hasCurveTo": true,
      "point": "{0.24670433145009449, 0.58333333333333337}"
    },
    {
      "_class": "curvePoint",
      "cornerRadius": 0,
      "curveFrom": "{0.24670433145009449, 1}",
      "curveMode": 1,
      "curveTo": "{0.24670433145009449, 1}",
      "hasCurveFrom": false,
      "hasCurveTo": false,
      "point": "{0.24670433145009449, 1}"
    },
    {
      "_class": "curvePoint",
      "cornerRadius": 0,
      "curveFrom": "{1, 1}",
      "curveMode": 1,
      "curveTo": "{1, 1}",
      "hasCurveFrom": false,
      "hasCurveTo": false,
      "point": "{1, 1}"
    },
    {
      "_class": "curvePoint",
      "cornerRadius": 0,
      "curveFrom": "{1, 0.19466666666666654}",
      "curveMode": 4,
      "curveTo": "{1, 0.58333333333333337}",
      "hasCurveFrom": true,
      "hasCurveTo": false,
      "point": "{1, 0.58333333333333337}"
    },
    {
      "_class": "curvePoint",
      "cornerRadius": 0,
      "curveFrom": "{0.12115505335844312, 0}",
      "curveMode": 4,
      "curveTo": "{0.41406151914626493, 0}",
      "hasCurveFrom": false,
      "hasCurveTo": true,
      "point": "{0.12115505335844312, 0}"
    }
  ],
  "resizingConstraint": 63,
  "resizingType": 0,
  "rotation": 0,
  "shouldBreakMaskChain": false
}