{
  "_class": "symbolInstance",
  "booleanOperation": 0,
  "do_objectID": "C6095B5F-F536-4A9A-A4F4-422591976E7D",
  "exportOptions": {
    "_class": "exportOptions",
    "do_objectID": "21864CBC-7381-4A8C-B826-F3DA4E702C0A",
    "exportFormats": [
    ],
    "includedLayerIds": [
    ],
    "layerOptions": 0,
    "shouldTrim": false
  },
  "frame": {
    "_class": "rect",
    "constrainProportions": false,
    "do_objectID": "617A436F-C0AA-40D7-88E3-CD6D8B3FB377",
    "height": 64,
    "width": 72,
    "x": 0,
    "y": -1
  },
  "horizontalSpacing": 0,
  "isFixedToViewport": false,
  "isFlippedHorizontal": false,
  "isFlippedVertical": false,
  "isLocked": false,
  "isVisible": true,
  "layerListExpandedType": 0,
  "name": "25h8/chat/buttons/launchpad-button",
  "nameIsFixed": false,
  "overrideValues": [
  ],
  "resizingConstraint": 63,
  "resizingType": 0,
  "rotation": 0,
  "scale": 1,
  "shouldBreakMaskChain": false,
  "style": {
    "_class": "style",
    "do_objectID": "712DEA1B-28CB-4A0F-917E-912E1EA365CD",
    "endMarkerType": 0,
    "miterLimit": 10,
    "startMarkerType": 0,
    "windingRule": 1
  },
  "symbolID": "BFD688D4-581C-4195-BC5C-3DF9C150A693",
  "verticalSpacing": 0
}