{
  "_class": "group",
  "booleanOperation": 0,
  "do_objectID": "48A51E8E-D561-490A-9BDA-816D73461764",
  "exportOptions": {
    "_class": "exportOptions",
    "exportFormats": [
    ],
    "includedLayerIds": [
    ],
    "layerOptions": 0,
    "shouldTrim": false
  },
  "frame": {
    "_class": "rect",
    "constrainProportions": false,
    "height": 48,
    "width": 872,
    "x": 16,
    "y": 72
  },
  "hasClickThrough": false,
  "isFixedToViewport": false,
  "isFlippedHorizontal": false,
  "isFlippedVertical": false,
  "isLocked": false,
  "isVisible": true,
  "layerListExpandedType": 0,
  "layers": [
    {
      "class": "group",
      "id": "B94E0519-8D11-451C-8BB3-399FC74625A3"
    },
    {
      "class": "group",
      "id": "896BD8C4-0E7A-4EC3-99C2-6AB3C5873786"
    },
    {
      "class": "group",
      "id": "6F04B011-06C2-44B5-8E4F-03888ADBCD6F"
    },
    {
      "class": "group",
      "id": "8380A64B-56D2-47BB-A1D3-24E493086320"
    },
    {
      "class": "group",
      "id": "AD20AEC5-D1CF-4246-B084-9057B5669791"
    },
    {
      "class": "group",
      "id": "9FF1D0A3-CB7C-4DC1-8E53-8BD0408B6C85"
    },
    {
      "class": "group",
      "id": "F1289D34-66E0-4E8F-A993-566C69A8B089"
    },
    {
      "class": "group",
      "id": "4DDE989F-7F94-4264-B6E0-A2A7F0D51588"
    },
    {
      "class": "group",
      "id": "490564F3-4B47-4429-B95F-ECB705C46035"
    }
  ],
  "name": "tab-subheader",
  "nameIsFixed": true,
  "resizingConstraint": 63,
  "resizingType": 0,
  "rotation": 0,
  "shouldBreakMaskChain": false,
  "style": {
    "_class": "style",
    "endMarkerType": 0,
    "miterLimit": 10,
    "startMarkerType": 0,
    "windingRule": 1
  }
}