{
  "_class": "symbolMaster",
  "backgroundColor": {
    "_class": "color",
    "alpha": 1,
    "blue": 1,
    "do_objectID": "8CB3DD1C-C4DA-4A4F-81A5-5D76C5F3FD16",
    "green": 1,
    "red": 1
  },
  "booleanOperation": 0,
  "changeIdentifier": 3886,
  "do_objectID": "0CD813FC-0432-40D6-AAA4-AFFEB8F0BFF4",
  "exportOptions": {
    "_class": "exportOptions",
    "do_objectID": "7FB13A3A-2F93-4F3F-9FFE-301E0199E33C",
    "exportFormats": [
    ],
    "includedLayerIds": [
    ],
    "layerOptions": 0,
    "shouldTrim": false
  },
  "frame": {
    "_class": "rect",
    "constrainProportions": false,
    "do_objectID": "526E2E51-7641-48CD-9E02-1D98D6A8B717",
    "height": 787,
    "width": 72,
    "x": -3116,
    "y": 944
  },
  "hasBackgroundColor": false,
  "hasClickThrough": true,
  "horizontalRulerData": {
    "_class": "rulerData",
    "base": 0,
    "do_objectID": "82CC6E80-9BE2-4828-8C55-3696467D7046",
    "guides": [
    ]
  },
  "includeBackgroundColorInExport": true,
  "includeBackgroundColorInInstance": false,
  "includeInCloudUpload": true,
  "isFixedToViewport": false,
  "isFlippedHorizontal": false,
  "isFlippedVertical": false,
  "isFlowHome": false,
  "isLocked": false,
  "isVisible": true,
  "layerListExpandedType": 0,
  "layers": [
    {
      "class": "group",
      "id": "A8329CE4-041B-44A1-BD9E-79DE4015935D"
    }
  ],
  "name": "25h8/chat/app-bar/app-bar-profile-selected",
  "nameIsFixed": true,
  "resizesContent": false,
  "resizingConstraint": 63,
  "resizingType": 0,
  "rotation": 0,
  "shouldBreakMaskChain": true,
  "style": {
    "_class": "style",
    "do_objectID": "64110D2D-E12F-408A-B077-F9B7F8EEA7A7",
    "endMarkerType": 0,
    "miterLimit": 10,
    "startMarkerType": 0,
    "windingRule": 1
  },
  "symbolID": "F212934B-23BD-49C2-B2E7-3661FC76A562",
  "verticalRulerData": {
    "_class": "rulerData",
    "base": 0,
    "do_objectID": "733EE4F7-9D58-474D-BF8E-ED184CB45AE1",
    "guides": [
    ]
  }
}