{
  "_class": "symbolMaster",
  "backgroundColor": {
    "_class": "color",
    "alpha": 1,
    "blue": 1,
    "do_objectID": "2E315C2E-12AD-4609-B03E-5E99DB7D11C4",
    "green": 1,
    "red": 1
  },
  "booleanOperation": 0,
  "changeIdentifier": 1050,
  "do_objectID": "03E23995-13C8-44B6-8CA2-B6D51DE4EBB4",
  "exportOptions": {
    "_class": "exportOptions",
    "do_objectID": "525ABA02-3C48-4CBD-9D2B-834E30D78535",
    "exportFormats": [
      {
        "_class": "exportFormat",
        "absoluteSize": 0,
        "fileFormat": "svg",
        "name": "",
        "namingScheme": 0,
        "scale": 1,
        "visibleScaleType": 0
      }
    ],
    "includedLayerIds": [
    ],
    "layerOptions": 0,
    "shouldTrim": false
  },
  "frame": {
    "_class": "rect",
    "constrainProportions": false,
    "do_objectID": "0839B81C-C8B5-4ACE-AC03-835F5E708B7B",
    "height": 40,
    "width": 40,
    "x": 1408,
    "y": 75
  },
  "hasBackgroundColor": false,
  "hasClickThrough": true,
  "horizontalRulerData": {
    "_class": "rulerData",
    "base": 0,
    "do_objectID": "5DF11BF8-9F5C-4679-A80D-77616E577C93",
    "guides": [
    ]
  },
  "includeBackgroundColorInExport": true,
  "includeBackgroundColorInInstance": true,
  "includeInCloudUpload": true,
  "isFixedToViewport": false,
  "isFlippedHorizontal": false,
  "isFlippedVertical": false,
  "isFlowHome": false,
  "isLocked": false,
  "isVisible": true,
  "layerListExpandedType": 2,
  "layers": [
    {
      "class": "shapeGroup",
      "id": "03E06063-FBC9-4EC3-B0D3-78B0A7C7D0BA"
    }
  ],
  "name": "25h8/chat/mat-icon-button/auction/auction-hover",
  "nameIsFixed": true,
  "originalObjectID": "2366EDF3-C6ED-4D24-84A8-EE78CD596A46",
  "resizesContent": false,
  "resizingConstraint": 63,
  "resizingType": 0,
  "rotation": 0,
  "shouldBreakMaskChain": true,
  "style": {
    "_class": "style",
    "do_objectID": "596E280C-C04F-4DF5-9606-E6A6EFC8FF88",
    "endMarkerType": 0,
    "miterLimit": 10,
    "startMarkerType": 0,
    "windingRule": 1
  },
  "symbolID": "01E92719-01C7-4315-ABDA-21E82112802B",
  "verticalRulerData": {
    "_class": "rulerData",
    "base": 0,
    "do_objectID": "AC26F346-B017-4DE6-99E4-921BCA57C007",
    "guides": [
    ]
  }
}