{
  "_class": "shapePath",
  "booleanOperation": -1,
  "do_objectID": "5DA86236-A8BF-483D-9B23-3FB793DEB104",
  "edited": true,
  "exportOptions": {
    "_class": "exportOptions",
    "do_objectID": "C32F6F1E-B091-4E18-AC1F-A9363E0A8234",
    "exportFormats": [
    ],
    "includedLayerIds": [
    ],
    "layerOptions": 0,
    "shouldTrim": false
  },
  "frame": {
    "_class": "rect",
    "constrainProportions": false,
    "do_objectID": "5C7A75DB-E3D9-4F6E-9BBF-4366D1BB5399",
    "height": 3.5,
    "width": 10.24,
    "x": 4.88,
    "y": 12
  },
  "isClosed": true,
  "isFixedToViewport": false,
  "isFlippedHorizontal": false,
  "isFlippedVertical": false,
  "isLocked": false,
  "isVisible": true,
  "layerListExpandedType": 0,
  "name": "Path",
  "nameIsFixed": false,
  "pointRadiusBehaviour": 1,
  "points": [
    {
      "_class": "curvePoint",
      "cornerRadius": 0,
      "curveFrom": "{0.72753906249999989, 1}",
      "curveMode": 2,
      "curveTo": "{0.27246093749999994, 1}",
      "hasCurveFrom": true,
      "hasCurveTo": true,
      "point": "{0.49999999999999989, 1}"
    },
    {
      "_class": "curvePoint",
      "cornerRadius": 0,
      "curveFrom": "{1, 0}",
      "curveMode": 4,
      "curveTo": "{0.921875, 0.58571428571428596}",
      "hasCurveFrom": false,
      "hasCurveTo": true,
      "point": "{1, 0}"
    },
    {
      "_class": "curvePoint",
      "cornerRadius": 0,
      "curveFrom": "{0.76953125, 0.33999999999999986}",
      "curveMode": 4,
      "curveTo": "{0.83691406249999989, 0}",
      "hasCurveFrom": true,
      "hasCurveTo": false,
      "point": "{0.83691406249999989, 0}"
    },
    {
      "_class": "curvePoint",
      "cornerRadius": 0,
      "curveFrom": "{0.35546874999999989, 0.5714285714285714}",
      "curveMode": 2,
      "curveTo": "{0.64453124999999989, 0.5714285714285714}",
      "hasCurveFrom": true,
      "hasCurveTo": true,
      "point": "{0.49999999999999989, 0.5714285714285714}"
    },
    {
      "_class": "curvePoint",
      "cornerRadius": 0,
      "curveFrom": "{0.16308593750000006, 0}",
      "curveMode": 4,
      "curveTo": "{0.23144531249999997, 0.33999999999999986}",
      "hasCurveFrom": false,
      "hasCurveTo": true,
      "point": "{0.16308593750000006, 0}"
    },
    {
      "_class": "curvePoint",
      "cornerRadius": 0,
      "curveFrom": "{0.078124999999999972, 0.58571428571428596}",
      "curveMode": 4,
      "curveTo": "{0, 0}",
      "hasCurveFrom": true,
      "hasCurveTo": false,
      "point": "{0, 0}"
    }
  ],
  "resizingConstraint": 63,
  "resizingType": 0,
  "rotation": 0,
  "shouldBreakMaskChain": false
}