{
  "_class": "group",
  "booleanOperation": 0,
  "do_objectID": "3C3DD387-3A28-4A66-9534-02A61DDA2C68",
  "exportOptions": {
    "_class": "exportOptions",
    "do_objectID": "0339BB2F-6434-497D-9054-1D455AA52A2B",
    "exportFormats": [
    ],
    "includedLayerIds": [
    ],
    "layerOptions": 0,
    "shouldTrim": false
  },
  "frame": {
    "_class": "rect",
    "constrainProportions": false,
    "do_objectID": "4AC53F8B-7C5A-42E8-AF62-E16A08BAA0E2",
    "height": 80,
    "width": 320,
    "x": 0,
    "y": 0
  },
  "hasClickThrough": false,
  "isFixedToViewport": false,
  "isFlippedHorizontal": false,
  "isFlippedVertical": false,
  "isLocked": false,
  "isVisible": true,
  "layerListExpandedType": 2,
  "layers": [
    {
      "class": "shapeGroup",
      "id": "8030AE6D-0866-48FF-BB96-50E4D4D53C53"
    },
    {
      "class": "group",
      "id": "0E8070F5-3A18-4497-9B65-D530BE4A41E1"
    },
    {
      "class": "group",
      "id": "159727F5-F372-41D8-903D-23A61FA8E40E"
    },
    {
      "class": "symbolInstance",
      "id": "A934BAA1-AB2C-4BB6-970C-3D94C2C4381B"
    },
    {
      "class": "text",
      "id": "B93F8BD5-C2CF-466E-9E52-89841F4A5F23"
    },
    {
      "class": "shapeGroup",
      "id": "5C686FCB-54C0-4FA3-BD47-B0EB63033817"
    },
    {
      "class": "symbolInstance",
      "id": "C8F30FA8-1AB3-4A33-BABA-8FB7EDB22AAB"
    }
  ],
  "name": "chat",
  "nameIsFixed": true,
  "resizingConstraint": 63,
  "resizingType": 0,
  "rotation": 0,
  "shouldBreakMaskChain": false,
  "style": {
    "_class": "style",
    "do_objectID": "31AE575A-337F-47F0-88FB-3EA19B269845",
    "endMarkerType": 0,
    "miterLimit": 10,
    "startMarkerType": 0,
    "windingRule": 1
  },
  "userInfo": {
    "com.animaapp.stc-sketch-plugin": {
      "kModelPropertiesKey": {
      }
    }
  }
}