{
  "_class": "symbolInstance",
  "booleanOperation": 0,
  "do_objectID": "B17D022D-2738-45BD-8C64-79EAFF1B5340",
  "exportOptions": {
    "_class": "exportOptions",
    "do_objectID": "23BA80DC-EF4A-42B1-B174-ACEC05767A9C",
    "exportFormats": [
    ],
    "includedLayerIds": [
    ],
    "layerOptions": 0,
    "shouldTrim": false
  },
  "frame": {
    "_class": "rect",
    "constrainProportions": false,
    "do_objectID": "A1B19996-707B-4210-A5CD-772B1EFB0115",
    "height": 194,
    "width": 304,
    "x": 8,
    "y": 981.9999999999999
  },
  "horizontalSpacing": 0,
  "isFixedToViewport": false,
  "isFlippedHorizontal": false,
  "isFlippedVertical": false,
  "isLocked": false,
  "isVisible": true,
  "layerListExpandedType": 0,
  "name": "25h8/chat/chat-layout/chat-layout-component/chat-card-item-v1-test-test copy 3",
  "nameIsFixed": false,
  "overrideValues": [
  ],
  "resizingConstraint": 63,
  "resizingType": 0,
  "rotation": 0,
  "scale": 1,
  "shouldBreakMaskChain": false,
  "style": {
    "_class": "style",
    "do_objectID": "E8C68B0C-A2C8-4DCD-BE53-CFA983CD5CC9",
    "endMarkerType": 0,
    "miterLimit": 10,
    "startMarkerType": 0,
    "windingRule": 1
  },
  "symbolID": "331D9A94-DA7B-49E5-943F-F17D01C79BE8",
  "verticalSpacing": 0
}