{
  "_class": "shapePath",
  "booleanOperation": -1,
  "do_objectID": "43109CA9-F603-4155-BE31-EFEDAB396C3C",
  "edited": true,
  "exportOptions": {
    "_class": "exportOptions",
    "do_objectID": "81D4E837-78BD-4B60-A6DB-FDF3A1C3C75F",
    "exportFormats": [
    ],
    "includedLayerIds": [
    ],
    "layerOptions": 0,
    "shouldTrim": false
  },
  "frame": {
    "_class": "rect",
    "constrainProportions": false,
    "do_objectID": "F9684DFE-F699-4235-A8AB-A7CF24B0076C",
    "height": 17.94385185185184,
    "width": 16.36382222222221,
    "x": 0,
    "y": 0
  },
  "isClosed": false,
  "isFixedToViewport": false,
  "isFlippedHorizontal": false,
  "isFlippedVertical": false,
  "isLocked": false,
  "isVisible": true,
  "layerListExpandedType": 0,
  "name": "Path",
  "nameIsFixed": false,
  "pointRadiusBehaviour": 1,
  "points": [
    {
      "_class": "curvePoint",
      "cornerRadius": 0,
      "curveFrom": "{0, 0.36018031555221641}",
      "curveMode": 4,
      "curveTo": "{0, 0.5}",
      "hasCurveFrom": true,
      "hasCurveTo": false,
      "point": "{0, 0.5}"
    },
    {
      "_class": "curvePoint",
      "cornerRadius": 0,
      "curveFrom": "{0.26182237600922686, 0.048384673178061617}",
      "curveMode": 2,
      "curveTo": "{0.052397429560059522, 0.24184823441021783}",
      "hasCurveFrom": true,
      "hasCurveTo": true,
      "point": "{0.1571099027846429, 0.14507888805409461}"
    },
    {
      "_class": "curvePoint",
      "cornerRadius": 0,
      "curveFrom": "{0.64409293129016265, 0}",
      "curveMode": 3,
      "curveTo": "{0.39899489207447697, 0}",
      "hasCurveFrom": true,
      "hasCurveTo": true,
      "point": "{0.56879222277146102, 0}"
    },
    {
      "_class": "curvePoint",
      "cornerRadius": 0,
      "curveFrom": "{0.86315702751688905, 0.059278737791134462}",
      "curveMode": 2,
      "curveTo": "{0.7179930795847751, 0.011870773854244889}",
      "hasCurveFrom": true,
      "hasCurveTo": true,
      "point": "{0.79057505355083202, 0.035537190082644686}"
    },
    {
      "_class": "curvePoint",
      "cornerRadius": 0,
      "curveFrom": "{0.97132970835392995, 0.14229902329075883}",
      "curveMode": 4,
      "curveTo": "{0.92338111715274296, 0.094815927873779141}",
      "hasCurveFrom": false,
      "hasCurveTo": true,
      "point": "{0.97132970835392995, 0.14229902329075883}"
    },
    {
      "_class": "curvePoint",
      "cornerRadius": 0,
      "curveFrom": "{0.77895864228044109, 0.23658903080390675}",
      "curveMode": 4,
      "curveTo": "{0.85425935079914284, 0.30518407212622084}",
      "hasCurveFrom": true,
      "hasCurveTo": false,
      "point": "{0.85425935079914284, 0.30518407212622084}"
    },
    {
      "_class": "curvePoint",
      "cornerRadius": 0,
      "curveFrom": "{0.48879551820728212, 0.20217881292261461}",
      "curveMode": 3,
      "curveTo": "{0.68858131487889274, 0.20217881292261461}",
      "hasCurveFrom": true,
      "hasCurveTo": true,
      "point": "{0.58320975449003054, 0.20217881292261461}"
    },
    {
      "_class": "curvePoint",
      "cornerRadius": 0,
      "curveFrom": "{0.29436480474542692, 0.34425244177310299}",
      "curveMode": 2,
      "curveTo": "{0.41201186356895719, 0.23065364387678439}",
      "hasCurveFrom": true,
      "hasCurveTo": true,
      "point": "{0.35318833415719264, 0.28745304282494366}"
    },
    {
      "_class": "curvePoint",
      "cornerRadius": 0,
      "curveFrom": "{0.26487065414401073, 0.58174305033809171}",
      "curveMode": 2,
      "curveTo": "{0.26487065414401073, 0.4144252441773103}",
      "hasCurveFrom": true,
      "hasCurveTo": true,
      "point": "{0.26487065414401073, 0.49812171299774605}"
    },
    {
      "_class": "curvePoint",
      "cornerRadius": 0,
      "curveFrom": "{0.4154720711814141, 0.76867017280240413}",
      "curveMode": 2,
      "curveTo": "{0.29502389190970518, 0.65259203606311045}",
      "hasCurveFrom": true,
      "hasCurveTo": true,
      "point": "{0.35524798154555903, 0.71066867017280233}"
    },
    {
      "_class": "curvePoint",
      "cornerRadius": 0,
      "curveFrom": "{0.70505849398582876, 0.79774605559729528}",
      "curveMode": 3,
      "curveTo": "{0.49415060141703759, 0.79774605559729528}",
      "hasCurveFrom": true,
      "hasCurveTo": true,
      "point": "{0.59144834404349966, 0.79774605559729528}"
    },
    {
      "_class": "curvePoint",
      "cornerRadius": 0,
      "curveFrom": "{0.89940682155215002, 0.67603305785123968}",
      "curveMode": 4,
      "curveTo": "{0.80771131982204625, 0.75717505634861004}",
      "hasCurveFrom": false,
      "hasCurveTo": true,
      "point": "{0.89940682155215002, 0.67603305785123968}"
    },
    {
      "_class": "curvePoint",
      "cornerRadius": 0,
      "curveFrom": "{0.95073323447025881, 0.89196093163035306}",
      "curveMode": 4,
      "curveTo": "{1, 0.84455296769346355}",
      "hasCurveFrom": true,
      "hasCurveTo": false,
      "point": "{1, 0.84455296769346355}"
    },
    {
      "_class": "curvePoint",
      "cornerRadius": 0,
      "curveFrom": "{0.73274015488548372, 0.98595041322314059}",
      "curveMode": 2,
      "curveTo": "{0.88737848080408599, 0.92975206611570249}",
      "hasCurveFrom": true,
      "hasCurveTo": true,
      "point": "{0.81010051079255185, 0.95785123966942154}"
    },
    {
      "_class": "curvePoint",
      "cornerRadius": 0,
      "curveFrom": "{0.39899489207447697, 1}",
      "curveMode": 3,
      "curveTo": "{0.65224913494809678, 1}",
      "hasCurveFrom": true,
      "hasCurveTo": true,
      "point": "{0.56879222277146102, 1}"
    },
    {
      "_class": "curvePoint",
      "cornerRadius": 0,
      "curveFrom": "{0.052397429560059522, 0.76123215627347851}",
      "curveMode": 2,
      "curveTo": "{0.26182237600922686, 0.95221637866265962}",
      "hasCurveFrom": true,
      "hasCurveTo": true,
      "point": "{0.1571099027846429, 0.85672426746806918}"
    },
    {
      "_class": "curvePoint",
      "cornerRadius": 0,
      "curveFrom": "{0, 0.5}",
      "curveMode": 4,
      "curveTo": "{0, 0.64237415477084903}",
      "hasCurveFrom": false,
      "hasCurveTo": true,
      "point": "{0, 0.5}"
    }
  ],
  "resizingConstraint": 63,
  "resizingType": 0,
  "rotation": 0,
  "shouldBreakMaskChain": false
}