{
  "_class": "shapePath",
  "booleanOperation": -1,
  "do_objectID": "4369FDE8-B045-4E60-991F-3DCAED78E703",
  "edited": true,
  "exportOptions": {
    "_class": "exportOptions",
    "do_objectID": "9C15257E-0B80-4B96-9232-804B7DE5790E",
    "exportFormats": [
    ],
    "includedLayerIds": [
    ],
    "layerOptions": 0,
    "shouldTrim": false
  },
  "frame": {
    "_class": "rect",
    "constrainProportions": false,
    "do_objectID": "0315B692-97F9-4132-9AFC-015C6A50BD09",
    "height": 23.14365925925926,
    "width": 15.29069629629629,
    "x": 0,
    "y": 0
  },
  "isClosed": true,
  "isFixedToViewport": false,
  "isFlippedHorizontal": false,
  "isFlippedVertical": false,
  "isLocked": false,
  "isVisible": true,
  "layerListExpandedType": 0,
  "name": "Path",
  "nameIsFixed": false,
  "pointRadiusBehaviour": 1,
  "points": [
    {
      "_class": "curvePoint",
      "cornerRadius": 0,
      "curveFrom": "{0.0042320578381237891, 0.96860255140676887}",
      "curveMode": 4,
      "curveTo": "{0.012608005642743787, 1}",
      "hasCurveFrom": true,
      "hasCurveTo": false,
      "point": "{0.012608005642743787, 1}"
    },
    {
      "_class": "curvePoint",
      "cornerRadius": 0,
      "curveFrom": "{0, 0.86474049047591317}",
      "curveMode": 3,
      "curveTo": "{0, 0.93953515465719106}",
      "hasCurveFrom": true,
      "hasCurveTo": true,
      "point": "{0, 0.91273955845517563}"
    },
    {
      "_class": "curvePoint",
      "cornerRadius": 0,
      "curveFrom": "{0.064627049903015349, 0.73682064425933491}",
      "curveMode": 2,
      "curveTo": "{0.012872509257626523, 0.81988699248558294}",
      "hasCurveFrom": true,
      "hasCurveTo": true,
      "point": "{0.038793863516134723, 0.77835381837245887}"
    },
    {
      "_class": "curvePoint",
      "cornerRadius": 0,
      "curveFrom": "{0.17889261153235761, 0.64105551348517509}",
      "curveMode": 2,
      "curveTo": "{0.097778169634985021, 0.70105434845925341}",
      "hasCurveFrom": true,
      "hasCurveTo": true,
      "point": "{0.13833539058367131, 0.67105493097221425}"
    },
    {
      "_class": "curvePoint",
      "cornerRadius": 0,
      "curveFrom": "{0.32313524951507677, 0.56142599172831598}",
      "curveMode": 2,
      "curveTo": "{0.22394639393405047, 0.61309489136133288}",
      "hasCurveFrom": true,
      "hasCurveTo": true,
      "point": "{0.27358490566037735, 0.58723131589677879}"
    },
    {
      "_class": "curvePoint",
      "cornerRadius": 0,
      "curveFrom": "{0.47196261682243001, 0.49303897011708531}",
      "curveMode": 2,
      "curveTo": "{0.37277376124140371, 0.5374264577386848}",
      "hasCurveFrom": true,
      "hasCurveTo": true,
      "point": "{0.42241227296773065, 0.51523271392788494}"
    },
    {
      "_class": "curvePoint",
      "cornerRadius": 0,
      "curveFrom": "{0.59821900899312308, 0.42884604182443076}",
      "curveMode": 2,
      "curveTo": "{0.51710456709575048, 0.47136948797110745}",
      "hasCurveFrom": true,
      "hasCurveTo": true,
      "point": "{0.55766178804443678, 0.45010776489776916}"
    },
    {
      "_class": "curvePoint",
      "cornerRadius": 0,
      "curveFrom": "{0.68303650149885398, 0.35713869633599366}",
      "curveMode": 2,
      "curveTo": "{0.63137012872509268, 0.40606978505271762}",
      "hasCurveFrom": true,
      "hasCurveTo": true,
      "point": "{0.65720331511197327, 0.38154598939826423}"
    },
    {
      "_class": "curvePoint",
      "cornerRadius": 0,
      "curveFrom": "{0.69599717862810806, 0.26451913555076623}",
      "curveMode": 3,
      "curveTo": "{0.69599717862810806, 0.33191588512844433}",
      "hasCurveFrom": true,
      "hasCurveTo": true,
      "point": "{0.69599717862810806, 0.30605230966389019}"
    },
    {
      "_class": "curvePoint",
      "cornerRadius": 0,
      "curveFrom": "{0.58763886439781354, 0.18139453602842676}",
      "curveMode": 2,
      "curveTo": "{0.67430788220772364, 0.23131589677870351}",
      "hasCurveFrom": true,
      "hasCurveTo": true,
      "point": "{0.63101745723858238, 0.2063260907555195}"
    },
    {
      "_class": "curvePoint",
      "cornerRadius": 0,
      "curveFrom": "{0.41509433962264164, 0.1689287586648805}",
      "curveMode": 2,
      "curveTo": "{0.53385646270499043, 0.1689287586648805}",
      "hasCurveFrom": true,
      "hasCurveTo": true,
      "point": "{0.46958208428848536, 0.1689287586648805}"
    },
    {
      "_class": "curvePoint",
      "cornerRadius": 0,
      "curveFrom": "{0.26900017633574325, 0.22438399254383432}",
      "curveMode": 2,
      "curveTo": "{0.36404514195027338, 0.18005475621832601}",
      "hasCurveFrom": true,
      "hasCurveTo": true,
      "point": "{0.31652265914300831, 0.20219024873303451}"
    },
    {
      "_class": "curvePoint",
      "cornerRadius": 0,
      "curveFrom": "{0.20128725092576266, 0.28525659695928252}",
      "curveMode": 4,
      "curveTo": "{0.23064715217774642, 0.25205335818721986}",
      "hasCurveFrom": false,
      "hasCurveTo": true,
      "point": "{0.20128725092576266, 0.28525659695928252}"
    },
    {
      "_class": "curvePoint",
      "cornerRadius": 0,
      "curveFrom": "{0.047522482807265044, 0.13945360284266345}",
      "curveMode": 4,
      "curveTo": "{0, 0.19665637560435736}",
      "hasCurveFrom": true,
      "hasCurveTo": false,
      "point": "{0, 0.19665637560435736}"
    },
    {
      "_class": "curvePoint",
      "cornerRadius": 0,
      "curveFrom": "{0.28090283900546642, 0.018465660860954164}",
      "curveMode": 2,
      "curveTo": "{0.11320754716981134, 0.092328304304770931}",
      "hasCurveFrom": true,
      "hasCurveTo": true,
      "point": "{0.19705519308763889, 0.055396982582862492}"
    },
    {
      "_class": "curvePoint",
      "cornerRadius": 0,
      "curveFrom": "{0.62819608534649984, 0}",
      "curveMode": 3,
      "curveTo": "{0.37947451948509975, 0}",
      "hasCurveFrom": true,
      "hasCurveTo": true,
      "point": "{0.4926820666549111, 0}"
    },
    {
      "_class": "curvePoint",
      "cornerRadius": 0,
      "curveFrom": "{0.93008287779932997, 0.130424651948506}",
      "curveMode": 2,
      "curveTo": "{0.74281431846235235, 0.026038329352828259}",
      "hasCurveFrom": true,
      "hasCurveTo": true,
      "point": "{0.83644859813084105, 0.078231490650667174}"
    },
    {
      "_class": "curvePoint",
      "cornerRadius": 0,
      "curveFrom": "{0.97690001763357426, 0.33331391623463635}",
      "curveMode": 3,
      "curveTo": "{0.97690001763357426, 0.20125822799557308}",
      "hasCurveFrom": true,
      "hasCurveTo": true,
      "point": "{0.97690001763357426, 0.29084872138405099}"
    },
    {
      "_class": "curvePoint",
      "cornerRadius": 0,
      "curveFrom": "{0.91579968259566213, 0.44801071823848093}",
      "curveMode": 2,
      "curveTo": "{0.96464468347734089, 0.37321605405720293}",
      "hasCurveFrom": true,
      "hasCurveTo": true,
      "point": "{0.94022218303650162, 0.41067163744393326}"
    },
    {
      "_class": "curvePoint",
      "cornerRadius": 0,
      "curveFrom": "{0.80567801093281621, 0.53369837478883919}",
      "curveMode": 2,
      "curveTo": "{0.88397108093810628, 0.48010718238480815}",
      "hasCurveFrom": true,
      "hasCurveTo": true,
      "point": "{0.84482454593546108, 0.50690277858682375}"
    },
    {
      "_class": "curvePoint",
      "cornerRadius": 0,
      "curveFrom": "{0.66557926291659342, 0.60709500786392501}",
      "curveMode": 2,
      "curveTo": "{0.76203491447716454, 0.55909593988466255}",
      "hasCurveFrom": true,
      "hasCurveTo": true,
      "point": "{0.71380708869687892, 0.58309547387429372}"
    },
    {
      "_class": "curvePoint",
      "cornerRadius": 0,
      "curveFrom": "{0.52274731087991555, 0.66988990505038748}",
      "curveMode": 2,
      "curveTo": "{0.61770410862281799, 0.62928875167472487}",
      "hasCurveFrom": true,
      "hasCurveTo": true,
      "point": "{0.57018162581555287, 0.64956020271451054}"
    },
    {
      "_class": "curvePoint",
      "cornerRadius": 0,
      "curveFrom": "{0.39763710104038097, 0.72965573484010027}",
      "curveMode": 2,
      "curveTo": "{0.47866337506612605, 0.68998660220189911}",
      "hasCurveFrom": true,
      "hasCurveTo": true,
      "point": "{0.43819432198906727, 0.70985029416904544}"
    },
    {
      "_class": "curvePoint",
      "cornerRadius": 0,
      "curveFrom": "{0.31273144066302239, 0.79734374089823501}",
      "curveMode": 2,
      "curveTo": "{0.36439781343678374, 0.75115046309780409}",
      "hasCurveFrom": true,
      "hasCurveTo": true,
      "point": "{0.33856462704990303, 0.7742179763499738}"
    },
    {
      "_class": "curvePoint",
      "cornerRadius": 0,
      "curveFrom": "{0.29765473461470643, 0.84621657831886765}",
      "curveMode": 4,
      "curveTo": "{0.2990654205607477, 0.82134327488786629}",
      "hasCurveFrom": false,
      "hasCurveTo": true,
      "point": "{0.29765473461470643, 0.84621657831886765}"
    },
    {
      "_class": "curvePoint",
      "cornerRadius": 0,
      "curveFrom": "{1, 0.84621657831886765}",
      "curveMode": 1,
      "curveTo": "{1, 0.84621657831886765}",
      "hasCurveFrom": false,
      "hasCurveTo": false,
      "point": "{1, 0.84621657831886765}"
    },
    {
      "_class": "curvePoint",
      "cornerRadius": 0,
      "curveFrom": "{1, 1}",
      "curveMode": 1,
      "curveTo": "{1, 1}",
      "hasCurveFrom": false,
      "hasCurveTo": false,
      "point": "{1, 1}"
    }
  ],
  "resizingConstraint": 63,
  "resizingType": 0,
  "rotation": 0,
  "shouldBreakMaskChain": false
}