{
  "_class": "symbolInstance",
  "booleanOperation": 0,
  "do_objectID": "6182C2CD-9B2F-499B-A2AF-CBD5976554C1",
  "exportOptions": {
    "_class": "exportOptions",
    "do_objectID": "7AF5C254-E582-4156-9148-CD51F394EEB8",
    "exportFormats": [
    ],
    "includedLayerIds": [
    ],
    "layerOptions": 0,
    "shouldTrim": false
  },
  "frame": {
    "_class": "rect",
    "constrainProportions": false,
    "do_objectID": "8C30ACE8-BF9A-418C-9E56-8401E26446B5",
    "height": 40,
    "width": 40,
    "x": 696.0000000000001,
    "y": 10
  },
  "horizontalSpacing": 0,
  "isFixedToViewport": false,
  "isFlippedHorizontal": false,
  "isFlippedVertical": false,
  "isLocked": false,
  "isVisible": true,
  "layerListExpandedType": 0,
  "name": "info",
  "nameIsFixed": true,
  "overrideValues": [
  ],
  "resizingConstraint": 60,
  "resizingType": 0,
  "rotation": 0,
  "scale": 1,
  "shouldBreakMaskChain": false,
  "style": {
    "_class": "style",
    "do_objectID": "C26CF871-6B86-4C20-B9BA-007E5CA9A54D",
    "endMarkerType": 0,
    "miterLimit": 10,
    "startMarkerType": 0,
    "windingRule": 1
  },
  "symbolID": "A13C8E7E-469E-43DA-BCF1-9DD13EDA86A8",
  "userInfo": {
    "com.animaapp.stc-sketch-plugin": {
      "kModelPropertiesKey": {
      }
    }
  },
  "verticalSpacing": 0
}