{
  "_class": "group",
  "booleanOperation": -1,
  "do_objectID": "A0CB630F-9A8A-45EB-9BDD-330E40070196",
  "exportOptions": {
    "_class": "exportOptions",
    "do_objectID": "F6BC3732-D0A8-422F-9C5C-0F410DAA733F",
    "exportFormats": [
    ],
    "includedLayerIds": [
    ],
    "layerOptions": 0,
    "shouldTrim": false
  },
  "frame": {
    "_class": "rect",
    "constrainProportions": false,
    "do_objectID": "00A90C83-6EDC-43F9-B37C-B285F53D16AF",
    "height": 80,
    "width": 320,
    "x": 0,
    "y": 0
  },
  "hasClickThrough": false,
  "isFixedToViewport": false,
  "isFlippedHorizontal": false,
  "isFlippedVertical": false,
  "isLocked": false,
  "isVisible": true,
  "layerListExpandedType": 2,
  "layers": [
    {
      "class": "shapeGroup",
      "id": "38E87F97-4223-4E2D-98EB-B36BC6D9D1EE"
    },
    {
      "class": "text",
      "id": "5C73E793-70CC-4720-BA07-ECD076CA2540"
    },
    {
      "class": "text",
      "id": "6FFB3BF2-89E5-490D-A935-81EF5A4370DE"
    },
    {
      "class": "shapeGroup",
      "id": "17C0C54A-83D9-49A9-B389-A2493A871CCB"
    },
    {
      "class": "symbolInstance",
      "id": "1257D0A7-9543-42BA-B470-0125A96A32CA"
    },
    {
      "class": "text",
      "id": "24C29672-7125-44E1-92DD-85058A42D31C"
    },
    {
      "class": "symbolInstance",
      "id": "370DA1C1-E128-4E15-934E-B83ADC235F41"
    }
  ],
  "name": "25h8/Chat/Chat List/Inactive/Long Title/chat-list-item+direct",
  "nameIsFixed": true,
  "resizingConstraint": 63,
  "resizingType": 0,
  "rotation": 0,
  "shouldBreakMaskChain": false,
  "style": {
    "_class": "style",
    "do_objectID": "1B35C9AF-E4C7-4A2E-88A9-1F7BB7324BCA",
    "endMarkerType": 0,
    "miterLimit": 10,
    "startMarkerType": 0,
    "windingRule": 1
  }
}