{
  "_class": "group",
  "booleanOperation": 0,
  "do_objectID": "C2633521-FDFD-4DA0-9E10-BC26B6A0DAE0",
  "exportOptions": {
    "_class": "exportOptions",
    "exportFormats": [
      {
        "_class": "exportFormat",
        "absoluteSize": 0,
        "fileFormat": "png",
        "name": "",
        "namingScheme": 0,
        "scale": 1,
        "visibleScaleType": 0
      }
    ],
    "includedLayerIds": [
    ],
    "layerOptions": 0,
    "shouldTrim": false
  },
  "frame": {
    "_class": "rect",
    "constrainProportions": false,
    "height": 48,
    "width": 48,
    "x": 0,
    "y": 0
  },
  "hasClickThrough": false,
  "isFixedToViewport": false,
  "isFlippedHorizontal": false,
  "isFlippedVertical": false,
  "isLocked": false,
  "isVisible": true,
  "layerListExpandedType": 0,
  "layers": [
    {
      "class": "shapeGroup",
      "id": "59A7F6B9-F727-4FD9-B2CA-C1393F1FD446"
    },
    {
      "class": "shapeGroup",
      "id": "BE858D02-23BE-4D0A-9982-A009177E6ED0"
    },
    {
      "class": "shapeGroup",
      "id": "F2D4213D-FAE6-4717-9D09-845B0A184BDE"
    },
    {
      "class": "shapeGroup",
      "id": "0BF7678D-0112-4A2F-8C0A-CA2F0A02CC47"
    },
    {
      "class": "shapeGroup",
      "id": "9C54504E-420F-4A1C-BA63-BB933D0C3879"
    },
    {
      "class": "shapeGroup",
      "id": "31DF557B-DC76-40AE-BBFD-23E51CFE4E57"
    },
    {
      "class": "shapeGroup",
      "id": "B7C86CAC-DCD7-4DE9-A89F-A8EDE1614E15"
    },
    {
      "class": "shapeGroup",
      "id": "5A6B296C-7C7E-4003-ADFC-C446B08D1B55"
    },
    {
      "class": "group",
      "id": "1E034342-24C0-4A14-A37C-23A64792F0EC"
    }
  ],
  "name": "Documents 48px",
  "nameIsFixed": true,
  "originalObjectID": "71347709-B64D-4E47-BAD9-307DAF65BE87",
  "resizingConstraint": 63,
  "resizingType": 0,
  "rotation": 0,
  "shouldBreakMaskChain": false,
  "style": {
    "_class": "style",
    "endMarkerType": 0,
    "miterLimit": 10,
    "startMarkerType": 0,
    "windingRule": 1
  },
  "userInfo": {
    "com.animaapp.stc-sketch-plugin": {
      "kModelPropertiesKey": {
      }
    }
  }
}