{
  "_class": "symbolInstance",
  "booleanOperation": 0,
  "do_objectID": "31E3BA04-A058-4FD5-9DD4-40ED84BE45E7",
  "exportOptions": {
    "_class": "exportOptions",
    "do_objectID": "57AF4F82-4E2F-44F8-AA72-D6D006199EB2",
    "exportFormats": [
    ],
    "includedLayerIds": [
    ],
    "layerOptions": 0,
    "shouldTrim": false
  },
  "frame": {
    "_class": "rect",
    "constrainProportions": false,
    "do_objectID": "1FFAFD5D-E7BA-4044-AFA7-9E59CBB5777E",
    "height": 40,
    "width": 672,
    "x": 48,
    "y": 8
  },
  "horizontalSpacing": 0,
  "isFixedToViewport": false,
  "isFlippedHorizontal": false,
  "isFlippedVertical": false,
  "isLocked": false,
  "isVisible": true,
  "layerListExpandedType": 0,
  "name": "25h8/chat/txt/search-input",
  "nameIsFixed": false,
  "overrideValues": [
  ],
  "resizingConstraint": 63,
  "resizingType": 0,
  "rotation": 0,
  "scale": 1,
  "shouldBreakMaskChain": false,
  "style": {
    "_class": "style",
    "do_objectID": "D9EF645A-2509-4426-8B30-BA453B38DDEF",
    "endMarkerType": 0,
    "miterLimit": 10,
    "startMarkerType": 0,
    "windingRule": 1
  },
  "symbolID": "B7D015F4-D305-4993-B906-60A6D7F71BC6",
  "verticalSpacing": 0
}