{
  "_class": "symbolMaster",
  "backgroundColor": {
    "_class": "color",
    "alpha": 1,
    "blue": 1,
    "do_objectID": "1106832E-F589-40B9-99FC-E3326ED97F16",
    "green": 1,
    "red": 1
  },
  "booleanOperation": 0,
  "changeIdentifier": 693,
  "do_objectID": "2E8719BB-C30A-4FB9-9868-8C468F917349",
  "exportOptions": {
    "_class": "exportOptions",
    "do_objectID": "0B9F9F55-469A-42C2-804C-0C4856E9DA4F",
    "exportFormats": [
      {
        "_class": "exportFormat",
        "absoluteSize": 0,
        "fileFormat": "svg",
        "name": "",
        "namingScheme": 0,
        "scale": 1,
        "visibleScaleType": 0
      }
    ],
    "includedLayerIds": [
    ],
    "layerOptions": 0,
    "shouldTrim": false
  },
  "frame": {
    "_class": "rect",
    "constrainProportions": false,
    "do_objectID": "E01CB136-6018-46D2-A0B8-650232E833F2",
    "height": 40,
    "width": 40,
    "x": 1984,
    "y": 139
  },
  "hasBackgroundColor": false,
  "hasClickThrough": false,
  "horizontalRulerData": {
    "_class": "rulerData",
    "base": 0,
    "do_objectID": "4C492844-ADCD-4643-92AB-228A46BFDFED",
    "guides": [
    ]
  },
  "includeBackgroundColorInExport": true,
  "includeBackgroundColorInInstance": false,
  "includeInCloudUpload": true,
  "isFixedToViewport": false,
  "isFlippedHorizontal": false,
  "isFlippedVertical": false,
  "isFlowHome": false,
  "isLocked": false,
  "isVisible": true,
  "layerListExpandedType": 2,
  "layers": [
    {
      "class": "shapeGroup",
      "id": "5AE3FBC7-9E48-4D88-9AAC-EEFCC44D278B"
    },
    {
      "class": "shapeGroup",
      "id": "791B5EB5-1737-4089-ABFC-B0300AEF2FB0"
    }
  ],
  "name": "25h8/chat/mat-icon-button/send/send-press",
  "nameIsFixed": true,
  "resizesContent": false,
  "resizingConstraint": 63,
  "resizingType": 0,
  "rotation": 0,
  "shouldBreakMaskChain": true,
  "style": {
    "_class": "style",
    "do_objectID": "AF944F63-FFF1-4E2D-9E4D-367054E31FB5",
    "endMarkerType": 0,
    "miterLimit": 10,
    "startMarkerType": 0,
    "windingRule": 1
  },
  "symbolID": "607DB414-A284-401D-B0D6-22961FFB4220",
  "verticalRulerData": {
    "_class": "rulerData",
    "base": 0,
    "do_objectID": "28FDC837-5254-4EED-B934-F721FB00B255",
    "guides": [
    ]
  }
}