{
  "_class": "symbolMaster",
  "backgroundColor": {
    "_class": "color",
    "alpha": 1,
    "blue": 1,
    "do_objectID": "E2B12693-1493-4DD5-B248-06BE3B8D9DA9",
    "green": 1,
    "red": 1
  },
  "booleanOperation": 0,
  "changeIdentifier": 608,
  "do_objectID": "C7179534-FD11-4CDD-B43E-BB7723487745",
  "exportOptions": {
    "_class": "exportOptions",
    "do_objectID": "3B5EAE3C-DEDD-4422-8106-65DFFD5A3675",
    "exportFormats": [
      {
        "_class": "exportFormat",
        "absoluteSize": 0,
        "fileFormat": "svg",
        "name": "",
        "namingScheme": 0,
        "scale": 1,
        "visibleScaleType": 0
      }
    ],
    "includedLayerIds": [
    ],
    "layerOptions": 0,
    "shouldTrim": false
  },
  "frame": {
    "_class": "rect",
    "constrainProportions": false,
    "do_objectID": "69B99033-56C7-4C76-83D2-2BFEBC9E3936",
    "height": 40,
    "width": 40,
    "x": 2992,
    "y": 139
  },
  "hasBackgroundColor": false,
  "hasClickThrough": true,
  "horizontalRulerData": {
    "_class": "rulerData",
    "base": 0,
    "do_objectID": "F2AA0BDB-A339-482A-B1FF-ABAAE085674D",
    "guides": [
    ]
  },
  "includeBackgroundColorInExport": true,
  "includeBackgroundColorInInstance": true,
  "includeInCloudUpload": true,
  "isFixedToViewport": false,
  "isFlippedHorizontal": false,
  "isFlippedVertical": false,
  "isFlowHome": false,
  "isLocked": false,
  "isVisible": true,
  "layerListExpandedType": 2,
  "layers": [
    {
      "class": "shapeGroup",
      "id": "5AC8EAE0-1917-40D5-AFDE-4A8C05890EF5"
    },
    {
      "class": "shapeGroup",
      "id": "2772F453-C96A-4644-B11A-127ABC376583"
    }
  ],
  "name": "25h8/chat/mat-icon-button/selected/selected-pressed",
  "nameIsFixed": true,
  "originalObjectID": "94181E18-2C17-4785-B3EE-09DDFD9A27BC",
  "resizesContent": false,
  "resizingConstraint": 63,
  "resizingType": 0,
  "rotation": 0,
  "shouldBreakMaskChain": true,
  "style": {
    "_class": "style",
    "do_objectID": "76141935-F008-4299-A1DD-956697C94EF0",
    "endMarkerType": 0,
    "miterLimit": 10,
    "startMarkerType": 0,
    "windingRule": 1
  },
  "symbolID": "B3207C36-E31F-4536-B627-AF5B8946D34E",
  "verticalRulerData": {
    "_class": "rulerData",
    "base": 0,
    "do_objectID": "99B2C4A2-CEBF-4F33-8E0D-B28CE813AC5F",
    "guides": [
    ]
  }
}