{
  "_class": "symbolMaster",
  "backgroundColor": {
    "_class": "color",
    "alpha": 1,
    "blue": 1,
    "do_objectID": "BAF1A6DE-BA83-4CE0-AB61-7A3E3B10EB0D",
    "green": 1,
    "red": 1
  },
  "booleanOperation": 0,
  "changeIdentifier": 5530,
  "do_objectID": "B01784FF-F6AB-47F4-BE5E-26250E107DEF",
  "exportOptions": {
    "_class": "exportOptions",
    "do_objectID": "3462C8DB-0F9D-4D81-96A6-689D1BC2B8C4",
    "exportFormats": [
    ],
    "includedLayerIds": [
    ],
    "layerOptions": 0,
    "shouldTrim": false
  },
  "frame": {
    "_class": "rect",
    "constrainProportions": false,
    "do_objectID": "48CF4765-2757-4188-AB7F-EBBF068367DB",
    "height": 80,
    "width": 320,
    "x": -258,
    "y": 1016
  },
  "hasBackgroundColor": false,
  "hasClickThrough": true,
  "horizontalRulerData": {
    "_class": "rulerData",
    "base": 0,
    "do_objectID": "16097D35-4648-43E5-A97D-727D89222D26",
    "guides": [
    ]
  },
  "includeBackgroundColorInExport": true,
  "includeBackgroundColorInInstance": false,
  "includeInCloudUpload": true,
  "isFixedToViewport": false,
  "isFlippedHorizontal": false,
  "isFlippedVertical": false,
  "isFlowHome": false,
  "isLocked": false,
  "isVisible": true,
  "layerListExpandedType": 2,
  "layers": [
    {
      "class": "group",
      "id": "C835BE34-0A30-4AE1-B967-3286DCD17BEC"
    }
  ],
  "name": "25h8/chat/mat-sidenav-content/mat-sidenav-component/chat-list-item-v3-mobile",
  "nameIsFixed": true,
  "resizesContent": true,
  "resizingConstraint": 63,
  "resizingType": 0,
  "rotation": 0,
  "shouldBreakMaskChain": true,
  "style": {
    "_class": "style",
    "do_objectID": "7EED18AE-A409-49B9-B4C7-F96CB9691367",
    "endMarkerType": 0,
    "miterLimit": 10,
    "startMarkerType": 0,
    "windingRule": 1
  },
  "symbolID": "AD6B4649-914E-4C30-B9A4-7652B8BED4D7",
  "verticalRulerData": {
    "_class": "rulerData",
    "base": 0,
    "do_objectID": "39B5A592-7A03-45AD-9954-9F2313408A91",
    "guides": [
    ]
  }
}