{
  "_class": "symbolInstance",
  "booleanOperation": 0,
  "do_objectID": "4E1D0BD8-0749-4DAD-891E-12B251EC622A",
  "exportOptions": {
    "_class": "exportOptions",
    "do_objectID": "DD58A6A8-14B0-45F9-A3E5-1CB84D6DD162",
    "exportFormats": [
    ],
    "includedLayerIds": [
    ],
    "layerOptions": 0,
    "shouldTrim": false
  },
  "frame": {
    "_class": "rect",
    "constrainProportions": false,
    "do_objectID": "326EDF17-51FE-454C-9C5C-F490B967BD23",
    "height": 127,
    "width": 423,
    "x": 408,
    "y": 529
  },
  "horizontalSpacing": 0,
  "isFixedToViewport": false,
  "isFlippedHorizontal": false,
  "isFlippedVertical": false,
  "isLocked": false,
  "isVisible": true,
  "layerListExpandedType": 0,
  "name": "25h8/chat/chat-area/chat-message-area/chat-message-reply",
  "nameIsFixed": false,
  "overrideValues": [
  ],
  "resizingConstraint": 63,
  "resizingType": 0,
  "rotation": 0,
  "scale": 1,
  "shouldBreakMaskChain": false,
  "style": {
    "_class": "style",
    "do_objectID": "F5D798A4-4302-4A88-B693-FB013309813B",
    "endMarkerType": 0,
    "miterLimit": 10,
    "startMarkerType": 0,
    "windingRule": 1
  },
  "symbolID": "A767782E-1685-48E2-B9DB-8D6E0EB44BFA",
  "verticalSpacing": 0
}