{
  "_class": "shapeGroup",
  "booleanOperation": 0,
  "clippingMaskMode": 0,
  "do_objectID": "BC790EF3-11DE-4883-91C2-304BEE5A6A42",
  "exportOptions": {
    "_class": "exportOptions",
    "do_objectID": "42070E02-041C-44F2-9773-466F6B8663E9",
    "exportFormats": [
    ],
    "includedLayerIds": [
    ],
    "layerOptions": 0,
    "shouldTrim": false
  },
  "frame": {
    "_class": "rect",
    "constrainProportions": false,
    "do_objectID": "E73D3A60-40AA-4399-9DF7-086821FDFFF1",
    "height": 15.99999904,
    "width": 21.99999868,
    "x": 9,
    "y": 12
  },
  "hasClickThrough": true,
  "hasClippingMask": false,
  "isFixedToViewport": false,
  "isFlippedHorizontal": false,
  "isFlippedVertical": false,
  "isLocked": false,
  "isVisible": true,
  "layerListExpandedType": 0,
  "layers": [
    {
      "class": "shapePath",
      "id": "895A018C-A361-4424-B23D-775F296434F6"
    },
    {
      "class": "shapePath",
      "id": "455FEE89-58D4-4E7E-A102-225AA152E2EA"
    },
    {
      "class": "shapePath",
      "id": "5CF7E63D-CBB1-4504-8888-44B2F87E7272"
    }
  ],
  "name": "person add",
  "nameIsFixed": true,
  "originalObjectID": "0DD0B741-4650-4072-91CE-3408C30CAF2F",
  "resizingConstraint": 63,
  "resizingType": 0,
  "rotation": 0,
  "shouldBreakMaskChain": false,
  "style": {
    "_class": "style",
    "do_objectID": "921345E8-075F-48E7-BE8B-C33B95062A12",
    "endMarkerType": 0,
    "fills": [
      {
        "_class": "fill",
        "color": {
          "_class": "color",
          "alpha": 1,
          "blue": 0.8313725490196078,
          "green": 0.7372549019607842,
          "red": 0
        },
        "fillType": 0,
        "isEnabled": true,
        "noiseIndex": 0,
        "noiseIntensity": 0,
        "patternFillType": 0,
        "patternTileScale": 1
      }
    ],
    "miterLimit": 10,
    "sharedObjectID": "0261879A-372D-491B-8108-FCA089D037C4",
    "startMarkerType": 0,
    "windingRule": 1
  },
  "windingRule": 1
}