{
  "_class": "group",
  "booleanOperation": 0,
  "do_objectID": "9F7D7A28-1742-469C-8CD2-14261C610A60",
  "exportOptions": {
    "_class": "exportOptions",
    "exportFormats": [
    ],
    "includedLayerIds": [
    ],
    "layerOptions": 0,
    "shouldTrim": false
  },
  "frame": {
    "_class": "rect",
    "constrainProportions": false,
    "height": 48,
    "width": 320,
    "x": 0,
    "y": 651
  },
  "hasClickThrough": false,
  "isFixedToViewport": false,
  "isFlippedHorizontal": false,
  "isFlippedVertical": false,
  "isLocked": false,
  "isVisible": true,
  "layerListExpandedType": 0,
  "layers": [
    {
      "class": "shapeGroup",
      "id": "9804EFC6-FF87-487D-984E-192712F4F76C"
    },
    {
      "class": "group",
      "id": "1DFE8A3C-9C22-4062-A491-157627FDADFE"
    },
    {
      "class": "shapeGroup",
      "id": "4843262B-B9C4-4294-B18A-CFD725400EDD"
    }
  ],
  "name": "Material/Desktop/Light them Cyan 500/ Buttom button/normal",
  "nameIsFixed": true,
  "resizingConstraint": 63,
  "resizingType": 0,
  "rotation": 0,
  "shouldBreakMaskChain": false,
  "style": {
    "_class": "style",
    "endMarkerType": 0,
    "miterLimit": 10,
    "startMarkerType": 0,
    "windingRule": 1
  }
}