{
  "_class": "group",
  "booleanOperation": 0,
  "do_objectID": "EBE8551B-E445-4BA9-A8B8-AA65AD3DBC93",
  "exportOptions": {
    "_class": "exportOptions",
    "do_objectID": "7D0757FB-1522-4B2D-84B8-1DF9457989DA",
    "exportFormats": [
    ],
    "includedLayerIds": [
    ],
    "layerOptions": 0,
    "shouldTrim": false
  },
  "frame": {
    "_class": "rect",
    "constrainProportions": false,
    "do_objectID": "E1A446F3-291C-454F-8BDD-BC77202112BE",
    "height": 48,
    "width": 109,
    "x": 0,
    "y": 4
  },
  "hasClickThrough": false,
  "isFixedToViewport": false,
  "isFlippedHorizontal": false,
  "isFlippedVertical": false,
  "isLocked": false,
  "isVisible": true,
  "layerListExpandedType": 2,
  "layers": [
    {
      "class": "shapeGroup",
      "id": "2BAF3A67-D7E1-4DEB-A2F9-C7C81BB81AF5"
    },
    {
      "class": "text",
      "id": "7CA3D7C3-78A3-4F65-86F2-73687E6E625F"
    }
  ],
  "name": "tab",
  "nameIsFixed": true,
  "resizingConstraint": 57,
  "resizingType": 0,
  "rotation": 0,
  "shouldBreakMaskChain": false,
  "style": {
    "_class": "style",
    "do_objectID": "49896DBD-F70F-459A-A62E-6F4A959BD865",
    "endMarkerType": 0,
    "miterLimit": 10,
    "startMarkerType": 0,
    "windingRule": 1
  },
  "userInfo": {
    "com.animaapp.stc-sketch-plugin": {
      "kModelPropertiesKey": {
      }
    }
  }
}