{
  "_class": "symbolInstance",
  "booleanOperation": 0,
  "do_objectID": "88122671-6EC1-41FF-8D16-3F4E993CAE89",
  "exportOptions": {
    "_class": "exportOptions",
    "do_objectID": "CE078626-FFC4-4C2E-A553-AAEC578D16F7",
    "exportFormats": [
    ],
    "includedLayerIds": [
    ],
    "layerOptions": 0,
    "shouldTrim": false
  },
  "frame": {
    "_class": "rect",
    "constrainProportions": false,
    "do_objectID": "B44EFE88-47EE-42E6-9E6A-FEC4EE7D3B89",
    "height": 80,
    "width": 320,
    "x": 91,
    "y": 864
  },
  "horizontalSpacing": 0,
  "isFixedToViewport": false,
  "isFlippedHorizontal": false,
  "isFlippedVertical": false,
  "isLocked": false,
  "isVisible": true,
  "layerListExpandedType": 0,
  "name": "25h8/chat/chat-area/chat-message-area/chat-message-emotion-dSig-pin Copy 2",
  "nameIsFixed": false,
  "overrideValues": [
  ],
  "resizingConstraint": 63,
  "resizingType": 0,
  "rotation": 0,
  "scale": 1,
  "shouldBreakMaskChain": false,
  "style": {
    "_class": "style",
    "do_objectID": "B5E16800-369C-4CBD-8D1A-C79759B3431E",
    "endMarkerType": 0,
    "miterLimit": 10,
    "startMarkerType": 0,
    "windingRule": 1
  },
  "symbolID": "5437EC01-9610-4D86-99EB-0CCAD477B3B4",
  "verticalSpacing": 0
}