{
  "_class": "shapePath",
  "booleanOperation": -1,
  "do_objectID": "7170CE0E-98A2-44A1-8E59-497C9BE59F85",
  "edited": true,
  "exportOptions": {
    "_class": "exportOptions",
    "exportFormats": [
    ],
    "includedLayerIds": [
    ],
    "layerOptions": 0,
    "shouldTrim": false
  },
  "frame": {
    "_class": "rect",
    "constrainProportions": false,
    "height": 15.0080662484494,
    "width": 23.74648627347728,
    "x": 0,
    "y": -3.599999999999999e-15
  },
  "isClosed": true,
  "isFixedToViewport": false,
  "isFlippedHorizontal": false,
  "isFlippedVertical": false,
  "isLocked": false,
  "isVisible": true,
  "layerListExpandedType": 0,
  "name": "Path",
  "nameIsFixed": false,
  "pointRadiusBehaviour": 0,
  "points": [
    {
      "_class": "curvePoint",
      "cornerRadius": 0,
      "curveFrom": "{0.032810190862499297, 0.91214161006758021}",
      "curveMode": 1,
      "curveTo": "{0, 0.99999781843246383}",
      "hasCurveFrom": false,
      "hasCurveTo": false,
      "point": "{0, 0.99999781843246383}"
    },
    {
      "_class": "curvePoint",
      "cornerRadius": 0,
      "curveFrom": "{0.26659853439969983, 0.50324970273215097}",
      "curveMode": 3,
      "curveTo": "{0.21992176481524545, 0.62823660121126346}",
      "hasCurveFrom": true,
      "hasCurveTo": true,
      "point": "{0.25273195567774481, 0.54038039284637918}"
    },
    {
      "_class": "curvePoint",
      "cornerRadius": 0,
      "curveFrom": "{0.33421171477147937, 0.12311866010895639}",
      "curveMode": 2,
      "curveTo": "{0.19896622260388488, 0.25017197240634192}",
      "hasCurveFrom": true,
      "hasCurveTo": true,
      "point": "{0.266588968687682, 0.18664531625764907}"
    },
    {
      "_class": "curvePoint",
      "cornerRadius": 0,
      "curveFrom": "{0.41196735292734565, 0.072658667366537269}",
      "curveMode": 1,
      "curveTo": "{0.37616458797701341, 0}",
      "hasCurveFrom": false,
      "hasCurveTo": false,
      "point": "{0.37616458797701341, 0}"
    },
    {
      "_class": "curvePoint",
      "cornerRadius": 0,
      "curveFrom": "{0.83516847940423167, 0.57133995103061153}",
      "curveMode": 1,
      "curveTo": "{0.76356294950356696, 0.42602261629753752}",
      "hasCurveFrom": false,
      "hasCurveTo": false,
      "point": "{0.79936571445389881, 0.49868128366407483}"
    },
    {
      "_class": "curvePoint",
      "cornerRadius": 0,
      "curveFrom": "{1.0074595647992013, 1.0009781744548849}",
      "curveMode": 2,
      "curveTo": "{0.99172426676014225, 0.92177082141666877}",
      "hasCurveFrom": true,
      "hasCurveTo": true,
      "point": "{0.99959191577967155, 0.96137449793577689}"
    },
    {
      "_class": "curvePoint",
      "cornerRadius": 0,
      "curveFrom": "{0.93914205692973129, 1.3106009769506073}",
      "curveMode": 1,
      "curveTo": "{0.85877201813170845, 0.68939465991432014}",
      "hasCurveFrom": false,
      "hasCurveTo": false,
      "point": "{0.89895703753072087, 0.99999781843246371}"
    },
    {
      "_class": "curvePoint",
      "cornerRadius": 0,
      "curveFrom": "{0.51668754136627426, 0.99999781843246394}",
      "curveMode": 1,
      "curveTo": "{0.57490089621365525, 0.90294841551244109}",
      "hasCurveFrom": false,
      "hasCurveTo": false,
      "point": "{0.51668754136627426, 0.99999781843246394}"
    }
  ],
  "resizingConstraint": 63,
  "resizingType": 0,
  "rotation": 0,
  "shouldBreakMaskChain": false
}