{
  "_class": "shapeGroup",
  "booleanOperation": 0,
  "clippingMaskMode": 0,
  "do_objectID": "D0217077-D32E-432E-9278-5B6696995B2F",
  "exportOptions": {
    "_class": "exportOptions",
    "do_objectID": "A275B375-9335-40FE-8AFE-AC5D0E0C193B",
    "exportFormats": [
    ],
    "includedLayerIds": [
    ],
    "layerOptions": 0,
    "shouldTrim": false
  },
  "frame": {
    "_class": "rect",
    "constrainProportions": false,
    "do_objectID": "632AF4C1-F2AE-4873-BB96-907E99C2979B",
    "height": 14,
    "width": 22,
    "x": 0,
    "y": 0
  },
  "hasClickThrough": false,
  "hasClippingMask": false,
  "isFixedToViewport": false,
  "isFlippedHorizontal": false,
  "isFlippedVertical": false,
  "isLocked": false,
  "isVisible": true,
  "layerListExpandedType": 0,
  "layers": [
    {
      "class": "rectangle",
      "id": "A42EDA92-6B38-4ABC-9AFE-BCA02E94901A"
    }
  ],
  "name": "Notification Bubble",
  "nameIsFixed": false,
  "originalObjectID": "6330B279-229F-41C7-9EFB-663EE6950BE3",
  "resizingConstraint": 18,
  "resizingType": 2,
  "rotation": 0,
  "shouldBreakMaskChain": false,
  "style": {
    "_class": "style",
    "do_objectID": "7BC9F54D-664D-45DA-9F19-BDD328F7A36B",
    "endMarkerType": 0,
    "fills": [
      {
        "_class": "fill",
        "color": {
          "_class": "color",
          "alpha": 1,
          "blue": 0,
          "green": 0.596078431372549,
          "red": 1
        },
        "fillType": 0,
        "isEnabled": true,
        "noiseIndex": 0,
        "noiseIntensity": 0,
        "patternFillType": 0,
        "patternTileScale": 1
      }
    ],
    "miterLimit": 10,
    "sharedObjectID": "E88C1B51-59EA-479C-88D8-0D51B8C22CD8",
    "startMarkerType": 0,
    "windingRule": 1
  },
  "windingRule": 1
}