{
  "_class": "symbolInstance",
  "booleanOperation": 0,
  "do_objectID": "C4C0E933-11B8-4300-A39B-E4F0D219F9EF",
  "exportOptions": {
    "_class": "exportOptions",
    "do_objectID": "A96B9275-48AD-48E6-A8ED-5162B37DF3BB",
    "exportFormats": [
    ],
    "includedLayerIds": [
    ],
    "layerOptions": 0,
    "shouldTrim": false
  },
  "frame": {
    "_class": "rect",
    "constrainProportions": false,
    "do_objectID": "A47EB056-9EA1-494D-A26A-F173F9351714",
    "height": 36,
    "width": 56,
    "x": 1129,
    "y": 14
  },
  "horizontalSpacing": 0,
  "isFixedToViewport": false,
  "isFlippedHorizontal": false,
  "isFlippedVertical": false,
  "isLocked": false,
  "isVisible": true,
  "layerListExpandedType": 0,
  "name": "mat-basic-button",
  "nameIsFixed": false,
  "overrideValues": [
  ],
  "resizingConstraint": 63,
  "resizingType": 0,
  "rotation": 0,
  "scale": 1,
  "shouldBreakMaskChain": false,
  "style": {
    "_class": "style",
    "do_objectID": "29100FCA-6E1F-4115-83A9-EDFCD8DF09C5",
    "endMarkerType": 0,
    "miterLimit": 10,
    "startMarkerType": 0,
    "windingRule": 1
  },
  "symbolID": "206373D6-BBFA-490B-BA84-27C558D3A0F1",
  "verticalSpacing": 0
}