{
  "_class": "symbolInstance",
  "booleanOperation": 0,
  "do_objectID": "A5A8A700-460E-4076-9F9B-AEC66379113E",
  "exportOptions": {
    "_class": "exportOptions",
    "do_objectID": "9E019145-473F-4183-B215-61D57D5C6633",
    "exportFormats": [
    ],
    "includedLayerIds": [
    ],
    "layerOptions": 0,
    "shouldTrim": false
  },
  "frame": {
    "_class": "rect",
    "constrainProportions": false,
    "do_objectID": "6C54C8C1-66D5-450F-8E3A-75F865BD0993",
    "height": 40,
    "width": 40,
    "x": 840,
    "y": 10
  },
  "horizontalSpacing": 0,
  "isFixedToViewport": false,
  "isFlippedHorizontal": false,
  "isFlippedVertical": false,
  "isLocked": false,
  "isVisible": true,
  "layerListExpandedType": 0,
  "name": "Material/Icons/Black/Active/settings",
  "nameIsFixed": false,
  "overrideValues": [
  ],
  "resizingConstraint": 60,
  "resizingType": 0,
  "rotation": 0,
  "scale": 1,
  "shouldBreakMaskChain": false,
  "style": {
    "_class": "style",
    "do_objectID": "B1781257-1A2D-4622-9F17-8ADF3116B407",
    "endMarkerType": 0,
    "miterLimit": 10,
    "startMarkerType": 0,
    "windingRule": 1
  },
  "symbolID": "0839DCFD-3D47-47D5-BA29-9A0D7434CF31",
  "userInfo": {
    "com.animaapp.stc-sketch-plugin": {
      "kModelPropertiesKey": {
      }
    }
  },
  "verticalSpacing": 0
}