{
  "_class": "symbolInstance",
  "booleanOperation": 0,
  "do_objectID": "AC712362-6F8C-47FC-9B33-3B76B1831192",
  "exportOptions": {
    "_class": "exportOptions",
    "do_objectID": "9F11FDE4-78CF-4965-9BBD-2A26CAA3B458",
    "exportFormats": [
    ],
    "includedLayerIds": [
    ],
    "layerOptions": 0,
    "shouldTrim": false
  },
  "frame": {
    "_class": "rect",
    "constrainProportions": false,
    "do_objectID": "08AEA703-C058-4E39-8409-9832D10EA9F7",
    "height": 40,
    "width": 40,
    "x": 276,
    "y": 4
  },
  "horizontalSpacing": 0,
  "isFixedToViewport": false,
  "isFlippedHorizontal": false,
  "isFlippedVertical": false,
  "isLocked": false,
  "isVisible": true,
  "layerListExpandedType": 0,
  "name": "25h8/chat/mat-icon-button/more-vert/more-vert-default",
  "nameIsFixed": false,
  "overrideValues": [
  ],
  "resizingConstraint": 63,
  "resizingType": 0,
  "rotation": 0,
  "scale": 1,
  "shouldBreakMaskChain": false,
  "style": {
    "_class": "style",
    "do_objectID": "CC0F5322-0A82-41A0-A0A4-ECE0541F4981",
    "endMarkerType": 0,
    "miterLimit": 10,
    "startMarkerType": 0,
    "windingRule": 1
  },
  "symbolID": "885C0072-7A72-44AF-A691-C64B14C072C3",
  "verticalSpacing": 0
}