{
  "_class": "group",
  "booleanOperation": 0,
  "do_objectID": "DDB08B09-B934-43C5-9757-98814CAB173E",
  "exportOptions": {
    "_class": "exportOptions",
    "exportFormats": [
    ],
    "includedLayerIds": [
    ],
    "layerOptions": 0,
    "shouldTrim": false
  },
  "frame": {
    "_class": "rect",
    "constrainProportions": false,
    "height": 48,
    "width": 248,
    "x": 0,
    "y": 8
  },
  "hasClickThrough": false,
  "isFixedToViewport": false,
  "isFlippedHorizontal": false,
  "isFlippedVertical": false,
  "isLocked": false,
  "isVisible": true,
  "layerListExpandedType": 0,
  "layers": [
    {
      "class": "shapeGroup",
      "id": "92CD9850-BA68-43C8-8734-21FDBA3BB7C3"
    },
    {
      "class": "symbolInstance",
      "id": "43C598C6-7414-480B-B838-7869ED3BB6B5"
    },
    {
      "class": "text",
      "id": "EAD184CF-8BAE-4AE3-8344-FE364DCA7E71"
    }
  ],
  "name": "Group",
  "nameIsFixed": false,
  "resizingConstraint": 63,
  "resizingType": 0,
  "rotation": 0,
  "shouldBreakMaskChain": false,
  "style": {
    "_class": "style",
    "endMarkerType": 0,
    "miterLimit": 10,
    "startMarkerType": 0,
    "windingRule": 1
  }
}