{
  "_class": "group",
  "booleanOperation": 0,
  "do_objectID": "7AA57CAF-129D-4E51-BB2F-638A2C677FCC",
  "exportOptions": {
    "_class": "exportOptions",
    "exportFormats": [
    ],
    "includedLayerIds": [
    ],
    "layerOptions": 0,
    "shouldTrim": false
  },
  "frame": {
    "_class": "rect",
    "constrainProportions": false,
    "height": 48,
    "width": 48,
    "x": 0,
    "y": 0
  },
  "hasClickThrough": false,
  "isFixedToViewport": false,
  "isFlippedHorizontal": false,
  "isFlippedVertical": false,
  "isLocked": false,
  "isVisible": true,
  "layerListExpandedType": 0,
  "layers": [
    {
      "class": "shapeGroup",
      "id": "A418CA13-B503-4A7C-9B26-16AA986A2C56"
    },
    {
      "class": "shapeGroup",
      "id": "B9DB136A-07E8-4421-90C3-80ADFF72C46E"
    },
    {
      "class": "shapeGroup",
      "id": "163ECBC8-CFF5-44CF-9B75-3E9E72ED81D8"
    },
    {
      "class": "shapeGroup",
      "id": "915928C0-D3B8-401A-B4DA-6F12E631E512"
    },
    {
      "class": "shapeGroup",
      "id": "6C875CD5-4203-41B4-ACED-3CAFE08DC960"
    },
    {
      "class": "shapeGroup",
      "id": "299A2053-2F02-4D43-8809-857A97F0FC19"
    },
    {
      "class": "shapeGroup",
      "id": "1804BFC8-F73D-4A16-8AE0-7BF3AAD8448B"
    }
  ],
  "name": "25h8/chat/product-icon/profile/profile-default",
  "nameIsFixed": true,
  "resizingConstraint": 63,
  "resizingType": 0,
  "rotation": 0,
  "shouldBreakMaskChain": false,
  "style": {
    "_class": "style",
    "endMarkerType": 0,
    "miterLimit": 10,
    "shadows": [
      {
        "_class": "shadow",
        "blurRadius": 4,
        "color": {
          "_class": "color",
          "alpha": 0.24,
          "blue": 0,
          "green": 0,
          "red": 0
        },
        "contextSettings": {
          "_class": "graphicsContextSettings",
          "blendMode": 0,
          "opacity": 1
        },
        "isEnabled": true,
        "offsetX": 0,
        "offsetY": 2,
        "spread": 0
      }
    ],
    "startMarkerType": 0,
    "windingRule": 1
  }
}