{
  "_class": "symbolMaster",
  "backgroundColor": {
    "_class": "color",
    "alpha": 1,
    "blue": 1,
    "do_objectID": "17CCC253-D32C-4775-A795-118F7D904B9E",
    "green": 1,
    "red": 1
  },
  "booleanOperation": 0,
  "changeIdentifier": 425,
  "do_objectID": "7E53E02E-A712-4794-A3A6-CBD18B800FBC",
  "exportOptions": {
    "_class": "exportOptions",
    "do_objectID": "144A65C1-6D9C-4E3F-A03D-D9D5ED859BAD",
    "exportFormats": [
      {
        "_class": "exportFormat",
        "absoluteSize": 0,
        "fileFormat": "svg",
        "name": "",
        "namingScheme": 0,
        "scale": 1,
        "visibleScaleType": 0
      }
    ],
    "includedLayerIds": [
    ],
    "layerOptions": 0,
    "shouldTrim": false
  },
  "frame": {
    "_class": "rect",
    "constrainProportions": false,
    "do_objectID": "7EBB09AF-9954-4186-9D35-C6486E31E582",
    "height": 40,
    "width": 40,
    "x": 2632,
    "y": 139
  },
  "hasBackgroundColor": false,
  "hasClickThrough": false,
  "horizontalRulerData": {
    "_class": "rulerData",
    "base": 0,
    "do_objectID": "A78392FD-C16B-4E16-9483-99EFB90A038A",
    "guides": [
    ]
  },
  "includeBackgroundColorInExport": true,
  "includeBackgroundColorInInstance": false,
  "includeInCloudUpload": true,
  "isFixedToViewport": false,
  "isFlippedHorizontal": false,
  "isFlippedVertical": false,
  "isFlowHome": false,
  "isLocked": false,
  "isVisible": true,
  "layerListExpandedType": 2,
  "layers": [
    {
      "class": "shapeGroup",
      "id": "3351A359-8000-4B2F-B8CD-E420BA5AAE93"
    },
    {
      "class": "shapeGroup",
      "id": "FE68D06F-0347-4A75-97FC-5095F1E8825B"
    }
  ],
  "name": "25h8/chat/mat-icon-button/close/close-press",
  "nameIsFixed": true,
  "resizesContent": false,
  "resizingConstraint": 63,
  "resizingType": 0,
  "rotation": 0,
  "shouldBreakMaskChain": true,
  "style": {
    "_class": "style",
    "do_objectID": "646423BA-09F6-4069-96D7-1D434381E06C",
    "endMarkerType": 0,
    "miterLimit": 10,
    "startMarkerType": 0,
    "windingRule": 1
  },
  "symbolID": "0114D573-EEAF-4011-81DB-5A487E34766A",
  "verticalRulerData": {
    "_class": "rulerData",
    "base": 0,
    "do_objectID": "20F638DA-A6E9-43AF-8014-C32C18EBA904",
    "guides": [
    ]
  }
}