{
  "_class": "symbolMaster",
  "backgroundColor": {
    "_class": "color",
    "alpha": 1,
    "blue": 1,
    "do_objectID": "D50867B8-383B-4AF6-908D-727F76BF2B7E",
    "green": 1,
    "red": 1
  },
  "booleanOperation": 0,
  "changeIdentifier": 300,
  "do_objectID": "11D2244F-41C2-4734-B102-7F833D4D7F63",
  "exportOptions": {
    "_class": "exportOptions",
    "do_objectID": "5761284E-037D-4F40-B0D9-00D23D614002",
    "exportFormats": [
      {
        "_class": "exportFormat",
        "absoluteSize": 0,
        "fileFormat": "svg",
        "name": "",
        "namingScheme": 0,
        "scale": 1,
        "visibleScaleType": 0
      }
    ],
    "includedLayerIds": [
    ],
    "layerOptions": 0,
    "shouldTrim": false
  },
  "frame": {
    "_class": "rect",
    "constrainProportions": false,
    "do_objectID": "FDCC26B8-1286-48E0-8D4C-CB16ABE6CD83",
    "height": 40,
    "width": 40,
    "x": 2056,
    "y": 75
  },
  "hasBackgroundColor": false,
  "hasClickThrough": false,
  "horizontalRulerData": {
    "_class": "rulerData",
    "base": 0,
    "do_objectID": "540C165F-8AEF-48FC-8DD2-E456342FF616",
    "guides": [
    ]
  },
  "includeBackgroundColorInExport": true,
  "includeBackgroundColorInInstance": false,
  "includeInCloudUpload": true,
  "isFixedToViewport": false,
  "isFlippedHorizontal": false,
  "isFlippedVertical": false,
  "isFlowHome": false,
  "isLocked": false,
  "isVisible": true,
  "layerListExpandedType": 2,
  "layers": [
    {
      "class": "shapeGroup",
      "id": "AE171A7B-8E74-4346-978A-E40AE72565BC"
    }
  ],
  "name": "25h8/chat/mat-icon-button/emotion/emotion-hover",
  "nameIsFixed": true,
  "resizesContent": false,
  "resizingConstraint": 63,
  "resizingType": 0,
  "rotation": 0,
  "shouldBreakMaskChain": true,
  "style": {
    "_class": "style",
    "do_objectID": "0009DE9A-F859-435A-9F8B-50856ACCFA75",
    "endMarkerType": 0,
    "miterLimit": 10,
    "startMarkerType": 0,
    "windingRule": 1
  },
  "symbolID": "FA20DF05-FB10-413B-B524-22B774AE92C7",
  "verticalRulerData": {
    "_class": "rulerData",
    "base": 0,
    "do_objectID": "3E727EE3-3813-46A1-BC2D-4F0371B219C5",
    "guides": [
    ]
  }
}