{
  "_class": "symbolMaster",
  "backgroundColor": {
    "_class": "color",
    "alpha": 1,
    "blue": 1,
    "do_objectID": "A6740FD9-F0B9-468D-886F-3A890CB641B3",
    "green": 1,
    "red": 1
  },
  "booleanOperation": 0,
  "changeIdentifier": 2810,
  "do_objectID": "37FD7E8E-B02E-4767-BB05-95A76E4EC55E",
  "exportOptions": {
    "_class": "exportOptions",
    "do_objectID": "166FBBAE-A74F-4BC4-A333-6F5545B5A884",
    "exportFormats": [
    ],
    "includedLayerIds": [
    ],
    "layerOptions": 0,
    "shouldTrim": false
  },
  "frame": {
    "_class": "rect",
    "constrainProportions": false,
    "do_objectID": "14794221-4140-43DF-9D1D-73325481812E",
    "height": 80,
    "width": 320,
    "x": -258,
    "y": 904
  },
  "hasBackgroundColor": false,
  "hasClickThrough": true,
  "horizontalRulerData": {
    "_class": "rulerData",
    "base": 0,
    "do_objectID": "D1C3A671-7036-44C4-985E-FBC21B834884",
    "guides": [
    ]
  },
  "includeBackgroundColorInExport": true,
  "includeBackgroundColorInInstance": false,
  "includeInCloudUpload": true,
  "isFixedToViewport": false,
  "isFlippedHorizontal": false,
  "isFlippedVertical": false,
  "isFlowHome": false,
  "isLocked": false,
  "isVisible": true,
  "layerListExpandedType": 2,
  "layers": [
    {
      "class": "group",
      "id": "55FD97EA-7BC9-4F85-9DDB-4920EBBA6013"
    },
    {
      "class": "symbolInstance",
      "id": "703D9B69-C936-4E25-851D-BD4FAA281D1B"
    },
    {
      "class": "group",
      "id": "4D17E209-9C14-4BCD-A449-D931C12DF338"
    }
  ],
  "name": "25h8/chat/mat-sidenav-content/mat-sidenav-component/chat-list-item-v4-mobile",
  "nameIsFixed": true,
  "resizesContent": true,
  "resizingConstraint": 63,
  "resizingType": 0,
  "rotation": 0,
  "shouldBreakMaskChain": true,
  "style": {
    "_class": "style",
    "do_objectID": "1C7C0F3F-E371-4E2F-9405-3E543A82D31D",
    "endMarkerType": 0,
    "miterLimit": 10,
    "startMarkerType": 0,
    "windingRule": 1
  },
  "symbolID": "0B4595F5-CC09-4521-B61D-DC10E0242C50",
  "verticalRulerData": {
    "_class": "rulerData",
    "base": 0,
    "do_objectID": "D7E8467C-072B-493A-88C8-F4554B11C6BB",
    "guides": [
    ]
  }
}