{
  "_class": "shapePath",
  "booleanOperation": -1,
  "do_objectID": "55338CA3-C375-472D-99FB-EBEC2CF7CDB2",
  "edited": true,
  "exportOptions": {
    "_class": "exportOptions",
    "do_objectID": "DD309558-B0BF-433D-8C88-51D2EE6DA78B",
    "exportFormats": [
    ],
    "includedLayerIds": [
    ],
    "layerOptions": 0,
    "shouldTrim": false
  },
  "frame": {
    "_class": "rect",
    "constrainProportions": false,
    "do_objectID": "425A5EE9-6877-4868-8AA1-991BA9C5D9B7",
    "height": 4,
    "width": 4,
    "x": 0,
    "y": 12
  },
  "isClosed": true,
  "isFixedToViewport": false,
  "isFlippedHorizontal": false,
  "isFlippedVertical": false,
  "isLocked": false,
  "isVisible": true,
  "layerListExpandedType": 0,
  "name": "Path",
  "nameIsFixed": false,
  "pointRadiusBehaviour": 1,
  "points": [
    {
      "_class": "curvePoint",
      "cornerRadius": 0,
      "curveFrom": "{0.22500000000000009, 0}",
      "curveMode": 2,
      "curveTo": "{0.77499999999999991, 0}",
      "hasCurveFrom": true,
      "hasCurveTo": true,
      "point": "{0.5, 0}"
    },
    {
      "_class": "curvePoint",
      "cornerRadius": 0,
      "curveFrom": "{0, 0.77500000000000036}",
      "curveMode": 2,
      "curveTo": "{0, 0.22499999999999964}",
      "hasCurveFrom": true,
      "hasCurveTo": true,
      "point": "{0, 0.5}"
    },
    {
      "_class": "curvePoint",
      "cornerRadius": 0,
      "curveFrom": "{0.77499999999999991, 1}",
      "curveMode": 2,
      "curveTo": "{0.22500000000000009, 1}",
      "hasCurveFrom": true,
      "hasCurveTo": true,
      "point": "{0.5, 1}"
    },
    {
      "_class": "curvePoint",
      "cornerRadius": 0,
      "curveFrom": "{1, 0.22499999999999964}",
      "curveMode": 2,
      "curveTo": "{1, 0.77500000000000036}",
      "hasCurveFrom": true,
      "hasCurveTo": true,
      "point": "{1, 0.5}"
    }
  ],
  "resizingConstraint": 63,
  "resizingType": 0,
  "rotation": 0,
  "shouldBreakMaskChain": false
}