{
  "_class": "group",
  "booleanOperation": -1,
  "do_objectID": "7C06CBE1-2F61-4AD7-8D73-A0FE110519E6",
  "exportOptions": {
    "_class": "exportOptions",
    "do_objectID": "CD70EB4A-146D-434A-A831-01B6CE67F28F",
    "exportFormats": [
    ],
    "includedLayerIds": [
    ],
    "layerOptions": 0,
    "shouldTrim": false
  },
  "frame": {
    "_class": "rect",
    "constrainProportions": false,
    "do_objectID": "F14D0DA0-DFEA-4D91-9508-B7A0224C7612",
    "height": 80,
    "width": 320,
    "x": 0,
    "y": 0
  },
  "hasClickThrough": false,
  "isFixedToViewport": false,
  "isFlippedHorizontal": false,
  "isFlippedVertical": false,
  "isLocked": false,
  "isVisible": true,
  "layerListExpandedType": 2,
  "layers": [
    {
      "class": "shapeGroup",
      "id": "C21C7A6D-518D-40AF-AE20-51F52558D395"
    },
    {
      "class": "text",
      "id": "73DBB6D6-787C-479D-A0CF-CB63F98779A1"
    },
    {
      "class": "text",
      "id": "FFA26C5A-BE35-4014-A1D1-C041AC67FE26"
    },
    {
      "class": "shapeGroup",
      "id": "AE0E8BB9-D205-4860-A37C-28C1558619BC"
    },
    {
      "class": "symbolInstance",
      "id": "50DB0B5F-5DA0-4856-AD07-0A2B27645828"
    },
    {
      "class": "text",
      "id": "8DA058AE-04AD-4DFF-BBAA-044BB6328C0B"
    },
    {
      "class": "text",
      "id": "ACA4C76D-A539-405C-94EF-DC6BECCEEDDA"
    },
    {
      "class": "symbolInstance",
      "id": "DEDE07FB-9078-49C9-993D-D7A94102CA83"
    },
    {
      "class": "symbolInstance",
      "id": "150C7BD9-815E-4E9A-B1F1-4A7767C4E620"
    },
    {
      "class": "symbolInstance",
      "id": "3AF0B414-1BE3-47EB-B1B3-F8EAC83E1526"
    }
  ],
  "name": "25h8/Chat/Chat List/Focused/Short Title/chat-list-item+entity+notification-bubble",
  "nameIsFixed": true,
  "resizingConstraint": 63,
  "resizingType": 0,
  "rotation": 0,
  "shouldBreakMaskChain": false,
  "style": {
    "_class": "style",
    "do_objectID": "D1723E5F-F23A-4DD6-A188-392D4B0DC052",
    "endMarkerType": 0,
    "miterLimit": 10,
    "startMarkerType": 0,
    "windingRule": 1
  }
}