{
  "_class": "group",
  "booleanOperation": 0,
  "do_objectID": "09445918-20FF-483F-B762-32AB3574AE14",
  "exportOptions": {
    "_class": "exportOptions",
    "do_objectID": "56B6B072-4C1D-4A21-A83A-6629B7173E5D",
    "exportFormats": [
      {
        "_class": "exportFormat",
        "absoluteSize": 0,
        "fileFormat": "png",
        "name": "",
        "namingScheme": 0,
        "scale": 1,
        "visibleScaleType": 0
      }
    ],
    "includedLayerIds": [
    ],
    "layerOptions": 0,
    "shouldTrim": false
  },
  "frame": {
    "_class": "rect",
    "constrainProportions": false,
    "do_objectID": "FB2E76ED-95E0-471B-A37A-84D6862D1590",
    "height": 48,
    "width": 48,
    "x": 0,
    "y": 0
  },
  "hasClickThrough": false,
  "isFixedToViewport": false,
  "isFlippedHorizontal": false,
  "isFlippedVertical": false,
  "isLocked": false,
  "isVisible": true,
  "layerListExpandedType": 1,
  "layers": [
    {
      "class": "shapeGroup",
      "id": "77340B68-4952-4682-9B21-4D663BFCA1A2"
    },
    {
      "class": "shapeGroup",
      "id": "BBBCC058-D9B2-4EBD-A478-BA372BF6B8F5"
    },
    {
      "class": "shapeGroup",
      "id": "3AAF0DB3-712B-45E3-B32E-B30F214000A7"
    },
    {
      "class": "shapeGroup",
      "id": "89EB9694-8C31-49C9-8E89-868F8AE1F7A9"
    },
    {
      "class": "group",
      "id": "BAFBA51F-0907-48B6-9056-6F4967F27AAC"
    }
  ],
  "name": "25h8/chat/product-icon/global-search/global-search-default",
  "nameIsFixed": true,
  "resizingConstraint": 63,
  "resizingType": 0,
  "rotation": 0,
  "shouldBreakMaskChain": false,
  "style": {
    "_class": "style",
    "do_objectID": "5F7C7002-4AF9-4460-A1FB-4CC7CFC56EE4",
    "endMarkerType": 0,
    "miterLimit": 10,
    "shadows": [
      {
        "_class": "shadow",
        "blurRadius": 4,
        "color": {
          "_class": "color",
          "alpha": 0.24,
          "blue": 0,
          "green": 0,
          "red": 0
        },
        "contextSettings": {
          "_class": "graphicsContextSettings",
          "blendMode": 0,
          "opacity": 1
        },
        "isEnabled": true,
        "offsetX": 0,
        "offsetY": 2,
        "spread": 0
      }
    ],
    "startMarkerType": 0,
    "windingRule": 1
  },
  "userInfo": {
    "com.animaapp.stc-sketch-plugin": {
      "kModelPropertiesKey": {
      }
    }
  }
}