{
  "_class": "symbolInstance",
  "booleanOperation": 0,
  "do_objectID": "1353BAC8-158A-4D9D-9217-2D00C30BBEB5",
  "exportOptions": {
    "_class": "exportOptions",
    "do_objectID": "7DB247AD-3B26-4A8B-BBD8-6F9A86B8AE68",
    "exportFormats": [
    ],
    "includedLayerIds": [
    ],
    "layerOptions": 0,
    "shouldTrim": false
  },
  "frame": {
    "_class": "rect",
    "constrainProportions": false,
    "do_objectID": "13CC699B-19FC-478C-A4BA-7AFED8F9F8D6",
    "height": 75,
    "width": 304,
    "x": 248,
    "y": 271
  },
  "horizontalSpacing": 0,
  "isFixedToViewport": false,
  "isFlippedHorizontal": false,
  "isFlippedVertical": false,
  "isLocked": false,
  "isVisible": true,
  "layerListExpandedType": 0,
  "name": "25h8/chat/chat-area/chat-message-area/chat-message-file",
  "nameIsFixed": false,
  "overrideValues": [
  ],
  "resizingConstraint": 63,
  "resizingType": 0,
  "rotation": 0,
  "scale": 1,
  "shouldBreakMaskChain": false,
  "style": {
    "_class": "style",
    "do_objectID": "D0483D09-96C5-4296-BAD4-A699768C3E13",
    "endMarkerType": 0,
    "miterLimit": 10,
    "startMarkerType": 0,
    "windingRule": 1
  },
  "symbolID": "0A2E29CE-0B9F-4A2C-AAB2-9035BC09AE58",
  "verticalSpacing": 0
}