{
  "_class": "symbolInstance",
  "booleanOperation": 0,
  "do_objectID": "216C9E50-0E3F-45B0-B90B-A629EEB63270",
  "exportOptions": {
    "_class": "exportOptions",
    "do_objectID": "464A75E7-117A-47BC-9913-119F554B3FCD",
    "exportFormats": [
    ],
    "includedLayerIds": [
    ],
    "layerOptions": 0,
    "shouldTrim": false
  },
  "frame": {
    "_class": "rect",
    "constrainProportions": false,
    "do_objectID": "A7667167-E60F-4F34-83AF-F5104B699F67",
    "height": 80,
    "width": 423,
    "x": 521,
    "y": 668
  },
  "horizontalSpacing": 0,
  "isFixedToViewport": false,
  "isFlippedHorizontal": false,
  "isFlippedVertical": false,
  "isLocked": false,
  "isVisible": true,
  "layerListExpandedType": 0,
  "name": "25h8/chat/chat-area/chat-message-area/chat-message-own",
  "nameIsFixed": false,
  "overrideValues": [
  ],
  "resizingConstraint": 63,
  "resizingType": 0,
  "rotation": 0,
  "scale": 1,
  "shouldBreakMaskChain": false,
  "style": {
    "_class": "style",
    "do_objectID": "D8025840-7228-4DC7-944A-BC4D42F29183",
    "endMarkerType": 0,
    "miterLimit": 10,
    "startMarkerType": 0,
    "windingRule": 1
  },
  "symbolID": "5437EC01-9610-4D86-99EB-0CCAD477B3B4",
  "verticalSpacing": 0
}