{
  "_class": "symbolInstance",
  "booleanOperation": 0,
  "do_objectID": "23A6A289-954F-49EB-9FC5-D9786E744236",
  "exportOptions": {
    "_class": "exportOptions",
    "do_objectID": "1E319D55-46BD-4B80-A73E-8CF2FAAAF2F5",
    "exportFormats": [
    ],
    "includedLayerIds": [
    ],
    "layerOptions": 0,
    "shouldTrim": false
  },
  "frame": {
    "_class": "rect",
    "constrainProportions": false,
    "do_objectID": "22F622BE-9FEB-405C-BAE6-39FCEB875ACF",
    "height": 80,
    "width": 423,
    "x": 248,
    "y": 179
  },
  "horizontalSpacing": 0,
  "isFixedToViewport": false,
  "isFlippedHorizontal": false,
  "isFlippedVertical": false,
  "isLocked": false,
  "isVisible": true,
  "layerListExpandedType": 0,
  "name": "25h8/chat/chat-area/chat-message-area/chat-message-emotion-dSig-pin",
  "nameIsFixed": false,
  "overrideValues": [
  ],
  "resizingConstraint": 63,
  "resizingType": 0,
  "rotation": 0,
  "scale": 1,
  "shouldBreakMaskChain": false,
  "style": {
    "_class": "style",
    "do_objectID": "D1D8F6BE-8ABC-4B4F-9A27-240B0E7C32F4",
    "endMarkerType": 0,
    "miterLimit": 10,
    "startMarkerType": 0,
    "windingRule": 1
  },
  "symbolID": "31FCCECD-B1C3-4425-9F6A-8ED31FB9D099",
  "verticalSpacing": 0
}