{
  "_class": "artboard",
  "backgroundColor": {
    "_class": "color",
    "alpha": 1,
    "blue": 1,
    "do_objectID": "0DC52C26-8B4F-494A-B7F5-A53123854D95",
    "green": 1,
    "red": 1
  },
  "booleanOperation": 0,
  "do_objectID": "A9887BB9-AE0E-40CE-92FF-984EDE547DF2",
  "exportOptions": {
    "_class": "exportOptions",
    "do_objectID": "F4D6E465-9E66-497F-900E-26CF66D24250",
    "exportFormats": [
    ],
    "includedLayerIds": [
    ],
    "layerOptions": 0,
    "shouldTrim": false
  },
  "frame": {
    "_class": "rect",
    "constrainProportions": false,
    "do_objectID": "CDAF282F-A105-4905-B75C-A72F4C4F67D6",
    "height": 2536,
    "width": 1440,
    "x": 3413,
    "y": 12
  },
  "grid": {
    "_class": "simpleGrid",
    "do_objectID": "B9705864-7CA3-4A32-97A0-F736B19157F9",
    "gridSize": 4,
    "isEnabled": false,
    "thickGridTimes": 40
  },
  "hasBackgroundColor": true,
  "hasClickThrough": true,
  "horizontalRulerData": {
    "_class": "rulerData",
    "base": 0,
    "do_objectID": "E7225621-B1DC-49F5-ACE4-FDA397172183",
    "guides": [
    ]
  },
  "includeBackgroundColorInExport": true,
  "includeInCloudUpload": true,
  "isFixedToViewport": false,
  "isFlippedHorizontal": false,
  "isFlippedVertical": false,
  "isFlowHome": false,
  "isLocked": false,
  "isVisible": true,
  "layerListExpandedType": 2,
  "layers": [
    {
      "class": "shapeGroup",
      "id": "983CDC73-BFDF-42B3-B945-235800FEAAC5"
    },
    {
      "class": "text",
      "id": "75AE64B4-83E4-4351-A91F-A8AC46E2655B"
    },
    {
      "class": "text",
      "id": "36FE5673-7068-41E0-9434-368598B39BD7"
    },
    {
      "class": "text",
      "id": "E2D65617-BF5B-4A55-9A53-BD29CD4AB832"
    },
    {
      "class": "shapeGroup",
      "id": "ED6122F0-8A82-4FEF-B345-95CC6EFA512C"
    },
    {
      "class": "text",
      "id": "321618DD-BB60-485D-A732-08FCB082BF49"
    },
    {
      "class": "text",
      "id": "FBB43CE9-F1EE-4008-A012-323C628BBAD3"
    },
    {
      "class": "text",
      "id": "0978F173-6992-41F0-96D1-BF6A61563A14"
    },
    {
      "class": "shapeGroup",
      "id": "283E0260-B3A4-4025-B14E-B5B956325555"
    },
    {
      "class": "text",
      "id": "056A36C9-69CA-4B27-959A-A9B1E1AFBAD1"
    },
    {
      "class": "text",
      "id": "165BF923-8EBC-410B-B23D-66439A188DE5"
    },
    {
      "class": "text",
      "id": "FEAAFEB8-AEE6-479B-AA3A-97244F37C429"
    },
    {
      "class": "shapeGroup",
      "id": "72FEE3DA-6187-4D3E-A53A-E4AC1AC0F2A2"
    },
    {
      "class": "shapeGroup",
      "id": "BC2C56C8-1B6A-429E-8580-85BE9DB87A6F"
    },
    {
      "class": "shapeGroup",
      "id": "77F37CD1-75CE-4C8F-8220-D25D87B35CF0"
    },
    {
      "class": "shapeGroup",
      "id": "3833CC5E-199E-4F8C-ABC9-2476FEBB269B"
    },
    {
      "class": "shapeGroup",
      "id": "4E23CCBC-409A-4AF1-9299-D0B01B56C593"
    },
    {
      "class": "shapeGroup",
      "id": "C8647060-5129-4433-8D10-C6409970D2D1"
    },
    {
      "class": "shapeGroup",
      "id": "F31CF90E-0759-48DF-A76A-F3EE5EB38AD4"
    },
    {
      "class": "shapeGroup",
      "id": "E84A310A-60A8-4476-A7EA-C5066400C43A"
    },
    {
      "class": "shapeGroup",
      "id": "E0C901E8-C5FB-4213-A888-38A51097ADB8"
    },
    {
      "class": "shapeGroup",
      "id": "E3E72F1E-D5E3-47DF-B8DC-5961B0497860"
    },
    {
      "class": "shapeGroup",
      "id": "8BCDD8A3-3C7A-4078-93A9-8747A7299895"
    },
    {
      "class": "text",
      "id": "3B46B96A-1A91-4AAC-BD5C-2FD9D859C558"
    },
    {
      "class": "text",
      "id": "73E13113-5EA8-4186-AC39-56D72E1A98FD"
    },
    {
      "class": "text",
      "id": "FA553E60-1262-4FC6-BA82-FB3A28F61B0A"
    },
    {
      "class": "text",
      "id": "A4937BA2-33E6-4841-AAE4-3A6DE3572626"
    },
    {
      "class": "text",
      "id": "93C3A686-90F8-4F24-83AD-934EB8948E1B"
    },
    {
      "class": "text",
      "id": "ABAEDA96-DADE-4AF2-9896-CDC7AFC57618"
    },
    {
      "class": "text",
      "id": "3722A4C4-4BFC-460B-80E3-30D592B742E5"
    },
    {
      "class": "text",
      "id": "3DD93BAA-E68B-4345-93C7-5B69464B3C94"
    },
    {
      "class": "text",
      "id": "67B5A97F-2A5B-472D-8C43-A5C8DC9F52B1"
    },
    {
      "class": "text",
      "id": "CA43EE45-1363-40F1-A93E-D961B30EFC2E"
    },
    {
      "class": "text",
      "id": "DCEAA8E2-52C7-4253-A0F8-0F77EC9A3B84"
    },
    {
      "class": "text",
      "id": "E5C36FF3-EA4B-4193-96DB-484A98367E18"
    },
    {
      "class": "text",
      "id": "9256B27E-A5B1-4A8E-9BA2-ED483C767C5C"
    },
    {
      "class": "text",
      "id": "F3BC520F-8477-4E5B-BCE7-CD93CBBB9342"
    },
    {
      "class": "text",
      "id": "076A300E-AFE8-4075-9A9C-E0E9581E058A"
    },
    {
      "class": "text",
      "id": "83B42FAF-9DFB-46E6-AD07-BD30A37F258B"
    },
    {
      "class": "text",
      "id": "806CCACE-03D2-4AC5-A338-17A15BF92201"
    },
    {
      "class": "text",
      "id": "D602342E-D78D-45FE-90E5-7695AC4F6FAB"
    },
    {
      "class": "text",
      "id": "99065995-30F1-4042-8B3E-1BF829CC088B"
    },
    {
      "class": "text",
      "id": "C52B98EC-61E7-4EE1-A0F9-776DE670E429"
    },
    {
      "class": "text",
      "id": "F13D4B27-1306-4D5A-8795-BBBD899D3C84"
    },
    {
      "class": "text",
      "id": "3F1EEE7A-6693-4F17-92C1-608EAD8461E8"
    },
    {
      "class": "shapeGroup",
      "id": "9C1B5CF9-9B4A-48FF-ACFE-F4CD6A7CE73A"
    },
    {
      "class": "text",
      "id": "D998A02B-6BE9-4B30-9A0A-8D4F903F327C"
    },
    {
      "class": "text",
      "id": "1DEDA319-34FC-4A24-BBD4-A5084D2A479B"
    },
    {
      "class": "text",
      "id": "7C1C2370-B373-4B62-8BFD-B9BA7E490E13"
    },
    {
      "class": "shapeGroup",
      "id": "8AFB02AB-1931-43D3-BC70-CBA449DA9DA9"
    },
    {
      "class": "shapeGroup",
      "id": "DFBE4F3E-1954-4257-93ED-56E1BD75460E"
    },
    {
      "class": "shapeGroup",
      "id": "A3733035-A195-4C04-B71C-2EE69528FACA"
    },
    {
      "class": "shapeGroup",
      "id": "C908C8B1-EF92-4683-B0BB-26F7EF48CD98"
    },
    {
      "class": "shapeGroup",
      "id": "C86BC642-D74C-42CB-9C6D-DD09E63A06B5"
    },
    {
      "class": "shapeGroup",
      "id": "1B6C296A-8B3C-419A-884C-BDC8A0A7A0DE"
    },
    {
      "class": "shapeGroup",
      "id": "11648FD4-EA4E-4F2D-96C9-072830AB8064"
    },
    {
      "class": "shapeGroup",
      "id": "CAD315F4-BF38-4A80-92F9-FFCC5A298671"
    },
    {
      "class": "shapeGroup",
      "id": "97F3D4C7-D4C0-4500-9172-BB739A9ACCA2"
    },
    {
      "class": "shapeGroup",
      "id": "A494FA9C-BE93-44F4-88A1-5AD31A41A3FA"
    },
    {
      "class": "shapeGroup",
      "id": "8461E809-4A3C-4F5F-80AC-39D240191087"
    },
    {
      "class": "text",
      "id": "2121A259-4D38-452E-ACAD-EBE6DDFC5B38"
    },
    {
      "class": "text",
      "id": "5822F0BF-B81A-4F66-81EA-18DC4CB9D5BE"
    },
    {
      "class": "text",
      "id": "CBD81AD7-ADB3-4C41-9759-D4D5046887F7"
    },
    {
      "class": "text",
      "id": "F3E9A303-9DD8-448E-89A0-C4909331D8E0"
    },
    {
      "class": "text",
      "id": "A51AF9BA-D6C8-47D7-BF8D-A8386E10508E"
    },
    {
      "class": "text",
      "id": "627FFB23-B5AA-4AFD-95D0-7FDD8E4D39BC"
    },
    {
      "class": "text",
      "id": "0FE2183E-0B91-418E-9387-780D663D7987"
    },
    {
      "class": "text",
      "id": "E32E063C-717A-4014-92F2-FF4AC349E528"
    },
    {
      "class": "text",
      "id": "AEEA97C9-6020-4388-AF55-639AFA2DD8F3"
    },
    {
      "class": "text",
      "id": "9DEABC36-9B28-4DB5-8E57-3363C1440AE2"
    },
    {
      "class": "text",
      "id": "65C7F651-D302-45C6-8A2E-3347BDD7A994"
    },
    {
      "class": "text",
      "id": "08222214-1C22-422F-BD9C-781874E4DA2B"
    },
    {
      "class": "text",
      "id": "A4C55A86-780B-4092-A77D-A6ECFA5B2623"
    },
    {
      "class": "text",
      "id": "A7C8A718-4A7B-40B9-8B9B-D547F9E31A60"
    },
    {
      "class": "text",
      "id": "C01B9107-C7C7-41F7-85DB-72B6723B8ADF"
    },
    {
      "class": "text",
      "id": "BA6543D1-E356-4896-9193-0FF3C5A4ABDA"
    },
    {
      "class": "text",
      "id": "75675605-D4DB-4E2F-A2D4-31B33BF72F67"
    },
    {
      "class": "text",
      "id": "C6D09896-BFA1-4B42-8862-38040859B83E"
    },
    {
      "class": "text",
      "id": "E2E574D9-3E5B-4DD8-BCA8-8F1F417C490A"
    },
    {
      "class": "text",
      "id": "43DA8456-4043-46CD-ABE5-07975706C478"
    },
    {
      "class": "text",
      "id": "175D8A32-5F0E-447C-B59F-F02167EEBFBC"
    },
    {
      "class": "text",
      "id": "45D2B460-3587-49A8-A7FE-C357517DAC6A"
    },
    {
      "class": "shapeGroup",
      "id": "4563323F-374F-46E3-BF73-E0AC75E7DEB3"
    },
    {
      "class": "text",
      "id": "8E9243C2-2D0E-4559-A90A-027DC184D4B8"
    },
    {
      "class": "text",
      "id": "5A23D333-73E3-40BD-AD5B-B15BE6E8272E"
    },
    {
      "class": "text",
      "id": "D577AC04-837D-4222-A97B-0BA5E44B39E8"
    },
    {
      "class": "shapeGroup",
      "id": "D5C5A7C3-488B-48DD-90BB-714F1500B7C4"
    },
    {
      "class": "shapeGroup",
      "id": "251AFC90-CCD6-4A7B-B50E-1634DD61C6B1"
    },
    {
      "class": "shapeGroup",
      "id": "ED22ECAD-668B-4642-8C06-A748E70BDDEE"
    },
    {
      "class": "text",
      "id": "19A99557-0CF9-4311-8571-41A00B18B430"
    },
    {
      "class": "text",
      "id": "6D592BBE-0DEF-46C5-B4B1-CE28C7720F96"
    },
    {
      "class": "text",
      "id": "78D0E021-4F55-49A6-9F37-EE09EFBE5440"
    },
    {
      "class": "text",
      "id": "3C0224FF-D09C-46F4-8C5E-8AD61A7786A9"
    },
    {
      "class": "text",
      "id": "183952C7-AA85-486A-AEFE-A9F3A53D15A3"
    },
    {
      "class": "text",
      "id": "53990CA2-B12F-457B-A7BB-0B51F890113A"
    },
    {
      "class": "group",
      "id": "7C738427-5E23-453B-B5F4-788D63B22731"
    },
    {
      "class": "shapeGroup",
      "id": "6A9D2576-BC27-4618-967A-1A9B2A653968"
    },
    {
      "class": "text",
      "id": "2B2878BF-AD03-498A-91F7-B6E89E3F8E67"
    },
    {
      "class": "text",
      "id": "9C82B07E-81E8-466E-BE74-A75530CE72FC"
    },
    {
      "class": "text",
      "id": "DC9919B1-2224-455A-B4DA-0F368954FE15"
    },
    {
      "class": "shapeGroup",
      "id": "6CD135D4-7B74-4700-B61F-CBF79F586BDE"
    },
    {
      "class": "text",
      "id": "C61011B7-10A6-478F-869C-DE99B75D0EF0"
    },
    {
      "class": "text",
      "id": "28318966-087C-47EB-9077-57AD9B501235"
    },
    {
      "class": "text",
      "id": "2745E130-53F1-4D4E-9938-79BA4BD7CACD"
    }
  ],
  "name": "Color Scheme",
  "nameIsFixed": true,
  "resizesContent": false,
  "resizingConstraint": 63,
  "resizingType": 0,
  "rotation": 0,
  "shouldBreakMaskChain": true,
  "style": {
    "_class": "style",
    "do_objectID": "B4858CA7-5F5A-4212-AB8D-62BD2D951757",
    "endMarkerType": 0,
    "fills": [
      {
        "_class": "fill",
        "color": {
          "_class": "color",
          "alpha": 1,
          "blue": 1,
          "green": 1,
          "red": 1
        },
        "fillType": 0,
        "isEnabled": true,
        "noiseIndex": 0,
        "noiseIntensity": 0,
        "patternFillType": 1,
        "patternTileScale": 1
      }
    ],
    "miterLimit": 10,
    "startMarkerType": 0,
    "windingRule": 1
  },
  "verticalRulerData": {
    "_class": "rulerData",
    "base": 0,
    "do_objectID": "05CAE0E9-5609-45C3-9259-4ED5245A8581",
    "guides": [
    ]
  }
}