{
  "_class": "symbolMaster",
  "backgroundColor": {
    "_class": "color",
    "alpha": 1,
    "blue": 1,
    "do_objectID": "74A070AE-BB40-4BBF-84CA-2F248643EE9F",
    "green": 1,
    "red": 1
  },
  "booleanOperation": 0,
  "changeIdentifier": 2370,
  "do_objectID": "5902758E-B7BE-4C45-9E78-9C1F9BE7B39C",
  "exportOptions": {
    "_class": "exportOptions",
    "do_objectID": "15B19E5B-0C30-4290-BFD6-F8700F358A6C",
    "exportFormats": [
    ],
    "includedLayerIds": [
    ],
    "layerOptions": 0,
    "shouldTrim": false
  },
  "frame": {
    "_class": "rect",
    "constrainProportions": false,
    "do_objectID": "3E347128-1A84-4157-BB44-3F027FC93B92",
    "height": 208,
    "width": 481,
    "x": 3762,
    "y": -591
  },
  "hasBackgroundColor": false,
  "hasClickThrough": true,
  "horizontalRulerData": {
    "_class": "rulerData",
    "base": 0,
    "do_objectID": "6DADC478-18E8-4750-8A42-D7AA6A065C1F",
    "guides": [
    ]
  },
  "includeBackgroundColorInExport": true,
  "includeBackgroundColorInInstance": false,
  "includeInCloudUpload": true,
  "isFixedToViewport": false,
  "isFlippedHorizontal": false,
  "isFlippedVertical": false,
  "isFlowHome": false,
  "isLocked": false,
  "isVisible": true,
  "layerListExpandedType": 0,
  "layers": [
    {
      "class": "group",
      "id": "99C438E3-77D6-4C76-A58C-D737B7E4AF85"
    },
    {
      "class": "symbolInstance",
      "id": "A84770ED-7821-49E3-871B-65AB50FC3D51"
    },
    {
      "class": "symbolInstance",
      "id": "8E92CA26-A875-42CF-8432-3FCD8C4D2057"
    },
    {
      "class": "group",
      "id": "1DD37263-5128-41E3-9637-B3B8EA03547C"
    }
  ],
  "name": "25h8/chat/chat-area/chat-message-area/chat-message-hover-smile",
  "nameIsFixed": true,
  "resizesContent": false,
  "resizingConstraint": 63,
  "resizingType": 0,
  "rotation": 0,
  "shouldBreakMaskChain": true,
  "style": {
    "_class": "style",
    "do_objectID": "1CC017AB-2698-4FB6-BF64-72EC0FA3DFCE",
    "endMarkerType": 0,
    "miterLimit": 10,
    "startMarkerType": 0,
    "windingRule": 1
  },
  "symbolID": "C6730ABF-D612-413E-9AF6-F2F1FBC4457A",
  "verticalRulerData": {
    "_class": "rulerData",
    "base": 0,
    "do_objectID": "D749A4A5-C429-4656-A23A-0D9EE27658D7",
    "guides": [
    ]
  }
}