{
  "_class": "group",
  "booleanOperation": 0,
  "do_objectID": "AF5E278D-A400-4F66-A6D1-E7D3742CD7B0",
  "exportOptions": {
    "_class": "exportOptions",
    "do_objectID": "B28461F9-4EA4-4BFE-A37D-552502477223",
    "exportFormats": [
    ],
    "includedLayerIds": [
    ],
    "layerOptions": 0,
    "shouldTrim": false
  },
  "frame": {
    "_class": "rect",
    "constrainProportions": false,
    "do_objectID": "A7018BB4-6E64-44FA-BB8E-39430B6BE33B",
    "height": 48,
    "width": 816,
    "x": 16,
    "y": 72
  },
  "hasClickThrough": false,
  "isFixedToViewport": false,
  "isFlippedHorizontal": false,
  "isFlippedVertical": false,
  "isLocked": false,
  "isVisible": true,
  "layerListExpandedType": 0,
  "layers": [
    {
      "class": "group",
      "id": "5639835A-DA34-4140-B21A-1708C00270CA"
    },
    {
      "class": "group",
      "id": "510C10CA-EA81-4744-A901-128C149D05EC"
    },
    {
      "class": "group",
      "id": "499C15C4-7CFF-4C76-BEB8-C1178884265B"
    },
    {
      "class": "group",
      "id": "10F6E210-8283-416C-9F1C-F35D1F38CEA2"
    },
    {
      "class": "group",
      "id": "D8DB2930-BB70-4C29-819C-5CCDD66DE473"
    },
    {
      "class": "group",
      "id": "B52CC208-065B-4596-9F37-D3E41E1814D8"
    },
    {
      "class": "group",
      "id": "92A5F53E-2AC8-41BC-AB0F-446DA3B3DC53"
    },
    {
      "class": "group",
      "id": "6C466A5F-D64E-4753-9BC6-7065C3ACF84B"
    },
    {
      "class": "group",
      "id": "8A716B39-F5F7-4836-A0ED-A4CF9C7FB5B3"
    }
  ],
  "name": "tab-subheader",
  "nameIsFixed": true,
  "resizingConstraint": 63,
  "resizingType": 0,
  "rotation": 0,
  "shouldBreakMaskChain": false,
  "style": {
    "_class": "style",
    "do_objectID": "FF3804C8-68CC-4D76-A8FC-B383A4FF4DDB",
    "endMarkerType": 0,
    "miterLimit": 10,
    "startMarkerType": 0,
    "windingRule": 1
  }
}