{
  "_class": "symbolMaster",
  "backgroundColor": {
    "_class": "color",
    "alpha": 1,
    "blue": 1,
    "do_objectID": "22111FD1-7E88-4152-AC7A-B92E6F67DF4B",
    "green": 1,
    "red": 1
  },
  "booleanOperation": 0,
  "changeIdentifier": 1403,
  "do_objectID": "AE564F00-3CE1-4CC1-8C25-48DB3D513D8F",
  "exportOptions": {
    "_class": "exportOptions",
    "do_objectID": "DE61E5B4-67BB-43E2-A579-2E10B8892657",
    "exportFormats": [
    ],
    "includedLayerIds": [
    ],
    "layerOptions": 0,
    "shouldTrim": false
  },
  "frame": {
    "_class": "rect",
    "constrainProportions": false,
    "do_objectID": "94EC4D7E-4B1D-4EA3-A150-2ACCE674C3E2",
    "height": 72,
    "width": 72,
    "x": -2314,
    "y": 1344
  },
  "hasBackgroundColor": false,
  "hasClickThrough": false,
  "horizontalRulerData": {
    "_class": "rulerData",
    "base": 0,
    "do_objectID": "1EA03B50-059D-4A12-9627-800ED42482EA",
    "guides": [
    ]
  },
  "includeBackgroundColorInExport": true,
  "includeBackgroundColorInInstance": false,
  "includeInCloudUpload": true,
  "isFixedToViewport": false,
  "isFlippedHorizontal": false,
  "isFlippedVertical": false,
  "isFlowHome": false,
  "isLocked": false,
  "isVisible": true,
  "layerListExpandedType": 1,
  "layers": [
    {
      "class": "shapeGroup",
      "id": "8B99E92E-BAEC-44BE-A770-CCAFD40BD2E1"
    },
    {
      "class": "text",
      "id": "5400C249-BD28-4180-801F-3FC731FA3F11"
    },
    {
      "class": "group",
      "id": "21E1F559-4AEE-4143-B823-803DE0C3E197"
    }
  ],
  "name": "25h8/chat/product-icon-name/chat/chat-hover",
  "nameIsFixed": true,
  "originalObjectID": "4DA53197-7BA7-435C-8748-21FB1B337C7E",
  "resizesContent": false,
  "resizingConstraint": 63,
  "resizingType": 0,
  "rotation": 0,
  "shouldBreakMaskChain": true,
  "style": {
    "_class": "style",
    "do_objectID": "0A817A98-21E2-454A-B9FB-02042B903A3F",
    "endMarkerType": 0,
    "miterLimit": 10,
    "startMarkerType": 0,
    "windingRule": 1
  },
  "symbolID": "39932AAA-F482-498D-8D33-A9DA00FA522A",
  "verticalRulerData": {
    "_class": "rulerData",
    "base": 0,
    "do_objectID": "647C13AD-996C-4249-A4DD-22263F276EE1",
    "guides": [
    ]
  }
}