{
  "_class": "symbolInstance",
  "booleanOperation": 0,
  "do_objectID": "DB0F8607-3591-49B9-B39A-0142124965C2",
  "exportOptions": {
    "_class": "exportOptions",
    "do_objectID": "28CB23EF-C57A-4EA5-B6FD-C4B355F8E177",
    "exportFormats": [
    ],
    "includedLayerIds": [
    ],
    "layerOptions": 0,
    "shouldTrim": false
  },
  "frame": {
    "_class": "rect",
    "constrainProportions": false,
    "do_objectID": "06DDCEE9-B116-45F3-BE12-F23CA379426D",
    "height": 48,
    "width": 320,
    "x": 0,
    "y": 156
  },
  "horizontalSpacing": 0,
  "isFixedToViewport": false,
  "isFlippedHorizontal": false,
  "isFlippedVertical": false,
  "isLocked": false,
  "isVisible": true,
  "layerListExpandedType": 0,
  "name": "25h8/chat/mat-sidenav-content/mat-sidenav-component/mat-expension-panel-header-close",
  "nameIsFixed": false,
  "overrideValues": [
    {
      "_class": "overrideValue",
      "do_objectID": "CD9AE8C7-CAA4-441C-8C9A-2C8FB507AA06",
      "overrideName": "2AEF2EDA-F20C-4135-8566-1FC9716FF4EB_stringValue",
      "value": "Показані 1-10 із 2 250 518 записів."
    }
  ],
  "resizingConstraint": 63,
  "resizingType": 0,
  "rotation": 0,
  "scale": 1,
  "shouldBreakMaskChain": false,
  "style": {
    "_class": "style",
    "do_objectID": "10A6A6F8-1B9E-4179-AB60-820811B7D6E3",
    "endMarkerType": 0,
    "miterLimit": 10,
    "startMarkerType": 0,
    "windingRule": 1
  },
  "symbolID": "A38A1F10-0799-4275-8BA5-D9816A19BC1A",
  "verticalSpacing": 0
}