{
  "_class": "shapePath",
  "booleanOperation": -1,
  "do_objectID": "DA03A725-05BC-41A4-BBF1-D4CA83344E61",
  "edited": true,
  "exportOptions": {
    "_class": "exportOptions",
    "do_objectID": "DE70A4EE-ECEE-4729-9818-CEC2DFB14410",
    "exportFormats": [
    ],
    "includedLayerIds": [
    ],
    "layerOptions": 0,
    "shouldTrim": false
  },
  "frame": {
    "_class": "rect",
    "constrainProportions": false,
    "do_objectID": "13566C3D-9A40-44D2-A8BE-69E30FAC8181",
    "height": 15,
    "width": 15,
    "x": 1,
    "y": 0
  },
  "isClosed": true,
  "isFixedToViewport": false,
  "isFlippedHorizontal": false,
  "isFlippedVertical": false,
  "isLocked": false,
  "isVisible": true,
  "layerListExpandedType": 0,
  "name": "Path",
  "nameIsFixed": false,
  "pointRadiusBehaviour": 1,
  "points": [
    {
      "_class": "curvePoint",
      "cornerRadius": 0,
      "curveFrom": "{1, 0.66666666666666663}",
      "curveMode": 4,
      "curveTo": "{1, 0.70333333333333337}",
      "hasCurveFrom": false,
      "hasCurveTo": true,
      "point": "{1, 0.66666666666666663}"
    },
    {
      "_class": "curvePoint",
      "cornerRadius": 0,
      "curveFrom": "{1, 0.030000000000000013}",
      "curveMode": 4,
      "curveTo": "{1, 0.066666666666666666}",
      "hasCurveFrom": true,
      "hasCurveTo": false,
      "point": "{1, 0.066666666666666666}"
    },
    {
      "_class": "curvePoint",
      "cornerRadius": 0,
      "curveFrom": "{0.93333333333333335, 0}",
      "curveMode": 4,
      "curveTo": "{0.97000000000000008, 0}",
      "hasCurveFrom": false,
      "hasCurveTo": true,
      "point": "{0.93333333333333335, 0}"
    },
    {
      "_class": "curvePoint",
      "cornerRadius": 0,
      "curveFrom": "{0.030000000000000013, 0}",
      "curveMode": 4,
      "curveTo": "{0.066666666666666666, 0}",
      "hasCurveFrom": true,
      "hasCurveTo": false,
      "point": "{0.066666666666666666, 0}"
    },
    {
      "_class": "curvePoint",
      "cornerRadius": 0,
      "curveFrom": "{0, 0.066666666666666666}",
      "curveMode": 4,
      "curveTo": "{0, 0.030000000000000013}",
      "hasCurveFrom": false,
      "hasCurveTo": true,
      "point": "{0, 0.066666666666666666}"
    },
    {
      "_class": "curvePoint",
      "cornerRadius": 0,
      "curveFrom": "{0, 1}",
      "curveMode": 1,
      "curveTo": "{0, 1}",
      "hasCurveFrom": false,
      "hasCurveTo": false,
      "point": "{0, 1}"
    },
    {
      "_class": "curvePoint",
      "cornerRadius": 0,
      "curveFrom": "{0.26666666666666666, 0.73333333333333328}",
      "curveMode": 1,
      "curveTo": "{0.26666666666666666, 0.73333333333333328}",
      "hasCurveFrom": false,
      "hasCurveTo": false,
      "point": "{0.26666666666666666, 0.73333333333333328}"
    },
    {
      "_class": "curvePoint",
      "cornerRadius": 0,
      "curveFrom": "{0.97000000000000008, 0.73333333333333328}",
      "curveMode": 4,
      "curveTo": "{0.93333333333333335, 0.73333333333333328}",
      "hasCurveFrom": true,
      "hasCurveTo": false,
      "point": "{0.93333333333333335, 0.73333333333333328}"
    }
  ],
  "resizingConstraint": 63,
  "resizingType": 0,
  "rotation": 0,
  "shouldBreakMaskChain": false
}