{
  "_class": "symbolInstance",
  "booleanOperation": 0,
  "do_objectID": "DAD4D03B-391A-4DC4-B207-3AAC0C1ACB9E",
  "exportOptions": {
    "_class": "exportOptions",
    "do_objectID": "E77AFC66-0066-4934-8031-01C3D604FE2B",
    "exportFormats": [
    ],
    "includedLayerIds": [
    ],
    "layerOptions": 0,
    "shouldTrim": false
  },
  "frame": {
    "_class": "rect",
    "constrainProportions": false,
    "do_objectID": "FB395886-00CA-4D69-9D7A-A31071D62613",
    "height": 48,
    "width": 320,
    "x": 0,
    "y": 64
  },
  "horizontalSpacing": 0,
  "isFixedToViewport": false,
  "isFlippedHorizontal": false,
  "isFlippedVertical": false,
  "isLocked": false,
  "isVisible": true,
  "layerListExpandedType": 0,
  "name": "25h8/chat/chat-layout/chat-layout-header/chat-layout-header-320",
  "nameIsFixed": false,
  "overrideValues": [
  ],
  "resizingConstraint": 63,
  "resizingType": 0,
  "rotation": 0,
  "scale": 1,
  "shouldBreakMaskChain": false,
  "style": {
    "_class": "style",
    "do_objectID": "4DF621DF-14E3-4F9C-8D66-FC062E085558",
    "endMarkerType": 0,
    "miterLimit": 10,
    "startMarkerType": 0,
    "windingRule": 1
  },
  "symbolID": "B34429D6-51BB-4912-887F-CBB46BB94452",
  "verticalSpacing": 0
}