{
  "_class": "group",
  "booleanOperation": 0,
  "do_objectID": "87D832B2-A5AB-4C95-9322-11E745C5C4E7",
  "exportOptions": {
    "_class": "exportOptions",
    "do_objectID": "442E61C4-DF40-4D11-A89D-7596256B7381",
    "exportFormats": [
    ],
    "includedLayerIds": [
    ],
    "layerOptions": 0,
    "shouldTrim": false
  },
  "frame": {
    "_class": "rect",
    "constrainProportions": false,
    "do_objectID": "3745B768-3086-4073-9117-0F8A79E09AA1",
    "height": 40,
    "width": 40,
    "x": 0,
    "y": 0
  },
  "hasClickThrough": false,
  "isFixedToViewport": false,
  "isFlippedHorizontal": false,
  "isFlippedVertical": false,
  "isLocked": false,
  "isVisible": true,
  "layerListExpandedType": 2,
  "layers": [
    {
      "class": "shapeGroup",
      "id": "8A9CE16D-7D67-4B5A-A02C-C61A6DC01FB0"
    },
    {
      "class": "symbolInstance",
      "id": "E5D971D0-8C74-480C-BED5-4937551CFDD0"
    }
  ],
  "name": "Material/Raised button/White/send/disabled",
  "nameIsFixed": true,
  "resizingConstraint": 63,
  "resizingType": 0,
  "rotation": 0,
  "shouldBreakMaskChain": false,
  "style": {
    "_class": "style",
    "do_objectID": "300A707F-3036-4EEE-A42E-C5D147E55C5C",
    "endMarkerType": 0,
    "miterLimit": 10,
    "startMarkerType": 0,
    "windingRule": 1
  }
}