{
  "_class": "symbolMaster",
  "backgroundColor": {
    "_class": "color",
    "alpha": 1,
    "blue": 1,
    "do_objectID": "DDD91762-401A-4412-81EF-CCD08CED368B",
    "green": 1,
    "red": 1
  },
  "booleanOperation": 0,
  "changeIdentifier": 1944,
  "do_objectID": "F7014135-284F-43F6-8A51-4E41DAF71741",
  "exportOptions": {
    "_class": "exportOptions",
    "do_objectID": "9C5E3411-5887-4541-838E-CB21C04699BC",
    "exportFormats": [
    ],
    "includedLayerIds": [
    ],
    "layerOptions": 0,
    "shouldTrim": false
  },
  "frame": {
    "_class": "rect",
    "constrainProportions": false,
    "do_objectID": "E4BB2F2F-5A3E-48E5-8D8C-A0F6136C635C",
    "height": 52,
    "width": 481,
    "x": 3212,
    "y": -657
  },
  "hasBackgroundColor": false,
  "hasClickThrough": true,
  "horizontalRulerData": {
    "_class": "rulerData",
    "base": 0,
    "do_objectID": "5092D9C7-D6FB-4369-A91C-CFAFE3541880",
    "guides": [
    ]
  },
  "includeBackgroundColorInExport": true,
  "includeBackgroundColorInInstance": false,
  "includeInCloudUpload": true,
  "isFixedToViewport": false,
  "isFlippedHorizontal": false,
  "isFlippedVertical": false,
  "isFlowHome": false,
  "isLocked": false,
  "isVisible": true,
  "layerListExpandedType": 0,
  "layers": [
    {
      "class": "group",
      "id": "4A10547A-336D-43BA-8783-9CF13A302FBA"
    },
    {
      "class": "symbolInstance",
      "id": "981B944E-4C21-4D12-8BCE-9F9E4D3EA0D1"
    },
    {
      "class": "symbolInstance",
      "id": "72B5127D-C109-4E95-8CE1-DB1F06D87B28"
    }
  ],
  "name": "25h8/chat/chat-area/chat-message-area/chat-message-hover",
  "nameIsFixed": true,
  "resizesContent": false,
  "resizingConstraint": 63,
  "resizingType": 0,
  "rotation": 0,
  "shouldBreakMaskChain": true,
  "style": {
    "_class": "style",
    "do_objectID": "BA20FDCD-C94E-4385-AAB3-C9EF0E7CDFBB",
    "endMarkerType": 0,
    "miterLimit": 10,
    "startMarkerType": 0,
    "windingRule": 1
  },
  "symbolID": "186DCE72-FDBE-4614-AE1C-32615D1C16D0",
  "verticalRulerData": {
    "_class": "rulerData",
    "base": 0,
    "do_objectID": "F5C17F40-6087-4DCD-9AF6-6CF2D69A3582",
    "guides": [
    ]
  }
}