{
  "_class": "shapeGroup",
  "booleanOperation": 0,
  "clippingMaskMode": 0,
  "do_objectID": "C936FBF4-26E4-4D90-92C6-CB994BDBEA34",
  "exportOptions": {
    "_class": "exportOptions",
    "do_objectID": "8D7D669B-E393-494B-9668-ABB54BC19BF9",
    "exportFormats": [
    ],
    "includedLayerIds": [
    ],
    "layerOptions": 0,
    "shouldTrim": false
  },
  "frame": {
    "_class": "rect",
    "constrainProportions": false,
    "do_objectID": "23A0792F-A1BC-4D5A-B882-B2F846185752",
    "height": 16.12757142857143,
    "width": 18.344,
    "x": 0,
    "y": 0.2278571428571421
  },
  "hasClickThrough": false,
  "hasClippingMask": false,
  "isFixedToViewport": false,
  "isFlippedHorizontal": false,
  "isFlippedVertical": false,
  "isLocked": false,
  "isVisible": true,
  "layerListExpandedType": 2,
  "layers": [
    {
      "class": "shapePath",
      "id": "B5F1B906-8122-414C-9ABB-C821A1D602E8"
    }
  ],
  "name": "Shape",
  "nameIsFixed": false,
  "resizingConstraint": 63,
  "resizingType": 0,
  "rotation": 0,
  "shouldBreakMaskChain": false,
  "style": {
    "_class": "style",
    "blur": {
      "_class": "blur",
      "center": "{0.5, 0.5}",
      "do_objectID": "0244510C-45A2-4A5A-AF75-E563AD46DB8D",
      "isEnabled": false,
      "motionAngle": 0,
      "radius": 16,
      "type": 0
    },
    "do_objectID": "B8AF9CD9-9A04-44D7-BB9C-1509A2E78D5A",
    "endMarkerType": 0,
    "fills": [
      {
        "_class": "fill",
        "color": {
          "_class": "color",
          "alpha": 1,
          "blue": 0.9294117647058824,
          "green": 0.8274509803921568,
          "red": 0.5568627450980392
        },
        "fillType": 1,
        "gradient": {
          "_class": "gradient",
          "elipseLength": 0,
          "from": "{1.3628966726177496, 0}",
          "gradientType": 0,
          "stops": [
            {
              "_class": "gradientStop",
              "color": {
                "_class": "color",
                "alpha": 1,
                "blue": 0.5215686274509804,
                "green": 0.411764705882353,
                "red": 0.01568627450980398
              },
              "position": 0
            },
            {
              "_class": "gradientStop",
              "color": {
                "_class": "color",
                "alpha": 1,
                "blue": 0.9734002976190477,
                "green": 0.9734002976190477,
                "red": 0.9734002976190477
              },
              "position": 1
            }
          ],
          "to": "{0.54979553089566069, 0.96100677189906891}"
        },
        "isEnabled": true,
        "noiseIndex": 0,
        "noiseIntensity": 0,
        "patternFillType": 1,
        "patternTileScale": 1
      }
    ],
    "miterLimit": 10,
    "startMarkerType": 0,
    "windingRule": 1
  },
  "windingRule": 1
}