{
  "_class": "shapePath",
  "booleanOperation": -1,
  "do_objectID": "0FD7A0C0-ED6A-4D86-A59C-927FD3A55B09",
  "edited": true,
  "exportOptions": {
    "_class": "exportOptions",
    "do_objectID": "407FE634-2EF8-40DF-85F5-1F2DDB1333F8",
    "exportFormats": [
    ],
    "includedLayerIds": [
    ],
    "layerOptions": 0,
    "shouldTrim": false
  },
  "frame": {
    "_class": "rect",
    "constrainProportions": false,
    "do_objectID": "92393424-2021-4BD0-A093-303066877A86",
    "height": 9.9999793800012,
    "width": 10.0000094199994,
    "x": 4.999989680000601,
    "y": 5.0000197199988
  },
  "isClosed": true,
  "isFixedToViewport": false,
  "isFlippedHorizontal": false,
  "isFlippedVertical": false,
  "isLocked": false,
  "isVisible": true,
  "layerListExpandedType": 0,
  "name": "Path",
  "nameIsFixed": false,
  "pointRadiusBehaviour": 1,
  "points": [
    {
      "_class": "curvePoint",
      "cornerRadius": 0,
      "curveFrom": "{0.85900015128184826, 0}",
      "curveMode": 1,
      "curveTo": "{0.85900015128184826, 0}",
      "hasCurveFrom": false,
      "hasCurveTo": false,
      "point": "{0.85900015128184826, 0}"
    },
    {
      "_class": "curvePoint",
      "cornerRadius": 0,
      "curveFrom": "{0.500000500999498, 0.35899872671545063}",
      "curveMode": 1,
      "curveTo": "{0.500000500999498, 0.35899872671545063}",
      "hasCurveFrom": false,
      "hasCurveTo": false,
      "point": "{0.500000500999498, 0.35899872671545063}"
    },
    {
      "_class": "curvePoint",
      "cornerRadius": 0,
      "curveFrom": "{0.14099989171810853, 0}",
      "curveMode": 1,
      "curveTo": "{0.14099989171810853, 0}",
      "hasCurveFrom": false,
      "hasCurveTo": false,
      "point": "{0.14099989171810853, 0}"
    },
    {
      "_class": "curvePoint",
      "cornerRadius": 0,
      "curveFrom": "{0, 0.14100026728253495}",
      "curveMode": 1,
      "curveTo": "{0, 0.14100026728253495}",
      "hasCurveFrom": false,
      "hasCurveTo": false,
      "point": "{0, 0.14100026728253495}"
    },
    {
      "_class": "curvePoint",
      "cornerRadius": 0,
      "curveFrom": "{0.35900065228134626, 0.49999899899799594}",
      "curveMode": 1,
      "curveTo": "{0.35900065228134626, 0.49999899899799594}",
      "hasCurveFrom": false,
      "hasCurveTo": false,
      "point": "{0.35900065228134626, 0.49999899899799594}"
    },
    {
      "_class": "curvePoint",
      "cornerRadius": 0,
      "curveFrom": "{0, 0.8589997277174547}",
      "curveMode": 1,
      "curveTo": "{0, 0.8589997277174547}",
      "hasCurveFrom": false,
      "hasCurveTo": false,
      "point": "{0, 0.8589997277174547}"
    },
    {
      "_class": "curvePoint",
      "cornerRadius": 0,
      "curveFrom": "{0.14099989171810853, 1}",
      "curveMode": 1,
      "curveTo": "{0.14099989171810853, 1}",
      "hasCurveFrom": false,
      "hasCurveTo": false,
      "point": "{0.14099989171810853, 1}"
    },
    {
      "_class": "curvePoint",
      "cornerRadius": 0,
      "curveFrom": "{0.500000500999498, 0.64099926128052087}",
      "curveMode": 1,
      "curveTo": "{0.500000500999498, 0.64099926128052087}",
      "hasCurveFrom": false,
      "hasCurveTo": false,
      "point": "{0.500000500999498, 0.64099926128052087}"
    },
    {
      "_class": "curvePoint",
      "cornerRadius": 0,
      "curveFrom": "{0.85900015128184826, 1}",
      "curveMode": 1,
      "curveTo": "{0.85900015128184826, 1}",
      "hasCurveFrom": false,
      "hasCurveTo": false,
      "point": "{0.85900015128184826, 1}"
    },
    {
      "_class": "curvePoint",
      "cornerRadius": 0,
      "curveFrom": "{1, 0.8589997277174547}",
      "curveMode": 1,
      "curveTo": "{1, 0.8589997277174547}",
      "hasCurveFrom": false,
      "hasCurveTo": false,
      "point": "{1, 0.8589997277174547}"
    },
    {
      "_class": "curvePoint",
      "cornerRadius": 0,
      "curveFrom": "{0.64100033971765946, 0.49999899899799594}",
      "curveMode": 1,
      "curveTo": "{0.64100033971765946, 0.49999899899799594}",
      "hasCurveFrom": false,
      "hasCurveTo": false,
      "point": "{0.64100033971765946, 0.49999899899799594}"
    },
    {
      "_class": "curvePoint",
      "cornerRadius": 0,
      "curveFrom": "{1, 0.14100026728253495}",
      "curveMode": 1,
      "curveTo": "{1, 0.14100026728253495}",
      "hasCurveFrom": false,
      "hasCurveTo": false,
      "point": "{1, 0.14100026728253495}"
    }
  ],
  "resizingConstraint": 63,
  "resizingType": 0,
  "rotation": 0,
  "shouldBreakMaskChain": false
}