{
  "_class": "symbolInstance",
  "booleanOperation": 0,
  "do_objectID": "A809DC8F-5D90-46A3-B090-9FBABAA7D70E",
  "exportOptions": {
    "_class": "exportOptions",
    "exportFormats": [
    ],
    "includedLayerIds": [
    ],
    "layerOptions": 0,
    "shouldTrim": false
  },
  "frame": {
    "_class": "rect",
    "constrainProportions": true,
    "height": 16,
    "width": 16,
    "x": 302,
    "y": 2
  },
  "horizontalSpacing": 0,
  "isFixedToViewport": false,
  "isFlippedHorizontal": false,
  "isFlippedVertical": false,
  "isLocked": false,
  "isVisible": true,
  "layerListExpandedType": 0,
  "name": "25h8/chat/mat-icon-button/black/setting/setting-default",
  "nameIsFixed": false,
  "overrideValues": [
  ],
  "resizingConstraint": 60,
  "resizingType": 0,
  "rotation": 0,
  "scale": 1,
  "shouldBreakMaskChain": false,
  "style": {
    "_class": "style",
    "endMarkerType": 0,
    "miterLimit": 10,
    "startMarkerType": 0,
    "windingRule": 1
  },
  "symbolID": "0839DCFD-3D47-47D5-BA29-9A0D7434CF31",
  "verticalSpacing": 0
}