{
  "_class": "group",
  "booleanOperation": 0,
  "do_objectID": "E19672B9-8D2A-4E3B-9B82-CF7FB045E741",
  "exportOptions": {
    "_class": "exportOptions",
    "do_objectID": "6CA3A9B8-9BA9-4E3C-8018-814DCE95F380",
    "exportFormats": [
    ],
    "includedLayerIds": [
    ],
    "layerOptions": 0,
    "shouldTrim": false
  },
  "frame": {
    "_class": "rect",
    "constrainProportions": false,
    "do_objectID": "B7F8801C-468B-486B-A3DF-873D08E8334E",
    "height": 48,
    "width": 48,
    "x": 12,
    "y": 0
  },
  "hasClickThrough": false,
  "isFixedToViewport": false,
  "isFlippedHorizontal": false,
  "isFlippedVertical": false,
  "isLocked": false,
  "isVisible": true,
  "layerListExpandedType": 2,
  "layers": [
    {
      "class": "shapeGroup",
      "id": "A086FF77-B254-407C-A966-DF635BF43C95"
    },
    {
      "class": "group",
      "id": "CDEEEDA7-93BB-4DA2-96BC-B55938945E8D"
    }
  ],
  "name": "Group",
  "nameIsFixed": false,
  "resizingConstraint": 63,
  "resizingType": 0,
  "rotation": 0,
  "shouldBreakMaskChain": false,
  "style": {
    "_class": "style",
    "do_objectID": "3C0BE523-FBF4-4E67-B9E2-08213A70ADCD",
    "endMarkerType": 0,
    "miterLimit": 10,
    "startMarkerType": 0,
    "windingRule": 1
  }
}