{
  "_class": "symbolInstance",
  "booleanOperation": 0,
  "do_objectID": "813817BC-8ADF-4A90-87A3-CC29E1BCF8CA",
  "exportOptions": {
    "_class": "exportOptions",
    "do_objectID": "4A4B6960-6A3B-413B-9514-B79B2BE492FD",
    "exportFormats": [
    ],
    "includedLayerIds": [
    ],
    "layerOptions": 0,
    "shouldTrim": false
  },
  "frame": {
    "_class": "rect",
    "constrainProportions": false,
    "do_objectID": "E02AAD0B-9447-4314-B456-8FE190B3ECB5",
    "height": 40,
    "width": 40,
    "x": 1077,
    "y": 12
  },
  "horizontalSpacing": 0,
  "isFixedToViewport": false,
  "isFlippedHorizontal": false,
  "isFlippedVertical": false,
  "isLocked": false,
  "isVisible": true,
  "layerListExpandedType": 0,
  "name": "chat-avatar",
  "nameIsFixed": false,
  "overrideValues": [
  ],
  "resizingConstraint": 63,
  "resizingType": 0,
  "rotation": 0,
  "scale": 1,
  "shouldBreakMaskChain": false,
  "style": {
    "_class": "style",
    "do_objectID": "96D5FD06-79EF-494F-B9DE-10763EECB17A",
    "endMarkerType": 0,
    "miterLimit": 10,
    "startMarkerType": 0,
    "windingRule": 1
  },
  "symbolID": "AB2CCBC2-163B-4B1C-9103-792719EF3B27",
  "verticalSpacing": 0
}