{
  "_class": "symbolMaster",
  "backgroundColor": {
    "_class": "color",
    "alpha": 1,
    "blue": 1,
    "do_objectID": "FE4260FE-E161-41AC-BF89-E3F5F773A210",
    "green": 1,
    "red": 1
  },
  "booleanOperation": 0,
  "changeIdentifier": 2878,
  "do_objectID": "906E1A1C-7687-4F84-AA5B-AA88EFDEE0EC",
  "exportOptions": {
    "_class": "exportOptions",
    "do_objectID": "A81E7532-23AA-4888-975A-EA69269E5DD8",
    "exportFormats": [
    ],
    "includedLayerIds": [
    ],
    "layerOptions": 0,
    "shouldTrim": false
  },
  "frame": {
    "_class": "rect",
    "constrainProportions": false,
    "do_objectID": "E19437D5-8B0D-4210-A737-F5129F6E729D",
    "height": 159,
    "width": 474,
    "x": 3212,
    "y": -108
  },
  "hasBackgroundColor": false,
  "hasClickThrough": true,
  "horizontalRulerData": {
    "_class": "rulerData",
    "base": 0,
    "do_objectID": "92B605C0-2749-417A-8872-CEC346ED8DB4",
    "guides": [
    ]
  },
  "includeBackgroundColorInExport": true,
  "includeBackgroundColorInInstance": false,
  "includeInCloudUpload": true,
  "isFixedToViewport": false,
  "isFlippedHorizontal": false,
  "isFlippedVertical": false,
  "isFlowHome": false,
  "isLocked": false,
  "isVisible": true,
  "layerListExpandedType": 0,
  "layers": [
    {
      "class": "group",
      "id": "91F7EC46-FC04-4488-8EDF-BB499090DA11"
    }
  ],
  "name": "25h8/chat/chat-area/chat-message-area/chat-message-link",
  "nameIsFixed": true,
  "resizesContent": false,
  "resizingConstraint": 63,
  "resizingType": 0,
  "rotation": 0,
  "shouldBreakMaskChain": true,
  "style": {
    "_class": "style",
    "do_objectID": "861FA236-99E5-4CE6-B1BC-2ECA1F184B0E",
    "endMarkerType": 0,
    "miterLimit": 10,
    "startMarkerType": 0,
    "windingRule": 1
  },
  "symbolID": "E9B803AE-7FFC-4582-B002-F51BDFFC71C9",
  "verticalRulerData": {
    "_class": "rulerData",
    "base": 0,
    "do_objectID": "33CF161D-1375-4889-B8B9-CC28D36CD329",
    "guides": [
    ]
  }
}