{
  "_class": "symbolInstance",
  "booleanOperation": 0,
  "do_objectID": "73C26595-6335-4C4B-AD2B-480AE3BD3DB5",
  "exportOptions": {
    "_class": "exportOptions",
    "do_objectID": "007BB759-19C2-4DC0-B3D1-A163E1B8A962",
    "exportFormats": [
    ],
    "includedLayerIds": [
    ],
    "layerOptions": 0,
    "shouldTrim": false
  },
  "frame": {
    "_class": "rect",
    "constrainProportions": false,
    "do_objectID": "3834549D-185B-40E8-BE0F-7D5599961AFB",
    "height": 40,
    "width": 40,
    "x": 1077,
    "y": 12
  },
  "horizontalSpacing": 0,
  "isFixedToViewport": false,
  "isFlippedHorizontal": false,
  "isFlippedVertical": false,
  "isLocked": false,
  "isVisible": true,
  "layerListExpandedType": 0,
  "name": "chat-avatar",
  "nameIsFixed": false,
  "overrideValues": [
  ],
  "resizingConstraint": 63,
  "resizingType": 0,
  "rotation": 0,
  "scale": 1,
  "shouldBreakMaskChain": false,
  "style": {
    "_class": "style",
    "do_objectID": "0BC6A236-4F80-4DEF-8BD3-B6885A6F2B94",
    "endMarkerType": 0,
    "miterLimit": 10,
    "startMarkerType": 0,
    "windingRule": 1
  },
  "symbolID": "AB2CCBC2-163B-4B1C-9103-792719EF3B27",
  "verticalSpacing": 0
}