{
  "_class": "group",
  "booleanOperation": 0,
  "do_objectID": "D417241C-D91D-4F81-AEEE-F39D6A933347",
  "exportOptions": {
    "_class": "exportOptions",
    "do_objectID": "AA196771-04A1-423E-9E47-7F95AF97672B",
    "exportFormats": [
    ],
    "includedLayerIds": [
    ],
    "layerOptions": 0,
    "shouldTrim": false
  },
  "frame": {
    "_class": "rect",
    "constrainProportions": false,
    "do_objectID": "F3256C73-0BBA-4B23-ABD5-7F71DDCE0EC7",
    "height": 64,
    "width": 1209,
    "x": 0,
    "y": 0
  },
  "hasClickThrough": false,
  "isFixedToViewport": false,
  "isFlippedHorizontal": false,
  "isFlippedVertical": false,
  "isLocked": false,
  "isVisible": true,
  "layerListExpandedType": 2,
  "layers": [
    {
      "class": "shapeGroup",
      "id": "730AE8DA-88B9-4F7A-9040-7A76872A8A20"
    },
    {
      "class": "symbolInstance",
      "id": "36B71991-AF3D-43ED-8C23-1C94E5AEC8E7"
    },
    {
      "class": "symbolInstance",
      "id": "73C26595-6335-4C4B-AD2B-480AE3BD3DB5"
    },
    {
      "class": "symbolInstance",
      "id": "73F0F09F-5CCB-46D3-8FD0-17E328D27AE5"
    },
    {
      "class": "symbolInstance",
      "id": "F03ABEBE-D357-40D8-B5D6-E7079704AD88"
    },
    {
      "class": "symbolInstance",
      "id": "5F59E2E3-7258-4C70-8FC9-80DF0AC476EE"
    },
    {
      "class": "symbolInstance",
      "id": "C0C19525-A929-46A5-B932-110588290421"
    },
    {
      "class": "group",
      "id": "A4972B01-98C5-41F2-B7EF-2C248F060F29"
    },
    {
      "class": "symbolInstance",
      "id": "15E0D777-B272-497F-91FB-AB2D6C3B1F93"
    },
    {
      "class": "symbolInstance",
      "id": "C3EA67EC-B3AD-4BDC-8608-9CFD10677359"
    }
  ],
  "name": "app-toolbar",
  "nameIsFixed": true,
  "resizingConstraint": 63,
  "resizingType": 0,
  "rotation": 0,
  "shouldBreakMaskChain": false,
  "style": {
    "_class": "style",
    "do_objectID": "EED986CA-3B52-4E86-976F-C744C99059B8",
    "endMarkerType": 0,
    "miterLimit": 10,
    "startMarkerType": 0,
    "windingRule": 1
  },
  "userInfo": {
    "com.animaapp.stc-sketch-plugin": {
      "kModelPropertiesKey": {
      }
    }
  }
}