{
  "_class": "sharedStyle",
  "do_objectID": "043D2120-2576-4307-BE5B-00222AA61778",
  "name": "Dark/Caption 3/High-emphasis/Centre",
  "value": {
    "_class": "style",
    "endMarkerType": 0,
    "miterLimit": 10,
    "sharedObjectID": "043D2120-2576-4307-BE5B-00222AA61778",
    "startMarkerType": 0,
    "textStyle": {
      "_class": "textStyle",
      "encodedAttributes": {
        "MSAttributedStringColorAttribute": {
          "_class": "color",
          "alpha": 1,
          "blue": 1,
          "green": 1,
          "red": 1
        },
        "MSAttributedStringFontAttribute": {
          "_class": "fontDescriptor",
          "attributes": {
            "name": "Roboto-Medium",
            "size": 8
          }
        },
        "kerning": 0,
        "paragraphStyle": {
          "_class": "paragraphStyle",
          "alignment": 2,
          "allowsDefaultTighteningForTruncation": 0,
          "maximumLineHeight": 10,
          "minimumLineHeight": 10
        }
      },
      "verticalAlignment": 0
    },
    "windingRule": 1
  }
}