{
  "_class": "sharedStyle",
  "do_objectID": "3C979180-1BC3-490D-972A-E1DC02739A0A",
  "name": "Light/Brand Headline 2/Disabled/Centre",
  "value": {
    "_class": "style",
    "contextSettings": {
      "_class": "graphicsContextSettings",
      "blendMode": 0,
      "opacity": 0.87
    },
    "endMarkerType": 0,
    "miterLimit": 10,
    "sharedObjectID": "3C979180-1BC3-490D-972A-E1DC02739A0A",
    "startMarkerType": 0,
    "textStyle": {
      "_class": "textStyle",
      "encodedAttributes": {
        "MSAttributedStringColorAttribute": {
          "_class": "color",
          "alpha": 0.38,
          "blue": 0,
          "green": 0,
          "red": 0
        },
        "MSAttributedStringFontAttribute": {
          "_class": "fontDescriptor",
          "attributes": {
            "name": "25h8com100",
            "size": 60
          }
        },
        "kerning": -0.5,
        "ligature": 0,
        "paragraphStyle": {
          "_class": "paragraphStyle",
          "alignment": 2,
          "allowsDefaultTighteningForTruncation": 0
        }
      },
      "verticalAlignment": 0
    },
    "windingRule": 1
  }
}