{
  "_class": "sharedStyle",
  "do_objectID": "6A943AC9-5BF9-4AC7-9115-47B42A83EA1F",
  "name": "Light/Body 1/High-emphasis/Right",
  "value": {
    "_class": "style",
    "endMarkerType": 0,
    "miterLimit": 10,
    "sharedObjectID": "6A943AC9-5BF9-4AC7-9115-47B42A83EA1F",
    "startMarkerType": 0,
    "textStyle": {
      "_class": "textStyle",
      "encodedAttributes": {
        "MSAttributedStringColorAttribute": {
          "_class": "color",
          "alpha": 0.87,
          "blue": 0,
          "green": 0,
          "red": 0
        },
        "MSAttributedStringFontAttribute": {
          "_class": "fontDescriptor",
          "attributes": {
            "name": "Roboto-Regular",
            "size": 16
          }
        },
        "kerning": 0.4444444,
        "ligature": 0,
        "paragraphStyle": {
          "_class": "paragraphStyle",
          "alignment": 1,
          "allowsDefaultTighteningForTruncation": 0,
          "maximumLineHeight": 28,
          "minimumLineHeight": 28
        }
      },
      "verticalAlignment": 0
    },
    "windingRule": 1
  }
}