{
  "_class": "sharedStyle",
  "do_objectID": "9962D39C-E23F-4A42-AF5E-6CEAB7B9B891",
  "name": "Light/Brand Headline 4/Error text/Left",
  "value": {
    "_class": "style",
    "contextSettings": {
      "_class": "graphicsContextSettings",
      "blendMode": 0,
      "opacity": 0.87
    },
    "endMarkerType": 0,
    "miterLimit": 10,
    "sharedObjectID": "9962D39C-E23F-4A42-AF5E-6CEAB7B9B891",
    "startMarkerType": 0,
    "textStyle": {
      "_class": "textStyle",
      "encodedAttributes": {
        "MSAttributedStringColorAttribute": {
          "_class": "color",
          "alpha": 1,
          "blue": 0.1254901960784313,
          "green": 0,
          "red": 0.6901960784313725
        },
        "MSAttributedStringFontAttribute": {
          "_class": "fontDescriptor",
          "attributes": {
            "name": "25h8commedi200-Regular",
            "size": 34
          }
        },
        "kerning": 0.25,
        "ligature": 0,
        "paragraphStyle": {
          "_class": "paragraphStyle",
          "allowsDefaultTighteningForTruncation": 0
        }
      },
      "verticalAlignment": 0
    },
    "windingRule": 1
  }
}