{
  "_class": "sharedStyle",
  "do_objectID": "9A3DDA56-ABF3-4869-AAF7-BBBA798F5CBC",
  "name": "Light/Overline/Medium-emphasis/Left",
  "value": {
    "_class": "style",
    "contextSettings": {
      "_class": "graphicsContextSettings",
      "blendMode": 0,
      "opacity": 0.87
    },
    "endMarkerType": 0,
    "miterLimit": 10,
    "sharedObjectID": "9A3DDA56-ABF3-4869-AAF7-BBBA798F5CBC",
    "startMarkerType": 0,
    "textStyle": {
      "_class": "textStyle",
      "encodedAttributes": {
        "MSAttributedStringColorAttribute": {
          "_class": "color",
          "alpha": 0.6,
          "blue": 0,
          "green": 0,
          "red": 0
        },
        "MSAttributedStringFontAttribute": {
          "_class": "fontDescriptor",
          "attributes": {
            "name": "Roboto-Medium",
            "size": 10
          }
        },
        "MSAttributedStringTextTransformAttribute": 1,
        "kerning": 1.5,
        "ligature": 0,
        "paragraphStyle": {
          "_class": "paragraphStyle",
          "alignment": 0,
          "allowsDefaultTighteningForTruncation": 0,
          "maximumLineHeight": 16,
          "minimumLineHeight": 16
        }
      },
      "verticalAlignment": 0
    },
    "windingRule": 1
  }
}