{
  "_class": "symbolInstance",
  "booleanOperation": -1,
  "do_objectID": "3684A406-1B79-4115-B495-6ED1D9A111B8",
  "exportOptions": {
    "_class": "exportOptions",
    "do_objectID": "01B3B656-8483-4C18-9328-2AD0F16F37B2",
    "exportFormats": [
    ],
    "includedLayerIds": [
    ],
    "layerOptions": 0,
    "shouldTrim": false
  },
  "frame": {
    "_class": "rect",
    "constrainProportions": false,
    "do_objectID": "C35D76EA-DCBB-4A22-AC3B-97C28765EE2B",
    "height": 14,
    "width": 22,
    "x": 294,
    "y": 39
  },
  "horizontalSpacing": 0,
  "isFixedToViewport": false,
  "isFlippedHorizontal": false,
  "isFlippedVertical": false,
  "isLocked": false,
  "isVisible": true,
  "layerListExpandedType": 0,
  "name": "25h8/chat/notification-bubble-3-digit-normal",
  "nameIsFixed": false,
  "overrideValues": [
  ],
  "resizingConstraint": 12,
  "resizingType": 0,
  "rotation": 0,
  "scale": 1,
  "shouldBreakMaskChain": false,
  "style": {
    "_class": "style",
    "do_objectID": "03507FFF-EDAB-4B2D-940A-4A1B8875A2E1",
    "endMarkerType": 0,
    "miterLimit": 10,
    "startMarkerType": 0,
    "windingRule": 1
  },
  "symbolID": "3F668D78-AD18-407A-A5B8-94E350E6E6D3",
  "verticalSpacing": 0
}