{
  "_class": "symbolInstance",
  "booleanOperation": 0,
  "do_objectID": "1AB0B8DC-34F4-4E45-A8B2-9EA3CF24E12F",
  "exportOptions": {
    "_class": "exportOptions",
    "do_objectID": "403ACDCC-2558-43FA-BB64-F94A97E5C9C4",
    "exportFormats": [
    ],
    "includedLayerIds": [
    ],
    "layerOptions": 0,
    "shouldTrim": false
  },
  "frame": {
    "_class": "rect",
    "constrainProportions": true,
    "do_objectID": "4059D1D1-9C4C-4EAC-8F58-6F697FC1CFB5",
    "height": 24,
    "width": 24,
    "x": 72,
    "y": 40
  },
  "horizontalSpacing": 0,
  "isFixedToViewport": false,
  "isFlippedHorizontal": false,
  "isFlippedVertical": false,
  "isLocked": false,
  "isVisible": true,
  "layerListExpandedType": 0,
  "name": "Material/Icons/Black/Active/factory",
  "nameIsFixed": false,
  "overrideValues": [
  ],
  "resizingConstraint": 63,
  "resizingType": 0,
  "rotation": 0,
  "scale": 1,
  "shouldBreakMaskChain": false,
  "style": {
    "_class": "style",
    "do_objectID": "4E48221F-C838-4A83-BF4F-6DDDE2ACEA10",
    "endMarkerType": 0,
    "miterLimit": 10,
    "startMarkerType": 0,
    "windingRule": 1
  },
  "symbolID": "9764764C-74CB-4961-B421-D3016E63B0A8",
  "userInfo": {
    "com.animaapp.stc-sketch-plugin": {
      "kModelPropertiesKey": {
        "constraints": {
          "aspectRatio": {
            "constant": 24,
            "enabled": 1,
            "modelID": "constraint_23077e96-5fff-4623-9b3c-2f86adf8460d",
            "model_class": "ADModelConstraint",
            "model_version": 0.1,
            "multiplier": 24
          },
          "automatic": 1,
          "modelID": "viewConstraints_1c153370-5de8-44f2-951f-3c126599de8f",
          "model_class": "ADModelViewConstraints",
          "model_version": 0.1,
          "scaleFactor": 1
        }
      }
    }
  },
  "verticalSpacing": 0
}