{
  "_class": "shapePath",
  "booleanOperation": 0,
  "do_objectID": "A0EBFE79-6093-4348-A0E9-DE80B4A9A4CA",
  "edited": true,
  "exportOptions": {
    "_class": "exportOptions",
    "do_objectID": "A2183003-A8B2-48A3-8815-46F8DDEFB31F",
    "exportFormats": [
    ],
    "includedLayerIds": [
    ],
    "layerOptions": 0,
    "shouldTrim": false
  },
  "frame": {
    "_class": "rect",
    "constrainProportions": false,
    "do_objectID": "39F9F66D-B101-496B-B5DF-A840828E7094",
    "height": 9,
    "width": 9,
    "x": 5,
    "y": 5
  },
  "isClosed": true,
  "isFixedToViewport": false,
  "isFlippedHorizontal": false,
  "isFlippedVertical": false,
  "isLocked": false,
  "isVisible": true,
  "layerListExpandedType": 0,
  "name": "Shape",
  "nameIsFixed": false,
  "pointRadiusBehaviour": 0,
  "points": [
    {
      "_class": "curvePoint",
      "cornerRadius": 0,
      "curveFrom": "{1, 0.66666666666666663}",
      "curveMode": 1,
      "curveTo": "{1, 0.66666666666666663}",
      "hasCurveFrom": false,
      "hasCurveTo": false,
      "point": "{1, 0.66666666666666663}"
    },
    {
      "_class": "curvePoint",
      "cornerRadius": 0,
      "curveFrom": "{1, 0.030000000000000013}",
      "curveMode": 4,
      "curveTo": "{1, 0.066666666666666666}",
      "hasCurveFrom": true,
      "hasCurveTo": false,
      "point": "{1, 0.066666666666666666}"
    },
    {
      "_class": "curvePoint",
      "cornerRadius": 0,
      "curveFrom": "{0.93333333333333335, 0}",
      "curveMode": 4,
      "curveTo": "{0.97000000000000008, 0}",
      "hasCurveFrom": false,
      "hasCurveTo": true,
      "point": "{0.93333333333333335, 0}"
    },
    {
      "_class": "curvePoint",
      "cornerRadius": 0,
      "curveFrom": "{0.030000000000000013, 0}",
      "curveMode": 4,
      "curveTo": "{0.066666666666666666, 0}",
      "hasCurveFrom": true,
      "hasCurveTo": false,
      "point": "{0.066666666666666666, 0}"
    },
    {
      "_class": "curvePoint",
      "cornerRadius": 0,
      "curveFrom": "{0, 0.066666666666666666}",
      "curveMode": 4,
      "curveTo": "{0, 0.030000000000000013}",
      "hasCurveFrom": false,
      "hasCurveTo": true,
      "point": "{0, 0.066666666666666666}"
    },
    {
      "_class": "curvePoint",
      "cornerRadius": 0,
      "curveFrom": "{0, 1}",
      "curveMode": 1,
      "curveTo": "{0, 1}",
      "hasCurveFrom": false,
      "hasCurveTo": false,
      "point": "{0, 1}"
    },
    {
      "_class": "curvePoint",
      "cornerRadius": 0,
      "curveFrom": "{0.26666666666666666, 0.73333333333333328}",
      "curveMode": 1,
      "curveTo": "{0.26666666666666666, 0.73333333333333328}",
      "hasCurveFrom": false,
      "hasCurveTo": false,
      "point": "{0.26666666666666666, 0.73333333333333328}"
    },
    {
      "_class": "curvePoint",
      "cornerRadius": 0,
      "curveFrom": "{0.97000000000000008, 0.73333333333333328}",
      "curveMode": 4,
      "curveTo": "{0.93333333333333335, 0.73333333333333328}",
      "hasCurveFrom": true,
      "hasCurveTo": false,
      "point": "{0.93333333333333335, 0.73333333333333328}"
    },
    {
      "_class": "curvePoint",
      "cornerRadius": 0,
      "curveFrom": "{1, 0.66666666666666663}",
      "curveMode": 4,
      "curveTo": "{1, 0.70333333333333337}",
      "hasCurveFrom": false,
      "hasCurveTo": true,
      "point": "{1, 0.66666666666666663}"
    }
  ],
  "resizingConstraint": 63,
  "resizingType": 0,
  "rotation": 0,
  "shouldBreakMaskChain": false
}