{
  "_class": "shapePath",
  "booleanOperation": -1,
  "do_objectID": "E2614190-9673-41FC-A7FE-AFF3EAFAA329",
  "edited": true,
  "exportOptions": {
    "_class": "exportOptions",
    "do_objectID": "A9831F3B-99B2-41AC-8C92-64E3BBC3DAE3",
    "exportFormats": [
    ],
    "includedLayerIds": [
    ],
    "layerOptions": 0,
    "shouldTrim": false
  },
  "frame": {
    "_class": "rect",
    "constrainProportions": false,
    "do_objectID": "187387CD-DF03-4696-9B59-DC198C7DD91C",
    "height": 10.582,
    "width": 11.81119999999999,
    "x": 0,
    "y": 0
  },
  "isClosed": true,
  "isFixedToViewport": false,
  "isFlippedHorizontal": false,
  "isFlippedVertical": false,
  "isLocked": false,
  "isVisible": true,
  "layerListExpandedType": 0,
  "name": "Path",
  "nameIsFixed": false,
  "pointRadiusBehaviour": 1,
  "points": [
    {
      "_class": "curvePoint",
      "cornerRadius": 0,
      "curveFrom": "{0.099972907071254391, 0}",
      "curveMode": 1,
      "curveTo": "{0.099972907071254391, 0}",
      "hasCurveFrom": false,
      "hasCurveTo": false,
      "point": "{0.099972907071254391, 0}"
    },
    {
      "_class": "curvePoint",
      "cornerRadius": 0,
      "curveFrom": "{0, 0.11107811107811111}",
      "curveMode": 1,
      "curveTo": "{0, 0.11107811107811111}",
      "hasCurveFrom": false,
      "hasCurveTo": false,
      "point": "{0, 0.11107811107811111}"
    },
    {
      "_class": "curvePoint",
      "cornerRadius": 0,
      "curveFrom": "{0.80005418585749144, 1}",
      "curveMode": 1,
      "curveTo": "{0.80005418585749144, 1}",
      "hasCurveFrom": false,
      "hasCurveTo": false,
      "point": "{0.80005418585749144, 1}"
    },
    {
      "_class": "curvePoint",
      "cornerRadius": 0,
      "curveFrom": "{1, 1}",
      "curveMode": 1,
      "curveTo": "{1, 1}",
      "hasCurveFrom": false,
      "hasCurveTo": false,
      "point": "{1, 1}"
    }
  ],
  "resizingConstraint": 63,
  "resizingType": 0,
  "rotation": 0,
  "shouldBreakMaskChain": false
}