{
  "_class": "shapePath",
  "booleanOperation": -1,
  "do_objectID": "CF1DE49D-50D2-4658-8DF4-BEB5155018B6",
  "edited": true,
  "exportOptions": {
    "_class": "exportOptions",
    "do_objectID": "82672D35-C4ED-4E65-97DD-2232D437C9B2",
    "exportFormats": [
    ],
    "includedLayerIds": [
    ],
    "layerOptions": 0,
    "shouldTrim": false
  },
  "frame": {
    "_class": "rect",
    "constrainProportions": false,
    "do_objectID": "E246ADD6-B220-466D-A42D-51ED93AD56D6",
    "height": 17,
    "width": 17,
    "x": 0,
    "y": 0
  },
  "isClosed": true,
  "isFixedToViewport": false,
  "isFlippedHorizontal": false,
  "isFlippedVertical": false,
  "isLocked": false,
  "isVisible": true,
  "layerListExpandedType": 0,
  "name": "Path",
  "nameIsFixed": false,
  "pointRadiusBehaviour": 0,
  "points": [
    {
      "_class": "curvePoint",
      "cornerRadius": 0,
      "curveFrom": "{0.88235294117647056, 0.82352941176470584}",
      "curveMode": 1,
      "curveTo": "{0.88235294117647056, 0.82352941176470584}",
      "hasCurveFrom": false,
      "hasCurveTo": false,
      "point": "{0.88235294117647056, 0.82352941176470584}"
    },
    {
      "_class": "curvePoint",
      "cornerRadius": 0,
      "curveFrom": "{0.88235294117647056, 0.31764705882352945}",
      "curveMode": 4,
      "curveTo": "{0.88235294117647056, 0.5}",
      "hasCurveFrom": true,
      "hasCurveTo": false,
      "point": "{0.88235294117647056, 0.5}"
    },
    {
      "_class": "curvePoint",
      "cornerRadius": 0,
      "curveFrom": "{0.58823529411764708, 0.12941176470588237}",
      "curveMode": 4,
      "curveTo": "{0.75882352941176467, 0.17058823529411768}",
      "hasCurveFrom": false,
      "hasCurveTo": true,
      "point": "{0.58823529411764708, 0.12941176470588237}"
    },
    {
      "_class": "curvePoint",
      "cornerRadius": 0,
      "curveFrom": "{0.58823529411764708, 0.041176470588235307}",
      "curveMode": 4,
      "curveTo": "{0.58823529411764708, 0.088235294117647065}",
      "hasCurveFrom": true,
      "hasCurveTo": false,
      "point": "{0.58823529411764708, 0.088235294117647065}"
    },
    {
      "_class": "curvePoint",
      "cornerRadius": 0,
      "curveFrom": "{0.45294117647058818, 0}",
      "curveMode": 2,
      "curveTo": "{0.54705882352941182, 0}",
      "hasCurveFrom": true,
      "hasCurveTo": true,
      "point": "{0.5, 0}"
    },
    {
      "_class": "curvePoint",
      "cornerRadius": 0,
      "curveFrom": "{0.41176470588235292, 0.088235294117647065}",
      "curveMode": 4,
      "curveTo": "{0.41176470588235292, 0.041176470588235307}",
      "hasCurveFrom": false,
      "hasCurveTo": true,
      "point": "{0.41176470588235292, 0.088235294117647065}"
    },
    {
      "_class": "curvePoint",
      "cornerRadius": 0,
      "curveFrom": "{0.24117647058823527, 0.17058823529411768}",
      "curveMode": 4,
      "curveTo": "{0.41176470588235292, 0.12941176470588237}",
      "hasCurveFrom": true,
      "hasCurveTo": false,
      "point": "{0.41176470588235292, 0.12941176470588237}"
    },
    {
      "_class": "curvePoint",
      "cornerRadius": 0,
      "curveFrom": "{0.11764705882352941, 0.5}",
      "curveMode": 4,
      "curveTo": "{0.11764705882352941, 0.31764705882352945}",
      "hasCurveFrom": false,
      "hasCurveTo": true,
      "point": "{0.11764705882352941, 0.5}"
    },
    {
      "_class": "curvePoint",
      "cornerRadius": 0,
      "curveFrom": "{0.11764705882352941, 0.82352941176470584}",
      "curveMode": 1,
      "curveTo": "{0.11764705882352941, 0.82352941176470584}",
      "hasCurveFrom": false,
      "hasCurveTo": false,
      "point": "{0.11764705882352941, 0.82352941176470584}"
    },
    {
      "_class": "curvePoint",
      "cornerRadius": 0,
      "curveFrom": "{0, 0.94117647058823528}",
      "curveMode": 1,
      "curveTo": "{0, 0.94117647058823528}",
      "hasCurveFrom": false,
      "hasCurveTo": false,
      "point": "{0, 0.94117647058823528}"
    },
    {
      "_class": "curvePoint",
      "cornerRadius": 0,
      "curveFrom": "{0, 1}",
      "curveMode": 1,
      "curveTo": "{0, 1}",
      "hasCurveFrom": false,
      "hasCurveTo": false,
      "point": "{0, 1}"
    },
    {
      "_class": "curvePoint",
      "cornerRadius": 0,
      "curveFrom": "{1, 1}",
      "curveMode": 1,
      "curveTo": "{1, 1}",
      "hasCurveFrom": false,
      "hasCurveTo": false,
      "point": "{1, 1}"
    },
    {
      "_class": "curvePoint",
      "cornerRadius": 0,
      "curveFrom": "{1, 0.94117647058823528}",
      "curveMode": 1,
      "curveTo": "{1, 0.94117647058823528}",
      "hasCurveFrom": false,
      "hasCurveTo": false,
      "point": "{1, 0.94117647058823528}"
    },
    {
      "_class": "curvePoint",
      "cornerRadius": 0,
      "curveFrom": "{0.88235294117647056, 0.82352941176470584}",
      "curveMode": 1,
      "curveTo": "{0.88235294117647056, 0.82352941176470584}",
      "hasCurveFrom": false,
      "hasCurveTo": false,
      "point": "{0.88235294117647056, 0.82352941176470584}"
    }
  ],
  "resizingConstraint": 63,
  "resizingType": 0,
  "rotation": 0,
  "shouldBreakMaskChain": false
}