{
  "_class": "text",
  "attributedString": {
    "_class": "attributedString",
    "attributes": [
      {
        "_class": "stringAttribute",
        "attributes": {
          "MSAttributedStringColorAttribute": {
            "_class": "color",
            "alpha": 1,
            "blue": 0.1882352941176471,
            "green": 0.4980392156862746,
            "red": 0.8862745098039215
          },
          "MSAttributedStringFontAttribute": {
            "_class": "fontDescriptor",
            "attributes": {
              "name": "Roboto-Medium",
              "size": 12
            }
          },
          "kerning": 0.2,
          "paragraphStyle": {
            "_class": "paragraphStyle",
            "alignment": 2,
            "allowsDefaultTighteningForTruncation": 0,
            "maximumLineHeight": 14,
            "minimumLineHeight": 14
          }
        },
        "length": 8,
        "location": 0
      }
    ],
    "string": "app.name"
  },
  "automaticallyDrawOnUnderlyingPath": false,
  "booleanOperation": 0,
  "do_objectID": "53BFCE68-3B8A-4AA6-9955-AD0A5E6F04B0",
  "dontSynchroniseWithSymbol": false,
  "exportOptions": {
    "_class": "exportOptions",
    "do_objectID": "C0625C23-4AFF-4E8D-A294-099DEBAC054B",
    "exportFormats": [
    ],
    "includedLayerIds": [
    ],
    "layerOptions": 0,
    "shouldTrim": false
  },
  "frame": {
    "_class": "rect",
    "constrainProportions": false,
    "do_objectID": "4A1413BF-A451-407D-B43C-4FDBF2511EDF",
    "height": 14,
    "width": 64,
    "x": 4,
    "y": 58
  },
  "glyphBounds": "{{5, 4}, {54, 10}}",
  "isFixedToViewport": false,
  "isFlippedHorizontal": false,
  "isFlippedVertical": false,
  "isLocked": false,
  "isVisible": true,
  "layerListExpandedType": 0,
  "lineSpacingBehaviour": 1,
  "name": "App name",
  "nameIsFixed": true,
  "originalObjectID": "35369623-8ADF-414D-B422-73C033289C95",
  "resizingConstraint": 63,
  "resizingType": 0,
  "rotation": 0,
  "shouldBreakMaskChain": false,
  "style": {
    "_class": "style",
    "do_objectID": "2CC2B12C-E503-4CA3-A32F-ECA09C408EA0",
    "endMarkerType": 0,
    "miterLimit": 10,
    "sharedObjectID": "C82913A0-07A5-4A8E-BF73-90B941B0F47E",
    "startMarkerType": 0,
    "textStyle": {
      "_class": "textStyle",
      "do_objectID": "555FFDA4-988E-4739-B3DF-2783668E4708",
      "encodedAttributes": {
        "MSAttributedStringColorAttribute": {
          "_class": "color",
          "alpha": 1,
          "blue": 0.1882352941176471,
          "green": 0.4980392156862746,
          "red": 0.8862745098039215
        },
        "MSAttributedStringFontAttribute": {
          "_class": "fontDescriptor",
          "attributes": {
            "name": "Roboto-Medium",
            "size": 12
          }
        },
        "kerning": 0.2,
        "paragraphStyle": {
          "_class": "paragraphStyle",
          "alignment": 2,
          "allowsDefaultTighteningForTruncation": 0,
          "maximumLineHeight": 14,
          "minimumLineHeight": 14
        }
      },
      "verticalAlignment": 0
    },
    "windingRule": 1
  },
  "textBehaviour": 1
}