{
  "_class": "symbolMaster",
  "backgroundColor": {
    "_class": "color",
    "alpha": 1,
    "blue": 1,
    "do_objectID": "115EEF4D-85BD-43DA-AF20-C52D2AA3A3D8",
    "green": 1,
    "red": 1
  },
  "booleanOperation": 0,
  "changeIdentifier": 3924,
  "do_objectID": "AC02C3A8-913B-480B-965B-F97E70B36529",
  "exportOptions": {
    "_class": "exportOptions",
    "do_objectID": "4D3200FB-86BD-4FB0-8B1D-AF41F5BBE712",
    "exportFormats": [
    ],
    "includedLayerIds": [
    ],
    "layerOptions": 0,
    "shouldTrim": false
  },
  "frame": {
    "_class": "rect",
    "constrainProportions": false,
    "do_objectID": "138512BA-6234-4DEF-8589-2705DE3BF461",
    "height": 787,
    "width": 72,
    "x": -2943,
    "y": 944
  },
  "hasBackgroundColor": false,
  "hasClickThrough": true,
  "horizontalRulerData": {
    "_class": "rulerData",
    "base": 0,
    "do_objectID": "89D74097-087C-48F0-B1B8-8A7F1F9E224E",
    "guides": [
    ]
  },
  "includeBackgroundColorInExport": true,
  "includeBackgroundColorInInstance": false,
  "includeInCloudUpload": true,
  "isFixedToViewport": false,
  "isFlippedHorizontal": false,
  "isFlippedVertical": false,
  "isFlowHome": false,
  "isLocked": false,
  "isVisible": true,
  "layerListExpandedType": 0,
  "layers": [
    {
      "class": "group",
      "id": "1C64AD33-5CFF-46A9-914F-348DD78924C7"
    }
  ],
  "name": "25h8/chat/app-bar/app-bar-social-selected",
  "nameIsFixed": true,
  "resizesContent": false,
  "resizingConstraint": 63,
  "resizingType": 0,
  "rotation": 0,
  "shouldBreakMaskChain": true,
  "style": {
    "_class": "style",
    "do_objectID": "A2C6BD3F-62AC-4268-A3F7-F7FA9F86DECC",
    "endMarkerType": 0,
    "miterLimit": 10,
    "startMarkerType": 0,
    "windingRule": 1
  },
  "symbolID": "17285C25-EAB9-410C-B66F-CE1B015DCB57",
  "verticalRulerData": {
    "_class": "rulerData",
    "base": 0,
    "do_objectID": "2C3BF26F-DCDB-4998-B1E5-5B9CBB309FE8",
    "guides": [
    ]
  }
}