{
  "_class": "group",
  "booleanOperation": 0,
  "do_objectID": "BEAFB374-B1A2-4961-B748-29F2399D01C7",
  "exportOptions": {
    "_class": "exportOptions",
    "exportFormats": [
    ],
    "includedLayerIds": [
    ],
    "layerOptions": 0,
    "shouldTrim": false
  },
  "frame": {
    "_class": "rect",
    "constrainProportions": false,
    "height": 64,
    "width": 304,
    "x": 0,
    "y": 0
  },
  "hasClickThrough": false,
  "isFixedToViewport": false,
  "isFlippedHorizontal": false,
  "isFlippedVertical": false,
  "isLocked": false,
  "isVisible": true,
  "layerListExpandedType": 2,
  "layers": [
    {
      "class": "shapeGroup",
      "id": "83FF7FB8-7823-4C3C-8F8A-67894436C212"
    },
    {
      "class": "group",
      "id": "D5C3E59E-F892-4C4C-ABB4-827E77C08ED4"
    }
  ],
  "name": "25h8/chat/speed-dial/speed-dial-header-inactive",
  "nameIsFixed": true,
  "resizingConstraint": 63,
  "resizingType": 0,
  "rotation": 0,
  "shouldBreakMaskChain": false,
  "style": {
    "_class": "style",
    "endMarkerType": 0,
    "miterLimit": 10,
    "startMarkerType": 0,
    "windingRule": 1
  }
}