{
  "_class": "group",
  "booleanOperation": -1,
  "do_objectID": "B5296D75-2272-4AF1-AD73-D6B66ED8A80A",
  "exportOptions": {
    "_class": "exportOptions",
    "do_objectID": "B7DDA8B5-48B0-4FD0-92AC-72A294E2A9F0",
    "exportFormats": [
    ],
    "includedLayerIds": [
    ],
    "layerOptions": 0,
    "shouldTrim": false
  },
  "frame": {
    "_class": "rect",
    "constrainProportions": false,
    "do_objectID": "6E2D04C7-8DB3-4650-BD91-3EA46BBCE675",
    "height": 80,
    "width": 320,
    "x": 0,
    "y": 0
  },
  "hasClickThrough": false,
  "isFixedToViewport": false,
  "isFlippedHorizontal": false,
  "isFlippedVertical": false,
  "isLocked": false,
  "isVisible": true,
  "layerListExpandedType": 2,
  "layers": [
    {
      "class": "shapeGroup",
      "id": "2E9B9C36-3E85-4D52-999C-43BF33EABFEB"
    },
    {
      "class": "text",
      "id": "CCE1E03B-AD01-4318-A095-FF669782C6CB"
    },
    {
      "class": "text",
      "id": "D4A88085-D436-408A-AE83-6E4EF7F08B87"
    },
    {
      "class": "shapeGroup",
      "id": "0FA94E7A-B602-4722-9BFD-EF5EE7C33D57"
    },
    {
      "class": "symbolInstance",
      "id": "5A77DDE2-1C64-4511-B107-BB78EAF7371E"
    },
    {
      "class": "text",
      "id": "A609452E-AF3E-42E5-BDCD-DD1AAD45A393"
    },
    {
      "class": "text",
      "id": "EDED18FF-129F-4241-BF61-3BBF3918E485"
    },
    {
      "class": "symbolInstance",
      "id": "4507F08B-8755-474B-9339-5556FF7B14B2"
    },
    {
      "class": "symbolInstance",
      "id": "9C8EECB8-A531-47A3-A3C4-1E65F0AF0D05"
    },
    {
      "class": "symbolInstance",
      "id": "21A34353-BC5D-4B0E-ABDA-6D48D03C19D7"
    }
  ],
  "name": "25h8/Chat/Chat List/Hover/Long Title/chat-list-item entity+notification-bubble",
  "nameIsFixed": true,
  "resizingConstraint": 63,
  "resizingType": 0,
  "rotation": 0,
  "shouldBreakMaskChain": false,
  "style": {
    "_class": "style",
    "do_objectID": "6568321D-D651-4DC2-98ED-CA89DCA10731",
    "endMarkerType": 0,
    "miterLimit": 10,
    "startMarkerType": 0,
    "windingRule": 1
  }
}