{
  "_class": "shapePath",
  "booleanOperation": -1,
  "do_objectID": "F63AF99D-BEF8-476E-BAC4-DA8F0C8D4DA6",
  "edited": true,
  "exportOptions": {
    "_class": "exportOptions",
    "do_objectID": "0E264712-E3B1-4315-8A74-2B2C03312E6D",
    "exportFormats": [
    ],
    "includedLayerIds": [
    ],
    "layerOptions": 0,
    "shouldTrim": false
  },
  "frame": {
    "_class": "rect",
    "constrainProportions": false,
    "do_objectID": "FF8218C8-B84D-4E58-9F16-A78B4088F185",
    "height": 7,
    "width": 7.000000000000001,
    "x": 6.239230484541326,
    "y": 6.5
  },
  "isClosed": true,
  "isFixedToViewport": false,
  "isFlippedHorizontal": false,
  "isFlippedVertical": false,
  "isLocked": false,
  "isVisible": true,
  "layerListExpandedType": 0,
  "name": "Path",
  "nameIsFixed": false,
  "pointRadiusBehaviour": 0,
  "points": [
    {
      "_class": "curvePoint",
      "cornerRadius": 0,
      "curveFrom": "{0.22857142857142848, 1}",
      "curveMode": 4,
      "curveTo": "{0.50000000000000011, 1}",
      "hasCurveFrom": true,
      "hasCurveTo": false,
      "point": "{0.50000000000000011, 1}"
    },
    {
      "_class": "curvePoint",
      "cornerRadius": 0,
      "curveFrom": "{0, 0.22857142857142851}",
      "curveMode": 2,
      "curveTo": "{0, 0.77142857142857146}",
      "hasCurveFrom": true,
      "hasCurveTo": true,
      "point": "{0, 0.5}"
    },
    {
      "_class": "curvePoint",
      "cornerRadius": 0,
      "curveFrom": "{0.77142857142857124, 0}",
      "curveMode": 2,
      "curveTo": "{0.22857142857142848, 0}",
      "hasCurveFrom": true,
      "hasCurveTo": true,
      "point": "{0.50000000000000011, 0}"
    },
    {
      "_class": "curvePoint",
      "cornerRadius": 0,
      "curveFrom": "{1, 0.77142857142857146}",
      "curveMode": 2,
      "curveTo": "{1, 0.22857142857142851}",
      "hasCurveFrom": true,
      "hasCurveTo": true,
      "point": "{1, 0.5}"
    },
    {
      "_class": "curvePoint",
      "cornerRadius": 0,
      "curveFrom": "{0.50000000000000011, 1}",
      "curveMode": 4,
      "curveTo": "{0.77142857142857124, 1}",
      "hasCurveFrom": false,
      "hasCurveTo": true,
      "point": "{0.50000000000000011, 1}"
    }
  ],
  "resizingConstraint": 63,
  "resizingType": 0,
  "rotation": 0,
  "shouldBreakMaskChain": false
}