{
  "_class": "group",
  "booleanOperation": 0,
  "do_objectID": "CB939A76-8E88-489F-B8E1-C8A7CC192069",
  "exportOptions": {
    "_class": "exportOptions",
    "do_objectID": "F0949442-5008-46DA-B182-04133B0EDE94",
    "exportFormats": [
      {
        "_class": "exportFormat",
        "absoluteSize": 0,
        "fileFormat": "png",
        "name": "",
        "namingScheme": 0,
        "scale": 1,
        "visibleScaleType": 0
      }
    ],
    "includedLayerIds": [
    ],
    "layerOptions": 0,
    "shouldTrim": false
  },
  "frame": {
    "_class": "rect",
    "constrainProportions": false,
    "do_objectID": "18826A5E-7256-46D8-ABBD-AA71EB9EFB09",
    "height": 48,
    "width": 48,
    "x": 12,
    "y": 0
  },
  "hasClickThrough": false,
  "isFixedToViewport": false,
  "isFlippedHorizontal": false,
  "isFlippedVertical": false,
  "isLocked": false,
  "isVisible": true,
  "layerListExpandedType": 0,
  "layers": [
    {
      "class": "group",
      "id": "2F43AC7A-310A-4C38-83B7-624CDB8727E1"
    }
  ],
  "name": "Material/Icons/Product/Active/Global Search 48px",
  "nameIsFixed": false,
  "resizingConstraint": 63,
  "resizingType": 0,
  "rotation": 0,
  "shouldBreakMaskChain": false,
  "style": {
    "_class": "style",
    "do_objectID": "1DCC224B-2EC3-4D4D-9A09-757033829139",
    "endMarkerType": 0,
    "miterLimit": 10,
    "startMarkerType": 0,
    "windingRule": 1
  }
}